Variable;;RH;;;%;Simulação;;Medições CETESB;;Comparação CETESB-Simulação;;;;;;;
RH;;;;;;Dumb;;Dumb;;Número de comparaões;167;RMSE;Gráfico de Nuvem;;Vmodulo Fractional BIAS;;
z (agl)   ;;m    ;;;0;;;Hora (média);10m;;;;T;;(Calculando a partir do dia 24/08/2006);;
      Date;; Hour;;;RH;R (%);;(N-1)h-->Nh;T (ºC);RMSE;17,0200795849445;(Tmedido-Tsimulado)^2;;;Observado;Simulado;Fractional BIAS
Simulação;#Dias em relação a uma data de referência;     ;#Fração de um dia;Tempo Corrido;RH (%);Simulado;;GMT;Medido;;;;Medido;Simulado;71,4176388888889;66,8579930555556;0,0659500993662
23/08/2006;38952;00:00;0;0,0000;;74,643;;24;73,64;;;1,006009;73,64;74,643;;;
23/08/2006;38952;01:00;0,0416666666667;0,0417;;73,647;;1;76,06;;;5,822569;76,06;73,647;;;
23/08/2006;38952;02:00;0,0833333333333;0,0833;;76,937;;2;79,05;;;4,464769;79,05;76,937;;;
23/08/2006;38952;03:00;0,125;0,1250;;82,597;;3;80,43;;;4,695889;80,43;82,597;;;
23/08/2006;38952;04:00;0,1666666666667;0,1667;;87,723;;4;82,43;;;28,0158489999999;82,43;87,723;;;
23/08/2006;38952;05:00;0,2083333333333;0,2083;;91,872;;5;84,44;;;55,234624;84,44;91,872;;;
23/08/2006;38952;06:00;0,25;0,2500;;95,57;;6;86,68;;;79,0320999999998;86,68;95,57;;;
23/08/2006;38952;07:00;0,2916666666667;0,2917;;99,994;;7;88,87;;;123,743376;88,87;99,994;;;
23/08/2006;38952;08:00;0,3333333333333;0,3333;;99,997;;8;92;;;63,952009;92;99,997;;;
23/08/2006;38952;09:00;0,375;0,3750;;99,997;;9;95,5;;;20,223009;95,5;99,997;;;
23/08/2006;38952;10:00;0,4166666666667;0,4167;;99,995;;10;97,38;;;6,8382250000001;97,38;99,995;;;
23/08/2006;38952;11:00;0,4583333333333;0,4583;;99,988;;11;97,4;;;6,697744;97,4;99,988;;;
23/08/2006;38952;12:00;0,5;0,5000;;99,983;;12;97,41;;;6,620329;97,41;99,983;;;
23/08/2006;38952;13:00;0,5416666666667;0,5417;;99,635;;13;93,85;;;33,4662250000001;93,85;99,635;;;
23/08/2006;38952;14:00;0,5833333333333;0,5833;;80,959;;14;83,38;;;5,861241;83,38;80,959;;;
23/08/2006;38952;15:00;0,625;0,6250;;56,525;;15;70,39;;;192,238225;70,39;56,525;;;
23/08/2006;38952;16:00;0,6666666666667;0,6667;;45,955;;16;57,84;;;141,253225;57,84;45,955;;;
23/08/2006;38952;17:00;0,7083333333333;0,7083;;36,293;;17;47,16;;;118,091689;47,16;36,293;;;
23/08/2006;38952;18:00;0,75;0,7500;;27,993;;18;39,77;;;138,697729;39,77;27,993;;;
23/08/2006;38952;19:00;0,7916666666667;0,7917;;21,933;;19;36,48;;;211,615209;36,48;21,933;;;
23/08/2006;38952;20:00;0,8333333333333;0,8333;;31,156;;20;35,12;;;15,713296;35,12;31,156;;;
23/08/2006;38952;21:00;0,875;0,8750;;41,619;;21;41,6;;;0,000361;41,6;41,619;;;
23/08/2006;38952;22:00;0,9166666666667;0,9167;;51,196;;22;46,06;;;26,378496;46,06;51,196;;;
23/08/2006;38952;23:00;0,9583333333333;0,9583;;58,384;;23;47,66;;;115,004176;47,66;58,384;;;
24/08/2006;38953;00:00;0;1,0000;;60,664;;24;49,57;;;123,076836;49,57;60,664;;;
24/08/2006;38953;01:00;0,0416666666667;1,0417;;59,702;;1;52,26;;;55,383364;52,26;59,702;;;
24/08/2006;38953;02:00;0,0833333333333;1,0833;;58,734;;2;55,13;;;12,988816;55,13;58,734;;;
24/08/2006;38953;03:00;0,125;1,1250;;61,879;;3;58,19;;;13,608721;58,19;61,879;;;
24/08/2006;38953;04:00;0,1666666666667;1,1667;;66,492;;4;60,98;;;30,3821440000001;60,98;66,492;;;
24/08/2006;38953;05:00;0,2083333333333;1,2083;;71,424;;5;64,08;;;53,9343360000001;64,08;71,424;;;
24/08/2006;38953;06:00;0,25;1,2500;;77,266;;6;67,07;;;103,958416;67,07;77,266;;;
24/08/2006;38953;07:00;0,2916666666667;1,2917;;82,768;;7;70,68;;;146,119744;70,68;82,768;;;
24/08/2006;38953;08:00;0,3333333333333;1,3333;;86,636;;8;73,89;;;162,460516;73,89;86,636;;;
24/08/2006;38953;09:00;0,375;1,3750;;89,832;;9;76,68;;;172,975104;76,68;89,832;;;
24/08/2006;38953;10:00;0,4166666666667;1,4167;;97,165;;10;79,81;;;301,196025;79,81;97,165;;;
24/08/2006;38953;11:00;0,4583333333333;1,4583;;99,362;;11;80,27;;;364,504464;80,27;99,362;;;
24/08/2006;38953;12:00;0,5;1,5000;;99,674;;12;71,61;;;787,588096;71,61;99,674;;;
24/08/2006;38953;13:00;0,5416666666667;1,5417;;97,272;;13;62,69;;;1195,914724;62,69;97,272;;;
24/08/2006;38953;14:00;0,5833333333333;1,5833;;77,741;;14;55,58;;;491,109921;55,58;77,741;;;
24/08/2006;38953;15:00;0,625;1,6250;;55,668;;15;50,08;;;31,225744;50,08;55,668;;;
24/08/2006;38953;16:00;0,6666666666667;1,6667;;39,332;;16;47,85;;;72,556324;47,85;39,332;;;
24/08/2006;38953;17:00;0,7083333333333;1,7083;;30,022;;17;43,21;;;173,923344;43,21;30,022;;;
24/08/2006;38953;18:00;0,75;1,7500;;30,241;;18;37,7;;;55,636681;37,7;30,241;;;
24/08/2006;38953;19:00;0,7916666666667;1,7917;;32,072;;19;39,56;;;56,070144;39,56;32,072;;;
24/08/2006;38953;20:00;0,8333333333333;1,8333;;35,066;;20;45,87;;;116,726416;45,87;35,066;;;
24/08/2006;38953;21:00;0,875;1,8750;;42,894;;21;54,12;;;126,023076;54,12;42,894;;;
24/08/2006;38953;22:00;0,9166666666667;1,9167;;53,108;;22;64,21;;;123,254404;64,21;53,108;;;
24/08/2006;38953;23:00;0,9583333333333;1,9583;;58,119;;23;73,15;;;225,930961;73,15;58,119;;;
25/08/2006;38954;00:00;0;2,0000;;59,162;;24;80,15;;;440,496144;80,15;59,162;;;
25/08/2006;38954;01:00;0,0416666666667;2,0417;;63,805;;1;84,9;;;444,999025;84,9;63,805;;;
25/08/2006;38954;02:00;0,0833333333333;2,0833;;70,207;;2;88,41;;;331,349209;88,41;70,207;;;
25/08/2006;38954;03:00;0,125;2,1250;;75,082;;3;90,15;;;227,044624;90,15;75,082;;;
25/08/2006;38954;04:00;0,1666666666667;2,1667;;79,164;;4;92,59;;;180,257476;92,59;79,164;;;
25/08/2006;38954;05:00;0,2083333333333;2,2083;;82,652;;5;94,83;;;148,303684;94,83;82,652;;;
25/08/2006;38954;06:00;0,25;2,2500;;85,81;;6;97,2;;;129,7321;97,2;85,81;;;
25/08/2006;38954;07:00;0,2916666666667;2,2917;;89,717;;7;97,44;;;59,644729;97,44;89,717;;;
25/08/2006;38954;08:00;0,3333333333333;2,3333;;95,404;;8;97,46;;;4,227136;97,46;95,404;;;
25/08/2006;38954;09:00;0,375;2,3750;;98,87;;9;97,48;;;1,9321;97,48;98,87;;;
25/08/2006;38954;10:00;0,4166666666667;2,4167;;99,974;;10;97,5;;;6,120676;97,5;99,974;;;
25/08/2006;38954;11:00;0,4583333333333;2,4583;;99,991;;11;97,5;;;6,205081;97,5;99,991;;;
25/08/2006;38954;12:00;0,5;2,5000;;99,986;;12;97,49;;;6,2300160000001;97,49;99,986;;;
25/08/2006;38954;13:00;0,5416666666667;2,5417;;97,443;;13;92,68;;;22,6861689999999;92,68;97,443;;;
25/08/2006;38954;14:00;0,5833333333333;2,5833;;72,018;;14;77,79;;;33,3159840000001;77,79;72,018;;;
25/08/2006;38954;15:00;0,625;2,6250;;50,819;;15;65,51;;;215,825481;65,51;50,819;;;
25/08/2006;38954;16:00;0,6666666666667;2,6667;;37,8;;16;55,63;;;317,9089;55,63;37,8;;;
25/08/2006;38954;17:00;0,7083333333333;2,7083;;30,088;;17;46,47;;;268,369924;46,47;30,088;;;
25/08/2006;38954;18:00;0,75;2,7500;;25,655;;18;38,98;;;177,555625;38,98;25,655;;;
25/08/2006;38954;19:00;0,7916666666667;2,7917;;31,635;;19;33,67;;;4,141225;33,67;31,635;;;
25/08/2006;38954;20:00;0,8333333333333;2,8333;;36,573;;20;31,26;;;28,227969;31,26;36,573;;;
25/08/2006;38954;21:00;0,875;2,8750;;47,681;;21;30,75;;;286,658761;30,75;47,681;;;
25/08/2006;38954;22:00;0,9166666666667;2,9167;;58,052;;22;36,69;;;456,335044;36,69;58,052;;;
25/08/2006;38954;23:00;0,9583333333333;2,9583;;64,976;;23;47,56;;;303,317056;47,56;64,976;;;
26/08/2006;38955;00:00;0;3,0000;;67,212;;24;53,41;;;190,495204;53,41;67,212;;;
26/08/2006;38955;01:00;0,0416666666667;3,0417;;66,952;;1;57,34;;;92,3905439999999;57,34;66,952;;;
26/08/2006;38955;02:00;0,0833333333333;3,0833;;68,451;;2;57,53;;;119,268241;57,53;68,451;;;
26/08/2006;38955;03:00;0,125;3,1250;;71,563;;3;58,16;;;179,640409;58,16;71,563;;;
26/08/2006;38955;04:00;0,1666666666667;3,1667;;76,37;;4;59,77;;;275,56;59,77;76,37;;;
26/08/2006;38955;05:00;0,2083333333333;3,2083;;79,363;;5;61,38;;;323,388289;61,38;79,363;;;
26/08/2006;38955;06:00;0,25;3,2500;;79,675;;6;60,93;;;351,375025;60,93;79,675;;;
26/08/2006;38955;07:00;0,2916666666667;3,2917;;79,88;;7;61,74;;;329,0596;61,74;79,88;;;
26/08/2006;38955;08:00;0,3333333333333;3,3333;;83,274;;8;63,8;;;379,236676;63,8;83,274;;;
26/08/2006;38955;09:00;0,375;3,3750;;86,611;;9;66,86;;;390,102001;66,86;86,611;;;
26/08/2006;38955;10:00;0,4166666666667;3,4167;;90,454;;10;68,77;;;470,195856;68,77;90,454;;;
26/08/2006;38955;11:00;0,4583333333333;3,4583;;90,766;;11;68,49;;;496,220176;68,49;90,766;;;
26/08/2006;38955;12:00;0,5;3,5000;;79,995;;12;61,67;;;335,805625;61,67;79,995;;;
26/08/2006;38955;13:00;0,5416666666667;3,5417;;63,795;;13;55,09;;;75,777025;55,09;63,795;;;
26/08/2006;38955;14:00;0,5833333333333;3,5833;;49,812;;14;48,79;;;1,044484;48,79;49,812;;;
26/08/2006;38955;15:00;0,625;3,6250;;40,203;;15;44;;;14,417209;44;40,203;;;
26/08/2006;38955;16:00;0,6666666666667;3,6667;;32,022;;16;38,35;;;40,043584;38,35;32,022;;;
26/08/2006;38955;17:00;0,7083333333333;3,7083;;26,708;;17;30,54;;;14,684224;30,54;26,708;;;
26/08/2006;38955;18:00;0,75;3,7500;;22,304;;18;26,86;;;20,757136;26,86;22,304;;;
26/08/2006;38955;19:00;0,7916666666667;3,7917;;21,26;;19;26,19;;;24,3049;26,19;21,26;;;
26/08/2006;38955;20:00;0,8333333333333;3,8333;;20,621;;20;25,92;;;28,079401;25,92;20,621;;;
26/08/2006;38955;21:00;0,875;3,8750;;20,642;;21;27,06;;;41,190724;27,06;20,642;;;
26/08/2006;38955;22:00;0,9166666666667;3,9167;;21,623;;22;29,78;;;66,536649;29,78;21,623;;;
26/08/2006;38955;23:00;0,9583333333333;3,9583;;22,937;;23;33,04;;;102,070609;33,04;22,937;;;
27/08/2006;38956;00:00;0;4,0000;;26,527;;24;36,08;;;91,259809;36,08;26,527;;;
27/08/2006;38956;01:00;0,0416666666667;4,0417;;33,456;;1;38,81;;;28,665316;38,81;33,456;;;
27/08/2006;38956;02:00;0,0833333333333;4,0833;;37,728;;2;40,65;;;8,538084;40,65;37,728;;;
27/08/2006;38956;03:00;0,125;4,1250;;40,815;;3;48,5;;;59,059225;48,5;40,815;;;
27/08/2006;38956;04:00;0,1666666666667;4,1667;;43,312;;4;69,21;;;670,706404;69,21;43,312;;;
27/08/2006;38956;05:00;0,2083333333333;4,2083;;45,587;;5;83,75;;;1456,414569;83,75;45,587;;;
27/08/2006;38956;06:00;0,25;4,2500;;48,005;;6;97,66;;;2465,619025;97,66;48,005;;;
27/08/2006;38956;07:00;0,2916666666667;4,2917;;50,599;;7;97,63;;;2211,914961;97,63;50,599;;;
27/08/2006;38956;08:00;0,3333333333333;4,3333;;53,373;;8;97,49;;;1946,309689;97,49;53,373;;;
27/08/2006;38956;09:00;0,375;4,3750;;55,905;;9;97,48;;;1728,480625;97,48;55,905;;;
27/08/2006;38956;10:00;0,4166666666667;4,4167;;58,33;;10;97,45;;;1530,3744;97,45;58,33;;;
27/08/2006;38956;11:00;0,4583333333333;4,4583;;59,119;;11;97,45;;;1469,265561;97,45;59,119;;;
27/08/2006;38956;12:00;0,5;4,5000;;53,065;;12;97,46;;;1970,916025;97,46;53,065;;;
27/08/2006;38956;13:00;0,5416666666667;4,5417;;46,282;;13;97,44;;;2617,140964;97,44;46,282;;;
27/08/2006;38956;14:00;0,5833333333333;4,5833;;43,855;;14;94,89;;;2604,571225;94,89;43,855;;;
27/08/2006;38956;15:00;0,625;4,6250;;41,121;;15;85,28;;;1950,017281;85,28;41,121;;;
27/08/2006;38956;16:00;0,6666666666667;4,6667;;37,211;;16;70,27;;;1092,897481;70,27;37,211;;;
27/08/2006;38956;17:00;0,7083333333333;4,7083;;35,501;;17;62,07;;;705,911761;62,07;35,501;;;
27/08/2006;38956;18:00;0,75;4,7500;;33,598;;18;53,91;;;412,577344;53,91;33,598;;;
27/08/2006;38956;19:00;0,7916666666667;4,7917;;32,258;;19;51,77;;;380,718144;51,77;32,258;;;
27/08/2006;38956;20:00;0,8333333333333;4,8333;;31,988;;20;53,4;;;458,473744;53,4;31,988;;;
27/08/2006;38956;21:00;0,875;4,8750;;33,669;;21;55,9;;;494,217361;55,9;33,669;;;
27/08/2006;38956;22:00;0,9166666666667;4,9167;;58,606;;22;58,74;;;0,017956;58,74;58,606;;;
27/08/2006;38956;23:00;0,9583333333333;4,9583;;68,159;;23;61,57;;;43,4149210000001;61,57;68,159;;;
28/08/2006;38957;00:00;0;5,0000;;74,613;;24;64,13;;;109,893289;64,13;74,613;;;
28/08/2006;38957;01:00;0,0416666666667;5,0417;;78,195;;1;66,13;;;145,564225;66,13;78,195;;;
28/08/2006;38957;02:00;0,0833333333333;5,0833;;79,175;;2;68,65;;;110,775625;68,65;79,175;;;
28/08/2006;38957;03:00;0,125;5,1250;;79,002;;3;72,33;;;44,515584;72,33;79,002;;;
28/08/2006;38957;04:00;0,1666666666667;5,1667;;80,695;;4;76,05;;;21,576025;76,05;80,695;;;
28/08/2006;38957;05:00;0,2083333333333;5,2083;;81,173;;5;78,52;;;7,038409;78,52;81,173;;;
28/08/2006;38957;06:00;0,25;5,2500;;81,861;;6;80,57;;;1,666681;80,57;81,861;;;
28/08/2006;38957;07:00;0,2916666666667;5,2917;;83,308;;7;83,52;;;0,044944;83,52;83,308;;;
28/08/2006;38957;08:00;0,3333333333333;5,3333;;85,128;;8;87,32;;;4,804864;87,32;85,128;;;
28/08/2006;38957;09:00;0,375;5,3750;;87,256;;9;90,67;;;11,655396;90,67;87,256;;;
28/08/2006;38957;10:00;0,4166666666667;5,4167;;89,596;;10;92,85;;;10,5885159999999;92,85;89,596;;;
28/08/2006;38957;11:00;0,4583333333333;5,4583;;91,747;;11;95,41;;;13,417569;95,41;91,747;;;
28/08/2006;38957;12:00;0,5;5,5000;;90,852;;12;93;;;4,613904;93;90,852;;;
28/08/2006;38957;13:00;0,5416666666667;5,5417;;73,727;;13;86,84;;;171,950769;86,84;73,727;;;
28/08/2006;38957;14:00;0,5833333333333;5,5833;;63,786;;14;76,82;;;169,885156;76,82;63,786;;;
28/08/2006;38957;15:00;0,625;5,6250;;54,409;;15;69,76;;;235,653201;69,76;54,409;;;
28/08/2006;38957;16:00;0,6666666666667;5,6667;;47,604;;16;64,66;;;290,907136;64,66;47,604;;;
28/08/2006;38957;17:00;0,7083333333333;5,7083;;62,082;;17;60,73;;;1,827904;60,73;62,082;;;
28/08/2006;38957;18:00;0,75;5,7500;;71,004;;18;61,28;;;94,5561760000001;61,28;71,004;;;
28/08/2006;38957;19:00;0,7916666666667;5,7917;;79,398;;19;63,49;;;253,064464;63,49;79,398;;;
28/08/2006;38957;20:00;0,8333333333333;5,8333;;85,251;;20;66,11;;;366,377881;66,11;85,251;;;
28/08/2006;38957;21:00;0,875;5,8750;;90,176;;21;73,52;;;277,422336;73,52;90,176;;;
28/08/2006;38957;22:00;0,9166666666667;5,9167;;91,739;;22;81,14;;;112,338801;81,14;91,739;;;
28/08/2006;38957;23:00;0,9583333333333;5,9583;;91,722;;23;85,28;;;41,4993639999999;85,28;91,722;;;
29/08/2006;38958;00:00;0;6,0000;;91,769;;24;90,52;;;1,560001;90,52;91,769;;;
29/08/2006;38958;01:00;0,0416666666667;6,0417;;92,424;;1;95;;;6,635776;95;92,424;;;
29/08/2006;38958;02:00;0,0833333333333;6,0833;;93,825;;2;97,34;;;12,355225;97,34;93,825;;;
29/08/2006;38958;03:00;0,125;6,1250;;93,424;;3;97,43;;;16,048036;97,43;93,424;;;
29/08/2006;38958;04:00;0,1666666666667;6,1667;;93,286;;4;97,43;;;17,172736;97,43;93,286;;;
29/08/2006;38958;05:00;0,2083333333333;6,2083;;93,564;;5;97,44;;;15,023376;97,44;93,564;;;
29/08/2006;38958;06:00;0,25;6,2500;;94,746;;6;97,46;;;7,365796;97,46;94,746;;;
29/08/2006;38958;07:00;0,2916666666667;6,2917;;96,461;;7;97,47;;;1,018081;97,47;96,461;;;
29/08/2006;38958;08:00;0,3333333333333;6,3333;;95,7;;8;97,48;;;3,1684;97,48;95,7;;;
29/08/2006;38958;09:00;0,375;6,3750;;94,014;;9;97,46;;;11,874916;97,46;94,014;;;
29/08/2006;38958;10:00;0,4166666666667;6,4167;;92,909;;10;97,46;;;20,7116009999999;97,46;92,909;;;
29/08/2006;38958;11:00;0,4583333333333;6,4583;;92,468;;11;97,45;;;24,820324;97,45;92,468;;;
29/08/2006;38958;12:00;0,5;6,5000;;92,49;;12;97,45;;;24,6016000000001;97,45;92,49;;;
29/08/2006;38958;13:00;0,5416666666667;6,5417;;90,894;;13;97,45;;;42,981136;97,45;90,894;;;
29/08/2006;38958;14:00;0,5833333333333;6,5833;;89,675;;14;97,45;;;60,4506250000001;97,45;89,675;;;
29/08/2006;38958;15:00;0,625;6,6250;;86,336;;15;97,42;;;122,855056;97,42;86,336;;;
29/08/2006;38958;16:00;0,6666666666667;6,6667;;76,553;;16;97,39;;;434,180569;97,39;76,553;;;
29/08/2006;38958;17:00;0,7083333333333;6,7083;;69,144;;17;97,19;;;786,578116;97,19;69,144;;;
29/08/2006;38958;18:00;0,75;6,7500;;64,611;;18;96,83;;;1038,063961;96,83;64,611;;;
29/08/2006;38958;19:00;0,7916666666667;6,7917;;65,947;;19;96,13;;;911,013489;96,13;65,947;;;
29/08/2006;38958;20:00;0,8333333333333;6,8333;;69,17;;20;95,7;;;703,8409;95,7;69,17;;;
29/08/2006;38958;21:00;0,875;6,8750;;76,153;;21;93,93;;;316,021729;93,93;76,153;;;
29/08/2006;38958;22:00;0,9166666666667;6,9167;;86,745;;22;91,7;;;24,552025;91,7;86,745;;;
29/08/2006;38958;23:00;0,9583333333333;6,9583;;95,485;;23;92,12;;;11,323225;92,12;95,485;;;
;;;;;;;;;;;;167;;;;;
