;;;;;Estatística;;;;;;;;;;;;;;;;
;;;;;;;;;avalia a habilidade de uma simulação;;;;;;;;;;;;
;;;;;σsimulacao;σobservado;correlação;RMSE;RMSVEUB;ME;F. Bias;obmédio;simmédio;#Pontos (n);Teste de hipótese nula;;;;;;
;;;;;25,6862601340101;22,1243059174334;0,8103072410831;16,6627778961243;11,6920144080391;5,1645555555556;-0,0817403029452;60,6002083333333;65,7647638888889;167;17,76193069629;;;;;;
;;;;;;;;;;;;;;;;;;;;;
Variable;;RH;;;%;Simulação;;Medições CETESB;;Comparação CETESB-Simulação;;;;;;;;;;;
RH;;;;;;Dumb;;Dumb;;Número de comparaões;167;RMSE;Gráfico de Nuvem;;Vmodulo Fractional BIAS;;;;;;
z (agl)   ;;m    ;;;0;;;Hora (média);10m;;;;T;;(Calculando a partir do dia 24/08/2006);;;;Calculando;;
      Date;; Hour;;;RH;R (%);;(N-1)h-->Nh;T (ºC);RMSE;16,6627778961243;(Tmedido-Tsimulado)^2;;;Observado;Simulado;Fractional BIAS;;RMSVEUB;;
Simulação;#Dias em relação a uma data de referência;     ;#Fração de um dia;Tempo Corrido;RH (%);Simulado;;GMT;Medido;;;;Medido;Simulado;60,6002083333333;65,7647638888889;-0,0817403029452;;sim-Mean_sim;ob-mean_ob;diff²
23/08/2006;38952;00:00;0;0,0000;;72,528;;24;70,36;;;4,700224;70,36;72,528;;;;;6,7632361111111;9,7597916666667;8,9793451975308
23/08/2006;38952;01:00;0,0416666666667;0,0417;;73,421;;1;72,12;;;1,692601;72,12;73,421;;;;;7,6562361111111;11,5197916666667;14,9270615308641
23/08/2006;38952;02:00;0,0833333333333;0,0833;;75,832;;2;73,88;;;3,810304;73,88;75,832;;;;;10,0672361111111;13,2797916666666;10,3205131975308
23/08/2006;38952;03:00;0,125;0,1250;;79,26;;3;75,25;;;16,0801;75,25;79,26;;;;;13,4952361111111;14,6497916666667;1,3329985308642
23/08/2006;38952;04:00;0,1666666666667;0,1667;;82,462;;4;77,33;;;26,3374240000001;77,33;82,462;;;;;16,6972361111111;16,7297916666667;0,0010598641975
23/08/2006;38952;05:00;0,2083333333333;0,2083;;85,85;;5;79,16;;;44,7561;79,16;85,85;;;;;20,0852361111111;18,5597916666666;2,3269807530865
23/08/2006;38952;06:00;0,25;0,2500;;89,832;;6;80,55;;;86,1555239999999;80,55;89,832;;;;;24,0672361111111;19,9497916666666;16,9533487530865
23/08/2006;38952;07:00;0,2916666666667;0,2917;;94,663;;7;81,64;;;169,598529;81,64;94,663;;;;;28,8982361111111;21,0397916666667;61,7551490864199
23/08/2006;38952;08:00;0,3333333333333;0,3333;;99,991;;8;82,48;;;306,635121;82,48;99,991;;;;;34,2262361111111;21,8797916666667;152,434690419753
23/08/2006;38952;09:00;0,375;0,3750;;99,997;;9;84,01;;;255,584169;84,01;99,997;;;;;34,2322361111111;23,4097916666667;117,125303753087
23/08/2006;38952;10:00;0,4166666666667;0,4167;;99,997;;10;84,68;;;234,610489;84,68;99,997;;;;;34,2322361111111;24,0797916666667;103,072128197531
23/08/2006;38952;11:00;0,4583333333333;0,4583;;99,995;;11;85,76;;;202,635225;85,76;99,995;;;;;34,2302361111111;25,1597916666667;82,2729624197533
23/08/2006;38952;12:00;0,5;0,5000;;99,991;;12;83,73;;;264,420121;83,73;99,991;;;;;34,2262361111111;23,1297916666667;123,131079308642
23/08/2006;38952;13:00;0,5416666666667;0,5417;;99,975;;13;65,41;;;1194,739225;65,41;99,975;;;;;34,2102361111111;4,8097916666667;864,386133530865
23/08/2006;38952;14:00;0,5833333333333;0,5833;;86,242;;14;49,65;;;1338,974464;49,65;86,242;;;;;20,4772361111111;-10,9502083333334;987,684264308643
23/08/2006;38952;15:00;0,625;0,6250;;59,595;;15;35,64;;;573,842025;35,64;59,595;;;;;-6,1697638888889;-24,9602083333333;353,080802419753
23/08/2006;38952;16:00;0,6666666666667;0,6667;;43,503;;16;28,51;;;224,790049;28,51;43,503;;;;;-22,2617638888889;-32,0902083333333;96,5983201975311
23/08/2006;38952;17:00;0,7083333333333;0,7083;;33,942;;17;26,8;;;51,008164;26,8;33,942;;;;;-31,8227638888889;-33,8002083333333;3,9102865308642
23/08/2006;38952;18:00;0,75;0,7500;;26,579;;18;25,13;;;2,099601;25,13;26,579;;;;;-39,1857638888889;-35,4702083333333;13,8053530864197
23/08/2006;38952;19:00;0,7916666666667;0,7917;;23,167;;19;22,68;;;0,237169;22,68;23,167;;;;;-42,5977638888889;-37,9202083333333;21,8795259753085
23/08/2006;38952;20:00;0,8333333333333;0,8333;;33,023;;20;23,13;;;97,8714490000001;23,13;33,023;;;;;-32,7417638888889;-37,4702083333333;22,3581868641976
23/08/2006;38952;21:00;0,875;0,8750;;40,665;;21;44,35;;;13,579225;44,35;40,665;;;;;-25,0997638888889;-16,2502083333333;78,314633530864
23/08/2006;38952;22:00;0,9166666666667;0,9167;;48,162;;22;46,82;;;1,800964;46,82;48,162;;;;;-17,6027638888889;-13,7802083333333;14,6119309753086
23/08/2006;38952;23:00;0,9583333333333;0,9583;;59,381;;23;55,06;;;18,671041;55,06;59,381;;;;;-6,3837638888889;-5,5402083333334;0,7115859753086
24/08/2006;38953;00:00;0;1,0000;;66,24;;24;58,56;;;58,9823999999999;58,56;66,24;;;;;0,4752361111111;-2,0402083333334;6,3274607530864
24/08/2006;38953;01:00;0,0416666666667;1,0417;;67,034;;1;49,19;;;318,408336;49,19;67,034;;;;;1,2692361111111;-11,4102083333334;160,768311419754
24/08/2006;38953;02:00;0,0833333333333;1,0833;;66,101;;2;48,75;;;301,057201;48,75;66,101;;;;;0,3362361111111;-11,8502083333334;148,509428197531
24/08/2006;38953;03:00;0,125;1,1250;;64,135;;3;57,96;;;38,1306250000001;57,96;64,135;;;;;-1,6297638888889;-2,6402083333334;1,0209979753087
24/08/2006;38953;04:00;0,1666666666667;1,1667;;64,011;;4;68,39;;;19,175641;68,39;64,011;;;;;-1,7537638888889;7,7897916666667;91,0794526419752
24/08/2006;38953;05:00;0,2083333333333;1,2083;;65,12;;5;72,8;;;58,9823999999999;72,8;65,12;;;;;-0,6447638888889;12,1997916666666;164,982607419753
24/08/2006;38953;06:00;0,25;1,2500;;66,648;;6;74,28;;;58,2474240000001;74,28;66,648;;;;;0,8832361111111;13,6797916666667;163,75183408642
24/08/2006;38953;07:00;0,2916666666667;1,2917;;69,274;;7;73,92;;;21,585316;73,92;69,274;;;;;3,5092361111111;13,3197916666667;96,2470003086418
24/08/2006;38953;08:00;0,3333333333333;1,3333;;73,512;;8;74,36;;;0,719104;74,36;73,512;;;;;7,7472361111111;13,7597916666667;36,1508243086418
24/08/2006;38953;09:00;0,375;1,3750;;81,157;;9;74,09;;;49,9424889999999;74,09;81,157;;;;;15,3922361111111;13,4897916666667;3,6192948641976
24/08/2006;38953;10:00;0,4166666666667;1,4167;;98,525;;10;71,87;;;710,489025;71,87;98,525;;;;;32,7602361111111;11,2697916666667;461,839202419754
24/08/2006;38953;11:00;0,4583333333333;1,4583;;99,992;;11;67,51;;;1055,080324;67,51;99,992;;;;;34,2272361111111;6,9097916666667;746,242770975309
24/08/2006;38953;12:00;0,5;1,5000;;99,982;;12;51,88;;;2313,802404;51,88;99,982;;;;;34,2172361111111;-8,7202083333334;1843,62413541975
24/08/2006;38953;13:00;0,5416666666667;1,5417;;96,885;;13;42,51;;;2956,640625;42,51;96,885;;;;;31,1202361111111;-18,0902083333334;2421,66784241975
24/08/2006;38953;14:00;0,5833333333333;1,5833;;73,786;;14;29,81;;;1933,888576;29,81;73,786;;;;;8,0212361111111;-30,7902083333333;1506,3282198642
24/08/2006;38953;15:00;0,625;1,6250;;53,467;;15;27,23;;;688,380169;27,23;53,467;;;;;-12,2977638888889;-33,3702083333333;444,047914864198
24/08/2006;38953;16:00;0,6666666666667;1,6667;;39,95;;16;30,2;;;95,0625000000001;30,2;39,95;;;;;-25,8147638888889;-30,4002083333333;21,0263007530866
24/08/2006;38953;17:00;0,7083333333333;1,7083;;30,727;;17;29,84;;;0,786769;29,84;30,727;;;;;-35,0377638888889;-30,7602083333333;18,2974815308641
24/08/2006;38953;18:00;0,75;1,7500;;28,398;;18;30,5;;;4,418404;30,5;28,398;;;;;-37,3667638888889;-30,1002083333333;52,8028296419752
24/08/2006;38953;19:00;0,7916666666667;1,7917;;28,476;;19;35,94;;;55,711296;35,94;28,476;;;;;-37,2887638888889;-24,6602083333333;159,480415419753
24/08/2006;38953;20:00;0,8333333333333;1,8333;;31,862;;20;45,74;;;192,598884;45,74;31,862;;;;;-33,9027638888889;-14,8602083333333;362,61892208642
24/08/2006;38953;21:00;0,875;1,8750;;38,679;;21;59,01;;;413,349561;59,01;38,679;;;;;-27,0857638888889;-1,5902083333334;650,023353086419
24/08/2006;38953;22:00;0,9166666666667;1,9167;;48,844;;22;73,7;;;617,820736;73,7;48,844;;;;;-16,9207638888889;13,0997916666667;901,233755864197
24/08/2006;38953;23:00;0,9583333333333;1,9583;;57,392;;23;78,87;;;461,304484;78,87;57,392;;;;;-8,3727638888889;18,2697916666667;709,825766530864
25/08/2006;38954;00:00;0;2,0000;;61,421;;24;81,2;;;391,208841;81,2;61,421;;;;;-4,3437638888889;20,5997916666667;622,180963753086
25/08/2006;38954;01:00;0,0416666666667;2,0417;;61,915;;1;79,98;;;326,344225;79,98;61,915;;;;;-3,8497638888889;19,3797916666667;539,612251308642
25/08/2006;38954;02:00;0,0833333333333;2,0833;;63,638;;2;78,27;;;214,095424;78,27;63,638;;;;;-2,1267638888889;17,6697916666666;391,903611864197
25/08/2006;38954;03:00;0,125;2,1250;;66,116;;3;77,84;;;137,452176;77,84;66,116;;;;;0,3512361111111;17,2397916666667;285,223308753086
25/08/2006;38954;04:00;0,1666666666667;2,1667;;69,163;;4;79,29;;;102,556129;79,29;69,163;;;;;3,3982361111111;18,6897916666667;233,831671308642
25/08/2006;38954;05:00;0,2083333333333;2,2083;;72,73;;5;81,23;;;72,25;81,23;72,73;;;;;6,9652361111111;20,6297916666667;186,720078530864
25/08/2006;38954;06:00;0,25;2,2500;;76,816;;6;82,87;;;36,650916;82,87;76,816;;;;;11,0512361111111;22,2697916666667;125,855988753086
25/08/2006;38954;07:00;0,2916666666667;2,2917;;81,575;;7;82,49;;;0,837225;82,49;81,575;;;;;15,8102361111111;21,8897916666666;36,9609957530862
25/08/2006;38954;08:00;0,3333333333333;2,3333;;86,654;;8;83,55;;;9,634816;83,55;86,654;;;;;20,8892361111111;22,9497916666666;4,2458891975308
25/08/2006;38954;09:00;0,375;2,3750;;90,663;;9;81,77;;;79,085449;81,77;90,663;;;;;24,8982361111111;21,1697916666666;13,9012979753087
25/08/2006;38954;10:00;0,4166666666667;2,4167;;94,994;;10;82,11;;;165,997456;82,11;94,994;;;;;29,2292361111111;21,5097916666666;59,5898225308644
25/08/2006;38954;11:00;0,4583333333333;2,4583;;99,465;;11;81,23;;;332,515225;81,23;99,465;;;;;33,7002361111111;20,6297916666667;170,836517975309
25/08/2006;38954;12:00;0,5;2,5000;;98,65;;12;68,36;;;917,4841;68,36;98,65;;;;;32,8852361111111;7,7597916666667;631,287958530865
25/08/2006;38954;13:00;0,5416666666667;2,5417;;80,569;;13;57,17;;;547,513201;57,17;80,569;;;;;14,8042361111111;-3,4302083333334;332,494964197531
25/08/2006;38954;14:00;0,5833333333333;2,5833;;60,628;;14;48,09;;;157,201444;48,09;60,628;;;;;-5,1367638888889;-12,5102083333333;54,3676829753088
25/08/2006;38954;15:00;0,625;2,6250;;45,425;;15;40,02;;;29,2140249999999;40,02;45,425;;;;;-20,3397638888889;-20,5802083333333;0,0578135308642
25/08/2006;38954;16:00;0,6666666666667;2,6667;;38,312;;16;33,67;;;21,548164;33,67;38,312;;;;;-27,4527638888889;-26,9302083333333;0,273064308642
25/08/2006;38954;17:00;0,7083333333333;2,7083;;31,399;;17;26,5;;;24,000201;26,5;31,399;;;;;-34,3657638888889;-34,1002083333333;0,0705197530864
25/08/2006;38954;18:00;0,75;2,7500;;26,518;;18;20,67;;;34,199104;20,67;26,518;;;;;-39,2467638888889;-39,9302083333333;0,467096308642
25/08/2006;38954;19:00;0,7916666666667;2,7917;;24,245;;19;20,21;;;16,281225;20,21;24,245;;;;;-41,5197638888889;-40,3902083333333;1,2758957530864
25/08/2006;38954;20:00;0,8333333333333;2,8333;;31,286;;20;21,32;;;99,321156;21,32;31,286;;;;;-34,4787638888889;-39,2802083333333;23,0538687530865
25/08/2006;38954;21:00;0,875;2,8750;;41,779;;21;26,92;;;220,789881;26,92;41,779;;;;;-23,9857638888889;-33,6802083333333;93,98225308642
25/08/2006;38954;22:00;0,9166666666667;2,9167;;55,105;;22;36,19;;;357,777225;36,19;55,105;;;;;-10,6597638888889;-24,4102083333334;189,074722419753
25/08/2006;38954;23:00;0,9583333333333;2,9583;;63,113;;23;46,22;;;285,373449;46,22;63,113;;;;;-2,6517638888889;-14,3802083333334;137,55640908642
26/08/2006;38955;00:00;0;3,0000;;66,869;;24;53,73;;;172,633321;53,73;66,869;;;;;1,1042361111111;-6,8702083333334;63,5917641975311
26/08/2006;38955;01:00;0,0416666666667;3,0417;;66,885;;1;59,25;;;58,2932250000001;59,25;66,885;;;;;1,1202361111111;-1,3502083333334;6,1030957530865
26/08/2006;38955;02:00;0,0833333333333;3,0833;;67,527;;2;63,05;;;20,043529;63,05;67,527;;;;;1,7622361111111;2,4497916666667;0,4727326419753
26/08/2006;38955;03:00;0,125;3,1250;;69,484;;3;66,02;;;11,999296;66,02;69,484;;;;;3,7192361111111;5,4197916666667;2,8918891975308
26/08/2006;38955;04:00;0,1666666666667;3,1667;;73,164;;4;67,21;;;35,4501160000001;67,21;73,164;;;;;7,3992361111111;6,6097916666667;0,6232225308642
26/08/2006;38955;05:00;0,2083333333333;3,2083;;76,465;;5;69,32;;;51,0510250000001;69,32;76,465;;;;;10,7002361111111;8,7197916666667;3,922160197531
26/08/2006;38955;06:00;0,25;3,2500;;81,853;;6;71,64;;;104,305369;71,64;81,853;;;;;16,0882361111111;11,0397916666667;25,486791308642
26/08/2006;38955;07:00;0,2916666666667;3,2917;;90,451;;7;70,09;;;414,570321;70,09;90,451;;;;;24,6862361111111;9,4897916666667;230,931923753086
26/08/2006;38955;08:00;0,3333333333333;3,3333;;96,241;;8;71,74;;;600,299001;71,74;96,241;;;;;30,4762361111111;11,1397916666666;373,898083753087
26/08/2006;38955;09:00;0,375;3,3750;;97,534;;9;74,9;;;512,297956;74,9;97,534;;;;;31,7692361111111;14,2997916666667;305,181489197531
26/08/2006;38955;10:00;0,4166666666667;3,4167;;97,748;;10;76,25;;;462,164004;76,25;97,748;;;;;31,9832361111111;15,6497916666667;266,781407419754
26/08/2006;38955;11:00;0,4583333333333;3,4583;;97,564;;11;71,57;;;675,688036;71,57;97,564;;;;;31,7992361111111;10,9697916666666;433,865755864198
26/08/2006;38955;12:00;0,5;3,5000;;90,588;;12;52,51;;;1449,934084;52,51;90,588;;;;;24,8232361111111;-8,0902083333334;1083,29482519753
26/08/2006;38955;13:00;0,5416666666667;3,5417;;71,841;;13;40,06;;;1010,031961;40,06;71,841;;;;;6,0762361111111;-20,5402083333333;708,435114864198
26/08/2006;38955;14:00;0,5833333333333;3,5833;;55,407;;14;34,45;;;439,195849;34,45;55,407;;;;;-10,3577638888889;-26,1502083333333;249,401301530864
26/08/2006;38955;15:00;0,625;3,6250;;42,651;;15;29,9;;;162,588001;29,9;42,651;;;;;-23,1137638888889;-30,7002083333334;57,5541393086422
26/08/2006;38955;16:00;0,6666666666667;3,6667;;31,76;;16;24,96;;;46,24;24,96;31,76;;;;;-34,0047638888889;-35,6402083333333;2,6746785308643
26/08/2006;38955;17:00;0,7083333333333;3,7083;;24,714;;17;21,65;;;9,388096;21,65;24,714;;;;;-41,0507638888889;-38,9502083333333;4,4123336419753
26/08/2006;38955;18:00;0,75;3,7500;;21,74;;18;22,69;;;0,9025;22,69;21,74;;;;;-44,0247638888889;-37,9102083333333;37,3877896419753
26/08/2006;38955;19:00;0,7916666666667;3,7917;;20,747;;19;21,15;;;0,162409;21,15;20,747;;;;;-45,0177638888889;-39,4502083333333;30,9976748641974
26/08/2006;38955;20:00;0,8333333333333;3,8333;;20,122;;20;22,26;;;4,571044;22,26;20,122;;;;;-45,6427638888889;-38,3402083333333;53,3273176419751
26/08/2006;38955;21:00;0,875;3,8750;;19,967;;21;24,21;;;18,003049;24,21;19,967;;;;;-45,7977638888889;-36,3902083333333;88,502101530864
26/08/2006;38955;22:00;0,9166666666667;3,9167;;21,224;;22;27,37;;;37,773316;27,37;21,224;;;;;-44,5407638888889;-33,2302083333334;127,928666975308
26/08/2006;38955;23:00;0,9583333333333;3,9583;;22,637;;23;29,19;;;42,941809;29,19;22,637;;;;;-43,1277638888889;-31,4102083333333;137,301108197531
27/08/2006;38956;00:00;0;4,0000;;27,268;;24;30,83;;;12,687844;30,83;27,268;;;;;-38,4967638888889;-29,7702083333334;76,1527718641973
27/08/2006;38956;01:00;0,0416666666667;4,0417;;30,805;;1;32,2;;;1,946025;32,2;30,805;;;;;-34,9597638888889;-28,4002083333333;43,0277690864197
27/08/2006;38956;02:00;0,0833333333333;4,0833;;34,517;;2;34,42;;;0,009409;34,42;34,517;;;;;-31,2477638888889;-26,1802083333333;25,6801193086418
27/08/2006;38956;03:00;0,125;4,1250;;38,352;;3;63,98;;;656,794384;63,98;38,352;;;;;-27,4127638888889;3,3797916666667;948,181477641975
27/08/2006;38956;04:00;0,1666666666667;4,1667;;41,813;;4;69,57;;;770,451048999999;69,57;41,813;;;;;-23,9517638888889;8,9697916666667;1083,82882019753
27/08/2006;38956;05:00;0,2083333333333;4,2083;;44,974;;5;79,59;;;1198,267456;79,59;44,974;;;;;-20,7907638888889;18,9897916666667;1582,49260030864
27/08/2006;38956;06:00;0,25;4,2500;;47,937;;6;79,47;;;994,330089;79,47;47,937;;;;;-17,8277638888889;18,8697916666667;1346,71058375309
27/08/2006;38956;07:00;0,2916666666667;4,2917;;50,455;;7;70,77;;;412,699225;70,77;50,455;;;;;-15,3097638888889;10,1697916666666;649,207751308641
27/08/2006;38956;08:00;0,3333333333333;4,3333;;52,607;;8;74,42;;;475,806969;74,42;52,607;;;;;-13,1577638888889;13,8197916666667;727,788503753086
27/08/2006;38956;09:00;0,375;4,3750;;55,003;;9;74,48;;;379,353529;74,48;55,003;;;;;-10,7617638888889;13,8797916666667;607,206260197531
27/08/2006;38956;10:00;0,4166666666667;4,4167;;58,078;;10;69,89;;;139,523344;69,89;58,078;;;;;-7,6867638888889;9,2897916666667;288,203438530864
27/08/2006;38956;11:00;0,4583333333333;4,4583;;58,972;;11;69,13;;;103,184964;69,13;58,972;;;;;-6,7927638888889;8,5297916666667;234,780708753086
27/08/2006;38956;12:00;0,5;4,5000;;52,462;;12;68,61;;;260,757904;68,61;52,462;;;;;-13,3027638888889;8,0097916666667;454,225024308641
27/08/2006;38956;13:00;0,5416666666667;4,5417;;47,422;;13;66,61;;;368,179344;66,61;47,422;;;;;-18,3427638888889;6,0097916666667;593,046962086419
27/08/2006;38956;14:00;0,5833333333333;4,5833;;45,099;;14;66;;;436,851801;66;45,099;;;;;-20,6657638888889;5,3997916666667;679,413186419753
27/08/2006;38956;15:00;0,625;4,6250;;41,654;;15;64,48;;;521,026276;64,48;41,654;;;;;-24,1107638888889;3,8797916666667;783,471200308641
27/08/2006;38956;16:00;0,6666666666667;4,6667;;37,78;;16;61,54;;;564,5376;61,54;37,78;;;;;-27,9847638888889;0,9397916666667;836,629914086419
27/08/2006;38956;17:00;0,7083333333333;4,7083;;35,667;;17;51,19;;;240,963529;51,19;35,667;;;;;-30,0977638888889;-9,4102083333334;427,974954864197
27/08/2006;38956;18:00;0,75;4,7500;;33,752;;18;44,24;;;109,998144;44,24;33,752;;;;;-32,0127638888889;-16,3602083333333;245,002495419753
27/08/2006;38956;19:00;0,7916666666667;4,7917;;32,558;;19;45,77;;;174,556944;45,77;32,558;;;;;-33,2067638888889;-14,8302083333333;337,69779408642
27/08/2006;38956;20:00;0,8333333333333;4,8333;;32,595;;20;46,35;;;189,200025;46,35;32,595;;;;;-33,1697638888889;-14,2502083333333;357,949582419753
27/08/2006;38956;21:00;0,875;4,8750;;34,484;;21;49,38;;;221,890816;49,38;34,484;;;;;-31,2807638888889;-11,2202083333333;402,425889197531
27/08/2006;38956;22:00;0,9166666666667;4,9167;;37,236;;22;53,54;;;265,820416;53,54;37,236;;;;;-28,5287638888889;-7,0602083333334;460,898877641975
27/08/2006;38956;23:00;0,9583333333333;4,9583;;61,28;;23;57,24;;;16,3216;57,24;61,28;;;;;-4,4847638888889;-3,3602083333334;1,2646251975309
28/08/2006;38957;00:00;0;5,0000;;71,69;;24;60,81;;;118,3744;60,81;71,69;;;;;5,9252361111111;0,2097916666667;32,6663051975309
28/08/2006;38957;01:00;0,0416666666667;5,0417;;78,543;;1;63,93;;;213,539769;63,93;78,543;;;;;12,7782361111111;3,3297916666667;89,2731024197534
28/08/2006;38957;02:00;0,0833333333333;5,0833;;82,216;;2;65,22;;;288,864016;65,22;82,216;;;;;16,4512361111111;4,6197916666667;139,983077641975
28/08/2006;38957;03:00;0,125;5,1250;;83,264;;3;69,54;;;188,348176;69,54;83,264;;;;;17,4992361111111;8,9397916666667;73,2640891975309
28/08/2006;38957;04:00;0,1666666666667;5,1667;;83,549;;4;72,42;;;123,854641;72,42;83,549;;;;;17,7842361111111;11,8197916666667;35,5745975308644
28/08/2006;38957;05:00;0,2083333333333;5,2083;;85,275;;5;73,63;;;135,606025;73,63;85,275;;;;;19,5102361111111;13,0297916666666;41,9961601975311
28/08/2006;38957;06:00;0,25;5,2500;;86,972;;6;73,64;;;177,742224;73,64;86,972;;;;;21,2072361111111;13,0397916666667;66,7071487530865
28/08/2006;38957;07:00;0,2916666666667;5,2917;;88,516;;7;75,96;;;157,653136;75,96;88,516;;;;;22,7512361111111;15,3597916666666;54,633450975309
28/08/2006;38957;08:00;0,3333333333333;5,3333;;90,2;;8;80,38;;;96,4324000000002;80,38;90,2;;;;;24,4352361111111;19,7797916666666;21,6731629753088
28/08/2006;38957;09:00;0,375;5,3750;;92,13;;9;81,64;;;110,0401;81,64;92,13;;;;;26,3652361111111;21,0397916666667;28,3603585308643
28/08/2006;38957;10:00;0,4166666666667;5,4167;;94,34;;10;81,51;;;164,6089;81,51;94,34;;;;;28,5752361111111;20,9097916666667;58,7590385308643
28/08/2006;38957;11:00;0,4583333333333;5,4583;;96,404;;11;80,25;;;260,951716;80,25;96,404;;;;;30,6392361111111;19,6497916666667;120,767889197531
28/08/2006;38957;12:00;0,5;5,5000;;97,071;;12;73,12;;;573,650401;73,12;97,071;;;;;31,3062361111111;12,5197916666667;352,930494864198
28/08/2006;38957;13:00;0,5416666666667;5,5417;;79,723;;13;66,91;;;164,172969;66,91;79,723;;;;;13,9582361111111;6,3097916666667;58,4987024197533
28/08/2006;38957;14:00;0,5833333333333;5,5833;;64,553;;14;57,86;;;44,796249;57,86;64,553;;;;;-1,2117638888889;-2,7402083333334;2,3361424197531
28/08/2006;38957;15:00;0,625;5,6250;;53,565;;15;50,52;;;9,272025;50,52;53,565;;;;;-12,1997638888889;-10,0802083333333;4,4925157530864
28/08/2006;38957;16:00;0,6666666666667;5,6667;;46,128;;16;44,87;;;1,582564;44,87;46,128;;;;;-19,6367638888889;-15,7302083333334;15,2611763086419
28/08/2006;38957;17:00;0,7083333333333;5,7083;;50,994;;17;43,32;;;58,890276;43,32;50,994;;;;;-14,7707638888889;-17,2802083333334;6,2973114197531
28/08/2006;38957;18:00;0,75;5,7500;;69,116;;18;51,32;;;316,697616;51,32;69,116;;;;;3,3512361111111;-9,2802083333334;159,553388753087
28/08/2006;38957;19:00;0,7916666666667;5,7917;;74,684;;19;57,01;;;312,370276;57,01;74,684;;;;;8,9192361111111;-3,5902083333334;156,486200308642
28/08/2006;38957;20:00;0,8333333333333;5,8333;;81,583;;20;60,79;;;432,348849;60,79;81,583;;;;;15,8182361111111;0,1897916666667;244,248275753087
28/08/2006;38957;21:00;0,875;5,8750;;86,533;;21;67,31;;;369,523729;67,31;86,533;;;;;20,7682361111111;6,7097916666667;197,639860197531
28/08/2006;38957;22:00;0,9166666666667;5,9167;;88,843;;22;71,6;;;297,321049;71,6;88,843;;;;;23,0782361111111;10,9997916666666;145,888820197531
28/08/2006;38957;23:00;0,9583333333333;5,9583;;90,98;;23;77,04;;;194,3236;77,04;90,98;;;;;25,2152361111111;16,4397916666667;77,008425197531
29/08/2006;38958;00:00;0;6,0000;;91,545;;24;78,38;;;173,317225;78,38;91,545;;;;;25,7802361111111;17,7797916666666;64,0071113086423
29/08/2006;38958;01:00;0,0416666666667;6,0417;;93,516;;1;76,62;;;285,474816;76,62;93,516;;;;;27,7512361111111;16,0197916666667;137,626788753087
29/08/2006;38958;02:00;0,0833333333333;6,0833;;94,473;;2;74,93;;;381,928849;74,93;94,473;;;;;28,7082361111111;14,3297916666667;206,739664641975
29/08/2006;38958;03:00;0,125;6,1250;;93,449;;3;76,95;;;272,217001;76,95;93,449;;;;;27,6842361111111;16,3497916666667;128,469630864198
29/08/2006;38958;04:00;0,1666666666667;6,1667;;94,71;;4;79,64;;;227,1049;79,64;94,71;;;;;28,9452361111111;19,0397916666667;98,1178296419754
29/08/2006;38958;05:00;0,2083333333333;6,2083;;95,92;;5;81,97;;;194,6025;81,97;95,92;;;;;30,1552361111111;21,3697916666666;77,18403408642
29/08/2006;38958;06:00;0,25;6,2500;;97,073;;6;82,28;;;218,832849;82,28;97,073;;;;;31,3082361111111;21,6797916666667;92,7069424197532
29/08/2006;38958;07:00;0,2916666666667;6,2917;;95,305;;7;78,88;;;269,780625;78,88;95,305;;;;;29,5402361111111;18,2797916666666;126,79760908642
29/08/2006;38958;08:00;0,3333333333333;6,3333;;93,799;;8;77,9;;;252,778201;77,9;93,799;;;;;28,0342361111111;17,2997916666667;115,228297530864
29/08/2006;38958;09:00;0,375;6,3750;;94,449;;9;82,24;;;149,059681;82,24;94,449;;;;;28,6842361111111;21,6397916666666;49,6241975308644
29/08/2006;38958;10:00;0,4166666666667;6,4167;;94,035;;10;77,78;;;264,225025;77,78;94,035;;;;;28,2702361111111;17,1797916666667;122,997957975309
29/08/2006;38958;11:00;0,4583333333333;6,4583;;94,626;;11;78,8;;;250,462276;78,8;94,626;;;;;28,8612361111111;18,1997916666666;113,666397641976
29/08/2006;38958;12:00;0,5;6,5000;;93,144;;12;77,24;;;252,937216;77,24;93,144;;;;;27,3792361111111;16,6397916666666;115,335666975309
29/08/2006;38958;13:00;0,5416666666667;6,5417;;92,93;;13;74,62;;;335,2561;74,62;92,93;;;;;27,1652361111111;14,0197916666667;172,802709641976
29/08/2006;38958;14:00;0,5833333333333;6,5833;;88,756;;14;75,08;;;187,032976;75,08;88,756;;;;;22,9912361111111;14,4797916666667;72,4446865308644
29/08/2006;38958;15:00;0,625;6,6250;;84,331;;15;70,75;;;184,443561;70,75;84,331;;;;;18,5662361111111;10,1497916666667;70,83653708642
29/08/2006;38958;16:00;0,6666666666667;6,6667;;72,328;;16;70,97;;;1,844164;70,97;72,328;;;;;6,5632361111111;10,3697916666667;14,4898651975308
29/08/2006;38958;17:00;0,7083333333333;6,7083;;66,48;;17;71,29;;;23,1361;71,29;66,48;;;;;0,7152361111111;10,6897916666667;99,491758530864
29/08/2006;38958;18:00;0,75;6,7500;;63,568;;18;67,67;;;16,826404;67,67;63,568;;;;;-2,1967638888889;7,0697916666667;85,8690518641974
29/08/2006;38958;19:00;0,7916666666667;6,7917;;62,77;;19;68,7;;;35,1649;68,7;62,77;;;;;-2,9947638888889;8,0997916666667;123,089162975308
29/08/2006;38958;20:00;0,8333333333333;6,8333;;64,431;;20;66,55;;;4,490161;66,55;64,431;;;;;-1,3337638888889;5,9497916666667;53,050181530864
29/08/2006;38958;21:00;0,875;6,8750;;70,43;;21;65;;;29,4849000000001;65;70,43;;;;;4,6652361111111;4,3997916666667;0,0704607530864
29/08/2006;38958;22:00;0,9166666666667;6,9167;;79,715;;22;67,65;;;145,564225;67,65;79,715;;;;;13,9502361111111;7,0497916666667;47,6161335308643
29/08/2006;38958;23:00;0,9583333333333;6,9583;;91,142;;23;70,99;;;406,103104;70,99;91,142;;;;;25,3772361111111;10,3897916666666;224,623490975309
;;;;;;;;;;;;167;;;;;;;;;
