;;;;;Estatística;;;;;;;;;;;;;;;
;;;;;;;;;avalia a habilidade de uma simulação;;;;;;;;;;;
;;;;;σsimulacao;σobservado;correlação;RMSE;RMSVEUB;ME;F. Bias;obmédio;simmédio;#Pontos (n);Teste de hipótese nula;;;;;
;;;;;605,996688568796;17,7694768971842;0,2153077604665;687,221624566713;934,904458203949;328,97355168545;-1,5214598898573;51,7355208333334;380,709072518783;95;2,1262207080023;;;;;
;;;;;;;;;;;;;;;;;;;;
Variable;;Temp;;;Simulação;;Medições CETESB;;Comparação CETESB-Simulação;;;;;;;;;;;
        ;;;;;Dumb;;Dumb;;Número de comparaões;95;RMSE;Gráfico de Nuvem;;MP10;;;;;;
z (agl)   ;;m    ;;;;;Hora (média);10m;;;;T;;(Calculando a partir do dia 24/08/2006);;;;Calculando;;
      Date;; Hour;;;MP10 (ug/m³);;(N-1)h-->Nh;MP10 (ug/m³);RMSE;687,221624566713;(Tmedido-Tsimulado)^2;;;Observado;Simulado;Fractional BIAS;;RMSVEUB;;
Simulação;#Dias em relação a uma data de referência;     ;#Fração de um dia;Tempo Corrido;Simulado;;GMT;Medido;;;;Medido;Simulado;51,7355208333334;380,709072518783;-1,5214598898573;;sim-Mean_sim;ob-mean_ob;diff²
23/08/2006;38952;01:00;0,0416666666667;0,0417;0;;1;33,96;;;1153,2816;33,96;0;;;;;1,5214598898573;-346,749072518783;121292,363744198
23/08/2006;38952;02:00;0,0833333333333;0,0833;0;;2;32,47;;;1054,3009;32,47;0;;;;;1,5214598898573;-348,239072518783;122332,430030776
23/08/2006;38952;03:00;0,125;0,1250;0;;3;26,41;;;697,4881;26,41;0;;;;;1,5214598898573;-354,299072518783;126608,251283568
23/08/2006;38952;04:00;0,1666666666667;0,1667;0;;4;37,95;;;1440,2025;37,95;0;;;;;1,5214598898573;-342,759072518783;118529,084995577
23/08/2006;38952;05:00;0,2083333333333;0,2083;0;;5;43,61;;;1901,8321;43,61;0;;;;;1,5214598898573;-337,099072518783;114663,864968711
23/08/2006;38952;06:00;0,25;0,2500;0;;6;31,34;;;982,1956;31,34;0;;;;;1,5214598898573;-349,369072518783;123124,165734019
23/08/2006;38952;07:00;0,2916666666667;0,2917;0;;7;43,62;;;1902,7044;43,62;0;;;;;1,5214598898573;-337,089072518783;114657,092658063
23/08/2006;38952;08:00;0,3333333333333;0,3333;0;;8;42,1;;;1772,41;42,1;0;;;;;1,5214598898573;-338,609072518783;115688,779076585
23/08/2006;38952;09:00;0,375;0,3750;0;;9;31,83;;;1013,1489;31,83;0;;;;;1,5214598898573;-348,879072518783;122780,533112259
23/08/2006;38952;10:00;0,4166666666667;0,4167;0;;10;51,01;;;2602,0201;51,01;0;;;;;1,5214598898573;-329,699072518783;109707,041089063
23/08/2006;38952;11:00;0,4583333333333;0,4583;305,85;;11;65,9;;;57576,0025;65,9;305,85;;;;;307,371459889857;-314,809072518783;387108,614908299
23/08/2006;38952;12:00;0,5;0,5000;312,33;;12;46,82;;;70495,5601;46,82;312,33;;;;;313,851459889857;-333,889072518783;419567,797325029
23/08/2006;38952;13:00;0,5416666666667;0,5417;434,85;;13;47,64;;;149931,5841;47,64;434,85;;;;;436,371459889857;-333,069072518783;592038,732913292
23/08/2006;38952;14:00;0,5833333333333;0,5833;787,72;;14;51,87;;;541475,2225;51,87;787,72;;;;;789,241459889857;-328,839072518783;1250104,07695119
23/08/2006;38952;15:00;0,625;0,6250;498,22;;15;54,86;;;196568,0896;54,86;498,22;;;;;499,741459889857;-325,849072518783;681599,727202782
23/08/2006;38952;16:00;0,6666666666667;0,6667;564,98;;16;46,91;;;268396,5249;46,91;564,98;;;;;566,501459889857;-333,799072518783;810541,048655281
23/08/2006;38952;17:00;0,7083333333333;0,7083;470,49;;17;54,47;;;173072,6404;54,47;470,49;;;;;472,011459889857;-326,239072518783;637203,912490678
23/08/2006;38952;18:00;0,75;0,7500;425,51;;18;35,36;;;152217,0225;35,36;425,51;;;;;427,031459889857;-345,349072518783;596571,686843855
23/08/2006;38952;19:00;0,7916666666667;0,7917;475,96;;19;37,67;;;192098,1241;37,67;475,96;;;;;477,481459889857;-343,039072518783;673253,944104159
23/08/2006;38952;20:00;0,8333333333333;0,8333;499,34;;20;40,06;;;210938,1184;40,06;499,34;;;;;500,861459889857;-340,649072518783;708139,976154673
23/08/2006;38952;21:00;0,875;0,8750;658,23;;21;57,64;;;360708,3481;57,64;658,23;;;;;659,751459889857;-323,069072518783;965936,198924003
23/08/2006;38952;22:00;0,9166666666667;0,9167;1219,1;;22;71,74;;;1316434,9696;71,74;1219,1;;;;;1220,62145988986;-308,969072518783;2339647,19683415
23/08/2006;38952;23:00;0,9583333333333;0,9583;1059;;23;59,91;;;998180,8281;59,91;1059;;;;;1060,52145988986;-320,799072518783;1908046,41325369
24/08/2006;38953;00:00;0;1,0000;1495,3;;24;46,46;;;2099137,3456;46,46;1495,3;;;;;1496,82145988986;-334,249072518783;3352819,29465526
24/08/2006;38953;01:00;0,0416666666667;1,0417;380,78;;1;33,04;;;120923,1076;33,04;380,78;;;;;382,301459889857;-347,669072518783;532856,978184954
24/08/2006;38953;02:00;0,0833333333333;1,0833;31,278;;2;37,86;;;43,322724;37,86;31,278;;;;;32,7994598898573;-342,849072518783;141111,819900765
24/08/2006;38953;03:00;0,125;1,1250;14,626;;3;31,83;;;295,977616;31,83;14,626;;;;;16,1474598898573;-348,879072518783;133244,369362276
24/08/2006;38953;04:00;0,1666666666667;1,1667;3,8446;;4;22,96;;;365,39851716;22,96;3,8446;;;;;5,3660598898573;-357,749072518783;131852,599384144
24/08/2006;38953;05:00;0,2083333333333;1,2083;0,18019;;5;43,2;;;1850,7040524361;43,2;0,18019;;;;;1,7016498898573;-337,509072518783;115063,914196992
24/08/2006;38953;06:00;0,25;1,2500;0,0040018;;6;26,39;;;696,220901010403;26,39;0,0040018;;;;;1,5254616898573;-354,319072518783;126625,332526164
24/08/2006;38953;07:00;0,2916666666667;1,2917;0,024397;;7;22,78;;;517,817467893609;22,78;0,024397;;;;;1,5458568898573;-357,929072518783;129222,224873347
24/08/2006;38953;08:00;0,3333333333333;1,3333;0,011683;;8;24,09;;;579,765349552489;24,09;0,011683;;;;;1,5331428898573;-356,619072518783;128273,009402117
24/08/2006;38953;09:00;0,375;1,3750;0,011107;;9;41,65;;;1733,79741026545;41,65;0,011107;;;;;1,5325668898573;-339,059072518783;116002,664835065
24/08/2006;38953;10:00;0,4166666666667;1,4167;0;;10;38,97;;;1518,6609;38,97;0;;;;;1,5214598898573;-341,739072518783;117827,793109463
24/08/2006;38953;11:00;0,4583333333333;1,4583;378,27;;11;43,91;;;111796,6096;43,91;378,27;;;;;379,791459889857;-336,799072518783;513501,991137699
24/08/2006;38953;12:00;0,5;1,5000;474,28;;12;49,71;;;180259,6849;49,71;474,28;;;;;475,801459889857;-330,999072518783;650927,099094866
24/08/2006;38953;13:00;0,5416666666667;1,5417;779,75;;13;61,66;;;515653,2481;61,66;779,75;;;;;781,271459889857;-319,049072518783;1210705,27404003
24/08/2006;38953;14:00;0,5833333333333;1,5833;361,16;;14;71,68;;;83798,6704;71,68;361,16;;;;;362,681459889857;-309,029072518783;451195,039348699
24/08/2006;38953;15:00;0,625;1,6250;424,05;;15;48,58;;;140977,7209;48,58;424,05;;;;;425,571459889857;-332,129072518783;574110,096812337
24/08/2006;38953;16:00;0,6666666666667;1,6667;520,08;;16;47,26;;;223558,7524;47,26;520,08;;;;;521,601459889857;-333,449072518783;731111,4129723
24/08/2006;38953;17:00;0,7083333333333;1,7083;473,01;;17;54,57;;;175092,0336;54,57;473,01;;;;;474,531459889857;-326,139072518783;641073,301467536
24/08/2006;38953;18:00;0,75;1,7500;492,93;;18;58,38;;;188833,7025;58,38;492,93;;;;;494,451459889857;-322,329072518783;667130,438121742
24/08/2006;38953;19:00;0,7916666666667;1,7917;541,08;;19;50,24;;;240923,9056;50,24;541,08;;;;;542,601459889857;-330,469072518783;762252,154560307
24/08/2006;38953;20:00;0,8333333333333;1,8333;525,09;;20;60,06;;;216252,9009;60,06;525,09;;;;;526,611459889857;-320,649072518783;717850,409777373
24/08/2006;38953;21:00;0,875;1,8750;576,78;;21;52,34;;;275037,3136;52,34;576,78;;;;;578,301459889857;-328,369072518783;822051,454338168
24/08/2006;38953;22:00;0,9166666666667;1,9167;491,58;;22;61,8;;;184710,8484;61,8;491,58;;;;;493,101459889857;-318,909072518783;659361,104742563
24/08/2006;38953;23:00;0,9583333333333;1,9583;569,96;;23;54,19;;;266018,6929;54,19;569,96;;;;;571,481459889857;-326,519072518783;806404,956206202
25/08/2006;38954;00:00;0;2,0000;1345,2;;24;37,09;;;1711151,7721;37,09;1345,2;;;;;1346,72145988986;-343,619072518783;2857251,11550353
25/08/2006;38954;01:00;0,0416666666667;2,0417;717,38;;1;34,14;;;466816,8976;34,14;717,38;;;;;718,901459889857;-346,569072518783;1135227,45543115
25/08/2006;38954;02:00;0,0833333333333;2,0833;22,936;;2;49,69;;;715,776516;49,69;22,936;;;;;24,4574598898573;-331,019072518783;126363,565093271
25/08/2006;38954;03:00;0,125;2,1250;4,5976;;3;45,32;;;1658,31386176;45,32;4,5976;;;;;6,1190598898573;-335,389072518783;116627,804501237
25/08/2006;38954;04:00;0,1666666666667;2,1667;6,7013;;4;60,25;;;2867,46327169;60,25;6,7013;;;;;8,2227598898573;-320,459072518783;108031,746955502
25/08/2006;38954;05:00;0,2083333333333;2,2083;1,1504;;5;54,07;;;2800,48406416;54,07;1,1504;;;;;2,6718598898573;-326,639072518783;108445,690203848
25/08/2006;38954;06:00;0,25;2,2500;0,59507;;6;35,89;;;1245,7320837049;35,89;0,59507;;;;;2,1165298898573;-344,819072518783;120364,312218646
25/08/2006;38954;07:00;0,2916666666667;2,2917;1,0672;;7;44,19;;;1859,57587984;44,19;1,0672;;;;;2,5886598898573;-336,519072518783;114994,05417933
25/08/2006;38954;08:00;0,3333333333333;2,3333;0,0000000031605;;8;43,32;;;1876,62239972617;43,32;0,0000000031605;;;;;1,5214598930178;-337,389072518783;114860,34897965
25/08/2006;38954;09:00;0,375;2,3750;0;;9;37,62;;;1415,2644;37,62;0;;;;;1,5214598898573;-343,089072518783;118756,419046967
25/08/2006;38954;10:00;0,4166666666667;2,4167;0;;10;51,07;;;2608,1449;51,07;0;;;;;1,5214598898573;-329,639072518783;109667,298225174
25/08/2006;38954;11:00;0,4583333333333;2,4583;2466,3;;11;98,02;;;5608750,1584;98,02;2466,3;;;;;2467,82145988986;-282,689072518783;7565308,18889086
25/08/2006;38954;12:00;0,5;2,5000;2164,6;;12;82,71;;;4334265,9721;82,71;2164,6;;;;;2166,12145988986;-297,999072518783;6071889,99823784
25/08/2006;38954;13:00;0,5416666666667;2,5417;1819,1;;13;53,98;;;3115648,6144;53,98;1819,1;;;;;1820,62145988986;-326,729072518783;4611114,30903567
25/08/2006;38954;14:00;0,5833333333333;2,5833;1549,7;;14;50,35;;;2248050,4225;50,35;1549,7;;;;;1551,22145988986;-330,359072518783;3540345,29993918
25/08/2006;38954;15:00;0,625;2,6250;1278,4;;15;70,12;;;1459940,5584;70,12;1278,4;;;;;1279,92145988986;-310,589072518783;2529723,75370282
25/08/2006;38954;16:00;0,6666666666667;2,6667;964,49;;16;71,16;;;798038,4889;71,16;964,49;;;;;966,011459889857;-309,549072518783;1627054,67183861
25/08/2006;38954;17:00;0,7083333333333;2,7083;623,71;;17;51,04;;;327950,9289;51,04;623,71;;;;;625,231459889857;-329,669072518783;911835,026794305
25/08/2006;38954;18:00;0,75;2,7500;563,54;;18;53,23;;;260416,2961;53,23;563,54;;;;;565,061459889857;-327,479072518783;796628,601992299
25/08/2006;38954;19:00;0,7916666666667;2,7917;571,59;;19;56,66;;;265152,9049;56,66;571,59;;;;;573,111459889857;-324,049072518783;804897,020911755
25/08/2006;38954;20:00;0,8333333333333;2,8333;476,52;;20;47,28;;;184246,9776;47,28;476,52;;;;;478,041459889857;-333,429072518783;658484,424967562
25/08/2006;38954;21:00;0,875;2,8750;354,61;;21;47,19;;;94507,0564;47,19;354,61;;;;;356,131459889857;-333,519072518783;475617,856851521
25/08/2006;38954;22:00;0,9166666666667;2,9167;395,74;;22;63,42;;;110436,5824;63,42;395,74;;;;;397,261459889857;-317,289072518783;510582,463365471
25/08/2006;38954;23:00;0,9583333333333;2,9583;1102,3;;23;48,66;;;1110157,2496;48,66;1102,3;;;;;1103,82145988986;-332,049072518783;2061724,18583947
26/08/2006;38955;00:00;0;3,0000;3646,5;;24;50,08;;;12934236,8164;50,08;3646,5;;;;;3648,02145988986;-330,629072518783;15829660,0590356
26/08/2006;38955;01:00;0,0416666666667;3,0417;0;;1;69,38;;;4813,5844;69,38;0;;;;;1,5214598898573;-311,329072518783;97875,4556283698
26/08/2006;38955;02:00;0,0833333333333;3,0833;0,077566;;2;77,26;;;5957,12811816436;77,26;0,077566;;;;;1,5990258898573;-303,449072518783;93054,3423427276
26/08/2006;38955;03:00;0,125;3,1250;0,068581;;3;46,88;;;2191,30894879356;46,88;0,068581;;;;;1,5900408898573;-333,829072518783;112505,981639838
26/08/2006;38955;04:00;0,1666666666667;3,1667;0;;4;68,89;;;4745,8321;68,89;0;;;;;1,5214598898573;-311,819072518783;98182,2892501302
26/08/2006;38955;05:00;0,2083333333333;3,2083;0;;5;58,54;;;3426,9316;58,54;0;;;;;1,5214598898573;-322,169072518783;104775,560770989
26/08/2006;38955;06:00;0,25;3,2500;0;;6;57,71;;;3330,4441;57,71;0;;;;;1,5214598898573;-322,999072518783;105313,575954787
26/08/2006;38955;07:00;0,2916666666667;3,2917;0;;7;55,42;;;3071,3764;55,42;0;;;;;1,5214598898573;-325,289072518783;106805,124093219
26/08/2006;38955;08:00;0,3333333333333;3,3333;0;;8;46,97;;;2206,1809;46,97;0;;;;;1,5214598898573;-333,739072518783;112399,624590925
26/08/2006;38955;09:00;0,375;3,3750;0;;9;50,59;;;2559,3481;50,59;0;;;;;1,5214598898573;-330,119072518783;109985,442736286
26/08/2006;38955;10:00;0,4166666666667;3,4167;0;;10;75,03;;;5629,5009;75,03;0;;;;;1,5214598898573;-305,679072518783;94372,1671121521
26/08/2006;38955;11:00;0,4583333333333;3,4583;17,937;;11;80,01;;;3853,057329;80,01;17,937;;;;;19,4584598898573;-300,699072518783;102500,84555799
26/08/2006;38955;12:00;0,5;3,5000;125,1;;12;116,47;;;74,4768999999999;116,47;125,1;;;;;126,621459889857;-264,239072518783;152771,955794766
26/08/2006;38955;13:00;0,5416666666667;3,5417;29,749;;13;11,35;;;338,523201;11,35;29,749;;;;;31,2704598898573;-369,359072518783;160504,022237966
26/08/2006;38955;14:00;0,5833333333333;3,5833;20,358;;14;23,42;;;9,375844;23,42;20,358;;;;;21,8794598898573;-357,289072518783;143768,775968922
26/08/2006;38955;15:00;0,625;3,6250;17,595;;15;62,11;;;1981,585225;62,11;17,595;;;;;19,1164598898573;-318,599072518783;114051,780830051
26/08/2006;38955;16:00;0,6666666666667;3,6667;6,7617;;16;110,57;;;10776,16314889;110,57;6,7617;;;;;8,2831598898573;-270,139072518783;77518,939499411
26/08/2006;38955;17:00;0,7083333333333;3,7083;2,0155;;17;70,28;;;4660,04196025;70,28;2,0155;;;;;3,5369598898573;-310,429072518783;98574,6695064234
26/08/2006;38955;18:00;0,75;3,7500;0,67708;;18;61,41;;;3688,4875717264;61,41;0,67708;;;;;2,1985398898573;-319,299072518783;103360,714784456
26/08/2006;38955;19:00;0,7916666666667;3,7917;1,0653;;19;56,14;;;3033,22258009;56,14;1,0653;;;;;2,5867598898573;-324,569072518783;107030,93867899
26/08/2006;38955;20:00;0,8333333333333;3,8333;0,89975;;20;37,6;;;1346,9083500625;37,6;0,89975;;;;;2,4212098898573;-343,109072518783;119391,176061395
26/08/2006;38955;21:00;0,875;3,8750;0,080126;;21;41,42;;;1708,98518233588;41,42;0,080126;;;;;1,6015858898573;-339,289072518783;116206,440990276
26/08/2006;38955;22:00;0,9166666666667;3,9167;0;;22;89,17;;;7951,2889;89,17;0;;;;;1,5214598898573;-291,539072518783;85884,4756556358
26/08/2006;38955;23:00;0,9583333333333;3,9583;0,86701;;23;66,27;;;4277,5511009401;66,27;0,86701;;;;;2,3884698898573;-314,439072518783;100379,691628699
27/08/2006;38956;00:00;0;4,0000;2,4318;;24;68,41;;;4353,12287524;68,41;2,4318;;;;;3,9532598898573;-312,299072518783;100015,537753905
;;;;;;;;;;;95;;;;;;;;;
