;;;;;Estatística;;;;;;;;;;;;;;;
;;;;;;;;;avalia a habilidade de uma simulação;;;;;;;;;;;
;;;;;σsimulacao;σobservado;correlação;RMSE;RMSVEUB;ME;F. Bias;obmédio;simmédio;#Pontos (n);Teste de hipótese nula;;;;;
;;;;;17,7563940143;17,7694768972;0,1603510823;50,6743923815;45,9978539648;-44,9088985649;1,5337177291;51,7355208333;6,8266222684;95;1,5666421168;;;;;
;;;;;;;;;;;;;;;;;;;;
Variable;;Temp;;;Simulação;;Medições CETESB;;Comparação CETESB-Simulação;;;;;;;;;;;
        ;;;;;Dumb;;Dumb;;Número de comparaões;95;RMSE;Gráfico de Nuvem;;MP10;;;;;;
z (agl)   ;;m    ;;;;;Hora (média);10m;;;;T;;(Calculando a partir do dia 24/08/2006);;;;Calculando;;
      Date;; Hour;;;MP10 (ug/m³);;(N-1)h-->Nh;MP10 (ug/m³);RMSE;50,6743923815;(Tmedido-Tsimulado)^2;;;Observado;Simulado;Fractional BIAS;;RMSVEUB;;
Simulação;#Dias em relação a uma data de referência;     ;#Fração de um dia;Tempo Corrido;Simulado;;GMT;Medido;;;;Medido;Simulado;51,7355208333;6,8266222684;1,5337177291;;sim-Mean_sim;ob-mean_ob;diff²
23/08/2006;38952;01:00;0,0416666667;0,0417;0;;1;33,96;;;1153,2816;33,96;0;;;;;-1,5337177291;27,1333777316;821,8023621512
23/08/2006;38952;02:00;0,0833333333;0,0833;0;;2;32,47;;;1054,3009;32,47;0;;;;;-1,5337177291;25,6433777316;738,5945176784
23/08/2006;38952;03:00;0,125;0,125;0;;3;26,41;;;697,4881;26,41;0;;;;;-1,5337177291;19,5833777316;445,9317206951
23/08/2006;38952;04:00;0,1666666667;0,1667;0;;4;37,95;;;1440,2025;37,95;0;;;;;-1,5337177291;31,1233777316;1066,4858839274
23/08/2006;38952;05:00;0,2083333333;0,2083;0;;5;43,61;;;1901,8321;43,61;0;;;;;-1,5337177291;36,7833777316;1468,1998045422
23/08/2006;38952;06:00;0,25;0,25;0;;6;31,34;;;982,1956;31,34;0;;;;;-1,5337177291;24,5133777316;678,4511819373
23/08/2006;38952;07:00;0,2916666667;0,2917;0;;7;43,62;;;1902,7044;43,62;0;;;;;-1,5337177291;36,7933777316;1468,9662464514
23/08/2006;38952;08:00;0,3333333333;0,3333;0;;8;42,1;;;1772,41;42,1;0;;;;;-1,5337177291;35,2733777316;1354,762276251
23/08/2006;38952;09:00;0,375;0,375;0;;9;31,83;;;1013,1489;31,83;0;;;;;-1,5337177291;25,0033777316;704,2174354888
23/08/2006;38952;10:00;0,4166666667;0,4167;0;;10;51,01;;;2602,0201;51,01;0;;;;;-1,5337177291;44,1833777316;2090,0528173601
23/08/2006;38952;11:00;0,4583333333;0,4583;0,4185462185;;11;65,9;;;3711,16111249;65,9;4,9807;;;;;3,4469822709;59,0733777316;3094,295871947
23/08/2006;38952;12:00;0,5;0,5;1,7144537815;;12;46,82;;;697,910724;46,82;20,402;;;;;18,8682822709;39,9933777316;446,2696582225
23/08/2006;38952;13:00;0,5416666667;0,5417;2,5774789916;;13;47,64;;;287,913024;47,64;30,672;;;;;29,1382822709;40,8133777316;136,3078540158
23/08/2006;38952;14:00;0,5833333333;0,5833;0,3162521008;;14;51,87;;;2314,24496356;51,87;3,7634;;;;;2,2296822709;45,0433777316;1833,0125189991
23/08/2006;38952;15:00;0,625;0,625;0;;15;54,86;;;3009,6196;54,86;0;;;;;-1,5337177291;48,0333777316;2456,8969524073
23/08/2006;38952;16:00;0,6666666667;0,6667;0;;16;46,91;;;2200,5481;46,91;0;;;;;-1,5337177291;40,0833777316;1731,9826345826
23/08/2006;38952;17:00;0,7083333333;0,7083;0,0043502521;;17;54,47;;;2961,3439740058;54,47;0,051768;;;;;-1,4819497291;47,6433777316;2413,2977981182
23/08/2006;38952;18:00;0,75;0,75;0;;18;35,36;;;1250,3296;35,36;0;;;;;-1,5337177291;28,5333777316;904,0302294411
23/08/2006;38952;19:00;0,7916666667;0,7917;0;;19;37,67;;;1419,0289;37,67;0;;;;;-1,5337177291;30,8433777316;1048,2763104694
23/08/2006;38952;20:00;0,8333333333;0,8333;0;;20;40,06;;;1604,8036;40,06;0;;;;;-1,5337177291;33,2333777316;1208,7509267714
23/08/2006;38952;21:00;0,875;0,875;0;;21;57,64;;;3322,3696;57,64;0;;;;;-1,5337177291;50,8133777316;2740,2184031686
23/08/2006;38952;22:00;0,9166666667;0,9167;0;;22;71,74;;;5146,6276;71,74;0;;;;;-1,5337177291;64,9133777316;4415,2164951596
23/08/2006;38952;23:00;0,9583333333;0,9583;0;;23;59,91;;;3589,2081;59,91;0;;;;;-1,5337177291;53,0833777316;2983,0271165601
24/08/2006;38953;00:00;0;1;0;;24;46,46;;;2158,5316;46,46;0;;;;;-1,5337177291;39,6333777316;1694,729748668
24/08/2006;38953;01:00;0,0416666667;1,0417;1,2795798319;;1;33,04;;;317,302969;33,04;15,227;;;;;13,6932822709;26,2133777316;156,7527903443
24/08/2006;38953;02:00;0,0833333333;1,0833;3,5631932773;;2;37,86;;;20,629764;37,86;42,402;;;;;40,8682822709;31,0333777316;96,7253472977
24/08/2006;38953;03:00;0,125;1,125;2,6618487395;;3;31,83;;;0,023716;31,83;31,676;;;;;30,1422822709;25,0033777316;26,4083398643
24/08/2006;38953;04:00;0,1666666667;1,1667;4,2287394958;;4;22,96;;;748,679044;22,96;50,322;;;;;48,7882822709;16,1333777316;1066,3427904727
24/08/2006;38953;05:00;0,2083333333;1,2083;3,0447058824;;5;43,2;;;48,553024;43,2;36,232;;;;;34,6982822709;36,3733777316;2,8059448024
24/08/2006;38953;06:00;0,25;1,25;1,5461344538;;6;26,39;;;63,856081;26,39;18,399;;;;;16,8652822709;19,5633777316;7,2797191149
24/08/2006;38953;07:00;0,2916666667;1,2917;0,0009440336;;7;22,78;;;518,4167051628;22,78;0,011234;;;;;-1,5224837291;15,9533777316;305,4057337926
24/08/2006;38953;08:00;0,3333333333;1,3333;0;;8;24,09;;;580,3281;24,09;0;;;;;-1,5337177291;17,2633777316;353,3307977576
24/08/2006;38953;09:00;0,375;1,375;0;;9;41,65;;;1734,7225;41,65;0;;;;;-1,5337177291;34,8233777316;1321,8383903364
24/08/2006;38953;10:00;0,4166666667;1,4167;0;;10;38,97;;;1518,6609;38,97;0;;;;;-1,5337177291;32,1433777316;1134,1467586672
24/08/2006;38953;11:00;0,4583333333;1,4583;0,0014505042;;11;43,91;;;1926,5725369221;43,91;0,017261;;;;;-1,5164567291;37,0833777316;1489,9472203912
24/08/2006;38953;12:00;0,5;1,5;0,0005896303;;12;49,71;;;2470,3865588607;49,71;0,0070166;;;;;-1,5267011291;42,8833777316;1972,255104411
24/08/2006;38953;13:00;0,5416666667;1,5417;0,0011992437;;13;61,66;;;3800,1959039414;61,66;0,014271;;;;;-1,5194467291;54,8333777316;3175,6408246952
24/08/2006;38953;14:00;0,5833333333;1,5833;0,0644336134;;14;71,68;;;5028,6876072976;71,68;0,76676;;;;;-0,7669577291;64,8533777316;4306,028425971
24/08/2006;38953;15:00;0,625;1,625;0,3213529412;;15;48,58;;;2003,09058481;48,58;3,8241;;;;;2,2903822709;41,7533777316;1557,328010729
24/08/2006;38953;16:00;0,6666666667;1,6667;0,3613697479;;16;47,26;;;1845,53582409;47,26;4,3003;;;;;2,7665822709;40,4333777316;1418,7874802761
24/08/2006;38953;17:00;0,7083333333;1,7083;0,1055630252;;17;54,57;;;2842,36127044;54,57;1,2562;;;;;-0,2775177291;47,7433777316;2306,0064008447
24/08/2006;38953;18:00;0,75;1,75;0,0807016807;;18;58,38;;;3297,0162061225;58,38;0,96035;;;;;-0,5733677291;51,5533777316;2717,1975923216
24/08/2006;38953;19:00;0,7916666667;1,7917;0,0075807563;;19;50,24;;;2515,0013367445;50,24;0,090211;;;;;-1,4435067291;43,4133777316;2012,140083518
24/08/2006;38953;20:00;0,8333333333;1,8333;0,0599773109;;20;60,06;;;3521,9797629129;60,06;0,71373;;;;;-0,8199877291;53,2333777316;2921,7663176249
24/08/2006;38953;21:00;0,875;1,875;1,62327731092437E-005;;21;52,34;;;2739,4553790017;52,34;0,00019317;;;;;-1,5335245591;45,5133777316;2213,411015148
24/08/2006;38953;22:00;0,9166666667;1,9167;0;;22;61,8;;;3819,24;61,8;0;;;;;-1,5337177291;54,9733777316;3193,0518374014
24/08/2006;38953;23:00;0,9583333333;1,9583;0;;23;54,19;;;2936,5561;54,19;0;;;;;-1,5337177291;47,3633777316;2390,92594449
25/08/2006;38954;00:00;0;2;0;;24;37,09;;;1375,6681;37,09;0;;;;;-1,5337177291;30,2633777316;1011,055279735
25/08/2006;38954;01:00;0,0416666667;2,0417;0;;1;34,14;;;1165,5396;34,14;0;;;;;-1,5337177291;27,3133777316;832,1549165171
25/08/2006;38954;02:00;0,0833333333;2,0833;0;;2;49,69;;;2469,0961;49,69;0;;;;;-1,5337177291;42,8633777316;1971,102085344
25/08/2006;38954;03:00;0,125;2,125;0,0170857143;;3;45,32;;;2035,5148142224;45,32;0,20332;;;;;-1,3303977291;38,4933777316;1585,933091942
25/08/2006;38954;04:00;0,1666666667;2,1667;0,1973697479;;4;60,25;;;3352,56054169;60,25;2,3487;;;;;0,8149822709;53,4233777316;2767,6432729464
25/08/2006;38954;05:00;0,2083333333;2,2083;0,4906134454;;5;54,07;;;2326,29688489;54,07;5,8383;;;;;4,3045822709;47,2433777316;1843,7401556134
25/08/2006;38954;06:00;0,25;2,25;0,0853445378;;6;35,89;;;1216,22377536;35,89;1,0156;;;;;-0,5181177291;29,0633777316;875,0648736897
25/08/2006;38954;07:00;0,2916666667;2,2917;0,0145512605;;7;44,19;;;1937,4822035856;44,19;0,17316;;;;;-1,3605577291;37,3633777316;1499,5431775622
25/08/2006;38954;08:00;0,3333333333;2,3333;0;;8;43,32;;;1876,6224;43,32;0;;;;;-1,5337177291;36,4933777316;1446,059989175
25/08/2006;38954;09:00;0,375;2,375;0;;9;37,62;;;1415,2644;37,62;0;;;;;-1,5337177291;30,7933777316;1045,0411009234
25/08/2006;38954;10:00;0,4166666667;2,4167;0;;10;51,07;;;2608,1449;51,07;0;;;;;-1,5337177291;44,2433777316;2095,5424688154
25/08/2006;38954;11:00;0,4583333333;2,4583;0;;11;98,02;;;9607,9204;98,02;0;;;;;-1,5337177291;91,1933777316;8598,3142325724
25/08/2006;38954;12:00;0,5;2,5;0,0369008403;;12;82,71;;;6768,4976959744;82,71;0,43912;;;;;-1,0945977291;75,8833777316;5925,6087060237
25/08/2006;38954;13:00;0,5416666667;2,5417;1,5097478992;;13;53,98;;;1297,008196;53,98;17,966;;;;;16,4322822709;47,1533777316;943,7857063037
25/08/2006;38954;14:00;0,5833333333;2,5833;5,5764705882;;14;50,35;;;256,3201;50,35;66,36;;;;;64,8262822709;43,5233777316;453,8137418118
25/08/2006;38954;15:00;0,625;2,625;4,8292436975;;15;70,12;;;160,073104;70,12;57,468;;;;;55,9342822709;63,2933777316;54,1562859993
25/08/2006;38954;16:00;0,6666666667;2,6667;0,6610336134;;16;71,16;;;4006,09245969;71,16;7,8663;;;;;6,3325822709;64,3333777316;3364,0922740706
25/08/2006;38954;17:00;0,7083333333;2,7083;0,1380840336;;17;51,04;;;2440,04385024;51,04;1,6432;;;;;0,1094822709;44,2133777316;1945,1535948058
25/08/2006;38954;18:00;0,75;2,75;0,1239495798;;18;53,23;;;2678,580025;53,23;1,475;;;;;-0,0587177291;46,4033777316;2158,7263145965
25/08/2006;38954;19:00;0,7916666667;2,7917;0,0660613445;;19;56,66;;;3121,8893487769;56,66;0,78613;;;;;-0,7475877291;49,8333777316;2558,4340669336
25/08/2006;38954;20:00;0,8333333333;2,8333;0;;20;47,28;;;2235,3984;47,28;0;;;;;-1,5337177291;40,4533777316;1762,9161852235
25/08/2006;38954;21:00;0,875;2,875;0;;21;47,19;;;2226,8961;47,19;0;;;;;-1,5337177291;40,3633777316;1755,3666080406
25/08/2006;38954;22:00;0,9166666667;2,9167;0;;22;63,42;;;4022,0964;63,42;0;;;;;-1,5337177291;56,5933777316;3378,759226694
25/08/2006;38954;23:00;0,9583333333;2,9583;0;;23;48,66;;;2367,7956;48,66;0;;;;;-1,5337177291;41,8333777316;1880,704968695
26/08/2006;38955;00:00;0;3;0;;24;50,08;;;2508,0064;50,08;0;;;;;-1,5337177291;43,2533777316;2005,8839198033
26/08/2006;38955;01:00;0,0416666667;3,0417;0;;1;69,38;;;4813,5844;69,38;0;;;;;-1,5337177291;62,5533777316;4107,1558045852
26/08/2006;38955;02:00;0,0833333333;3,0833;0,0065181513;;2;77,26;;;5957,1281181644;77,26;0,077566;;;;;-1,4561517291;70,4333777316;5168,1044460767
26/08/2006;38955;03:00;0,125;3,125;0,0057631092;;3;46,88;;;2191,3089487936;46,88;0,068581;;;;;-1,4651367291;40,0533777316;1723,787043021
26/08/2006;38955;04:00;0,1666666667;3,1667;0;;4;68,89;;;4745,8321;68,89;0;;;;;-1,5337177291;62,0633777316;4044,5905510337
26/08/2006;38955;05:00;0,2083333333;3,2083;0;;5;58,54;;;3426,9316;58,54;0;;;;;-1,5337177291;51,7133777316;2835,2531749978
26/08/2006;38955;06:00;0,25;3,25;0;;6;57,71;;;3330,4441;57,71;0;;;;;-1,5337177291;50,8833777316;2747,5518965331
26/08/2006;38955;07:00;0,2916666667;3,2917;0;;7;55,42;;;3071,3764;55,42;0;;;;;-1,5337177291;48,5933777316;2512,7256993233
26/08/2006;38955;08:00;0,3333333333;3,3333;0;;8;46,97;;;2206,1809;46,97;0;;;;;-1,5337177291;40,1433777316;1736,9802860379
26/08/2006;38955;09:00;0,375;3,375;0;;9;50,59;;;2559,3481;50,59;0;;;;;-1,5337177291;43,7633777316;2051,8268571732
26/08/2006;38955;10:00;0,4166666667;3,4167;0;;10;75,03;;;5629,5009;75,03;0;;;;;-1,5337177291;68,2033777316;4863,2624832908
26/08/2006;38955;11:00;0,4583333333;3,4583;1,5073109244;;11;80,01;;;3853,057329;80,01;17,937;;;;;16,4032822709;73,1833777316;3223,9792405229
26/08/2006;38955;12:00;0,5;3,5;10,512605042;;12;116,47;;;74,4769;116,47;125,1;;;;;123,5662822709;109,6433777316;193,8472708113
26/08/2006;38955;13:00;0,5416666667;3,5417;2,4999159664;;13;11,35;;;338,523201;11,35;29,749;;;;;28,2152822709;4,5233777316;561,3063407007
26/08/2006;38955;14:00;0,5833333333;3,5833;1,7107563025;;14;23,42;;;9,375844;23,42;20,358;;;;;18,8242822709;16,5933777316;4,9769350636
26/08/2006;38955;15:00;0,625;3,625;1,4785714286;;15;62,11;;;1981,585225;62,11;17,595;;;;;16,0612822709;55,2833777316;1538,372772326
26/08/2006;38955;16:00;0,6666666667;3,6667;0,568210084;;16;110,57;;;10776,16314889;110,57;6,7617;;;;;5,2279822709;103,7433777316;9705,2831427725
26/08/2006;38955;17:00;0,7083333333;3,7083;0,1693697479;;17;70,28;;;4660,04196025;70,28;2,0155;;;;;0,4817822709;63,4533777316;3965,4218348624
26/08/2006;38955;18:00;0,75;3,75;0,056897479;;18;61,41;;;3688,4875717264;61,41;0,67708;;;;;-0,8566377291;54,5833777316;3073,5953142795
26/08/2006;38955;19:00;0,7916666667;3,7917;0,0895210084;;19;56,14;;;3033,22258009;56,14;1,0653;;;;;-0,4684177291;49,3133777316;2478,2271592881
26/08/2006;38955;20:00;0,8333333333;3,8333;0,0756092437;;20;37,6;;;1346,9083500625;37,6;0,89975;;;;;-0,6339677291;30,7733777316;986,4213488859
26/08/2006;38955;21:00;0,875;3,875;0,0067332773;;21;41,42;;;1708,9851823359;41,42;0,080126;;;;;-1,4535917291;34,5933777316;1299,3840072986
26/08/2006;38955;22:00;0,9166666667;3,9167;0;;22;89,17;;;7951,2889;89,17;0;;;;;-1,5337177291;82,3433777316;7035,3671429186
26/08/2006;38955;23:00;0,9583333333;3,9583;0,0728579832;;23;66,27;;;4277,5511009401;66,27;0,86701;;;;;-0,6667077291;59,4433777316;3613,2223740892
27/08/2006;38956;00:00;0;4;0,2043529412;;24;68,41;;;4353,12287524;68,41;2,4318;;;;;0,8980822709;61,5833777316;3682,705085149
;;;;;;;;;;;95;;;;;;;;;
