;;;;;Estatística;;;;;;;;;;;;;;;;
;;;;;;;;;avalia a habilidade de uma simulação;;;;;;;;;;;;
;;;;;σsimulacao;σobservado;correlação;RMSE;RMSVEUB;ME;F. Bias;obmédio;simmédio;#Pontos (n);Teste de hipótese nula;;;;;;
;;;;;2,720874722745;2,7635589859636;0,8743475751824;12,4614831491059;1,3313106324379;11,9345833333329;-0,0127438931156;930,527013888889;942,461597222222;167;23,1427828700743;;;;;;
;;;;;;;;;;;;;;;;;;;;;
Variable;;P;;;;Simulação;;Medições CETESB;;Comparação CETESB-Simulação;;;;;;;;;;;
        ;;;;;;Dumb;;Dumb;;Número de comparaões;167;RMSE;Gráfico de Nuvem;;Vmodulo Fractional BIAS;;;;;;
z (agl)   ;;m    ;;;0;;;Hora (média);10m;;;;T;;(Calculando a partir do dia 24/08/2006);;;;Calculando;;
      Date;; Hour;;;;P (hPa);;(N-1)h-->Nh;P(hPa);RMSE;12,4614831491059;(Tmedido-Tsimulado)^2;;;Observado;Simulado;Fractional BIAS;;RMSVEUB;;
Simulação;#Dias em relação a uma data de referência;     ;#Fração de um dia;Tempo Corrido;;Simulado;;GMT;Medido;;;;Medido;Simulado;930,527013888889;942,461597222222;-0,0127438931156;;sim-Mean_sim;ob-mean_ob;diff²
23/08/2006;38952;00:00;0;0,0000;;945,19;;24;933,28;;;141,848100000002;933,28;945,19;;;;;2,7284027777785;2,7529861111112;0,0006043402778
23/08/2006;38952;01:00;0,0416666666667;0,0417;;945,86;;1;933,37;;;156,0001;933,37;945,86;;;;;3,3984027777784;2,8429861111113;0,3084876736117
23/08/2006;38952;02:00;0,0833333333333;0,0833;;946,35;;2;933,28;;;170,824900000001;933,28;946,35;;;;;3,8884027777784;2,7529861111112;1,2891710069457
23/08/2006;38952;03:00;0,125;0,1250;;946,68;;3;933,39;;;176,624099999999;933,39;946,68;;;;;4,2184027777784;2,8629861111112;1,837154340279
23/08/2006;38952;04:00;0,1666666666667;0,1667;;946,98;;4;933,15;;;191,268900000001;933,15;946,98;;;;;4,5184027777784;2,6229861111112;3,5926043402798
23/08/2006;38952;05:00;0,2083333333333;0,2083;;947,11;;5;932,68;;;208,224900000002;932,68;947,11;;;;;4,6484027777784;2,1529861111112;6,2271043402805
23/08/2006;38952;06:00;0,25;0,2500;;947,28;;6;932,1;;;230,432399999999;932,1;947,28;;;;;4,8184027777784;1,5729861111113;10,5327293402806
23/08/2006;38952;07:00;0,2916666666667;0,2917;;947,49;;7;931,77;;;247,118400000001;931,77;947,49;;;;;5,0284027777784;1,2429861111112;14,3293793402816
23/08/2006;38952;08:00;0,3333333333333;0,3333;;947,74;;8;931,7;;;257,281599999999;931,7;947,74;;;;;5,2784027777784;1,1729861111113;16,8544460069481
23/08/2006;38952;09:00;0,375;0,3750;;947,94;;9;932,04;;;252,810000000003;932,04;947,94;;;;;5,4784027777785;1,5129861111112;15,7245293402823
23/08/2006;38952;10:00;0,4166666666667;0,4167;;948,2;;10;932,6;;;243,360000000001;932,6;948,2;;;;;5,7384027777785;2,0729861111113;13,4352793402815
23/08/2006;38952;11:00;0,4583333333333;0,4583;;948,41;;11;932,98;;;238,084899999998;932,98;948,41;;;;;5,9484027777784;2,4529861111113;12,2179376736141
23/08/2006;38952;12:00;0,5;0,5000;;948,53;;12;933,42;;;228,3121;933,42;948,53;;;;;6,0684027777784;2,8929861111112;10,0832710069476
23/08/2006;38952;13:00;0,5416666666667;0,5417;;948,6;;13;933,86;;;217,2676;933,86;948,6;;;;;6,1384027777784;3,3329861111113;7,8703626736139
23/08/2006;38952;14:00;0,5833333333333;0,5833;;948,32;;14;934,09;;;202,492900000001;934,09;948,32;;;;;5,8584027777785;3,5629861111113;5,2689376736134
23/08/2006;38952;15:00;0,625;0,6250;;947,7;;15;933,63;;;197,964900000001;933,63;947,7;;;;;5,2384027777785;3,1029861111113;4,5600043402801
23/08/2006;38952;16:00;0,6666666666667;0,6667;;947,02;;16;932,91;;;199,0921;932,91;947,02;;;;;4,5584027777784;2,3829861111112;4,7324376736133
23/08/2006;38952;17:00;0,7083333333333;0,7083;;946,37;;17;931,89;;;209,670400000001;931,89;946,37;;;;;3,9084027777784;1,3629861111112;6,479146006947
23/08/2006;38952;18:00;0,75;0,7500;;945,8;;18;931,07;;;216,972899999997;931,07;945,8;;;;;3,3384027777784;0,5429861111113;7,8143543402799
23/08/2006;38952;19:00;0,7916666666667;0,7917;;945,38;;19;930,85;;;211,120899999999;930,85;945,38;;;;;2,9184027777784;0,3229861111113;6,7361876736135
23/08/2006;38952;20:00;0,8333333333333;0,8333;;945,2;;20;930,84;;;206,2096;930,84;945,2;;;;;2,7384027777785;0,3129861111113;5,8826460069469
23/08/2006;38952;21:00;0,875;0,8750;;945,69;;21;931,45;;;202,7776;931,45;945,69;;;;;3,2284027777785;0,9229861111113;5,3149460069467
23/08/2006;38952;22:00;0,9166666666667;0,9167;;946,16;;22;931,76;;;207,359999999999;931,76;946,16;;;;;3,6984027777784;1,2329861111113;6,07827934028
23/08/2006;38952;23:00;0,9583333333333;0,9583;;946,72;;23;932,2;;;210,830399999999;932,2;946,72;;;;;4,2584027777784;1,6729861111113;6,6843793402802
24/08/2006;38953;00:00;0;1,0000;;947,13;;24;932,74;;;207,0721;932,74;947,13;;;;;4,6684027777784;2,2129861111113;6,0290710069467
24/08/2006;38953;01:00;0,0416666666667;1,0417;;947,3;;1;933,44;;;192,099599999997;933,44;947,3;;;;;4,8384027777784;2,9129861111113;3,7072293402793
24/08/2006;38953;02:00;0,0833333333333;1,0833;;947,3;;2;933,98;;;177,422399999998;933,98;947,3;;;;;4,8384027777784;3,4529861111113;1,9193793402789
24/08/2006;38953;03:00;0,125;1,1250;;947,19;;3;934,15;;;170,041600000002;934,15;947,19;;;;;4,7284027777785;3,6229861111112;1,2219460069457
24/08/2006;38953;04:00;0,1666666666667;1,1667;;947,03;;4;934,03;;;169;934,03;947,03;;;;;4,5684027777784;3,5029861111112;1,1351126736121
24/08/2006;38953;05:00;0,2083333333333;1,2083;;946,85;;5;933,68;;;173,448900000002;933,68;946,85;;;;;4,3884027777784;3,1529861111112;1,5262543402792
24/08/2006;38953;06:00;0,25;1,2500;;946,72;;6;933,44;;;176,358399999999;933,44;946,72;;;;;4,2584027777784;2,9129861111113;1,8101460069457
24/08/2006;38953;07:00;0,2916666666667;1,2917;;946,62;;7;932,94;;;187,142399999999;932,94;946,62;;;;;4,1584027777784;2,4129861111113;3,0464793402793
24/08/2006;38953;08:00;0,3333333333333;1,3333;;946,57;;8;932,84;;;188,512900000001;932,84;946,57;;;;;4,1084027777785;2,3129861111113;3,2235210069462
24/08/2006;38953;09:00;0,375;1,3750;;946,56;;9;933,13;;;180,364899999999;933,13;946,56;;;;;4,0984027777784;2,6029861111113;2,2362710069457
24/08/2006;38953;10:00;0,4166666666667;1,4167;;946,56;;10;933,62;;;167,443599999998;933,62;946,56;;;;;4,0984027777784;3,0929861111113;1,010862673612
24/08/2006;38953;11:00;0,4583333333333;1,4583;;946,51;;11;934,2;;;151,536099999999;934,2;946,51;;;;;4,0484027777784;3,6729861111113;0,1409376736114
24/08/2006;38953;12:00;0,5;1,5000;;946,46;;12;934,9;;;133,633600000001;934,9;946,46;;;;;3,9984027777784;4,3729861111112;0,1403126736107
24/08/2006;38953;13:00;0,5416666666667;1,5417;;946,29;;13;935,52;;;115,9929;935,52;946,29;;;;;3,8284027777784;4,9929861111112;1,3562543402767
24/08/2006;38953;14:00;0,5833333333333;1,5833;;945,97;;14;935,75;;;104,448400000001;935,75;945,97;;;;;3,5084027777784;5,2229861111113;2,9397960069427
24/08/2006;38953;15:00;0,625;1,6250;;945,43;;15;935,36;;;101,404899999999;935,36;945,43;;;;;2,9684027777784;4,8329861111113;3,4766710069429
24/08/2006;38953;16:00;0,6666666666667;1,6667;;944,77;;16;934,62;;;103,0225;934,62;944,77;;;;;2,3084027777784;4,0929861111113;3,1847376736095
24/08/2006;38953;17:00;0,7083333333333;1,7083;;944,21;;17;933,71;;;110,25;933,71;944,21;;;;;1,7484027777784;3,1829861111113;2,0580293402764
24/08/2006;38953;18:00;0,75;1,7500;;943,86;;18;932,77;;;122,988100000001;932,77;943,86;;;;;1,3984027777784;2,2429861111112;0,7133210069436
24/08/2006;38953;19:00;0,7916666666667;1,7917;;943,89;;19;932,21;;;136,422399999999;932,21;943,89;;;;;1,4284027777784;1,6829861111113;0,0648126736109
24/08/2006;38953;20:00;0,8333333333333;1,8333;;944,16;;20;932,28;;;141,1344;932,28;944,16;;;;;1,6984027777784;1,7529861111112;0,0029793402777
24/08/2006;38953;21:00;0,875;1,8750;;944,59;;21;932,67;;;142,086400000002;932,67;944,59;;;;;2,1284027777784;2,1429861111112;0,0002126736111
24/08/2006;38953;22:00;0,9166666666667;1,9167;;945,29;;22;933,31;;;143,5204;933,31;945,29;;;;;2,8284027777784;2,7829861111112;0,0020626736112
24/08/2006;38953;23:00;0,9583333333333;1,9583;;945,98;;23;933,73;;;150,0625;933,73;945,98;;;;;3,5184027777784;3,2029861111113;0,0994876736114
25/08/2006;38954;00:00;0;2,0000;;946,39;;24;934,2;;;148,596099999999;934,2;946,39;;;;;3,9284027777784;3,6729861111113;0,0652376736113
25/08/2006;38954;01:00;0,0416666666667;2,0417;;946,67;;1;934,62;;;145,202499999999;934,62;946,67;;;;;4,2084027777784;4,0929861111113;0,0133210069445
25/08/2006;38954;02:00;0,0833333333333;2,0833;;946,7;;2;934,69;;;144,2401;934,69;946,7;;;;;4,2384027777785;4,1629861111113;0,0056876736112
25/08/2006;38954;03:00;0,125;2,1250;;946,66;;3;934,86;;;139,239999999999;934,86;946,66;;;;;4,1984027777784;4,3329861111113;0,018112673611
25/08/2006;38954;04:00;0,1666666666667;2,1667;;946,62;;4;934,55;;;145,684900000001;934,55;946,62;;;;;4,1584027777784;4,0229861111112;0,0183376736113
25/08/2006;38954;05:00;0,2083333333333;2,2083;;946,59;;5;933,97;;;159,2644;933,97;946,59;;;;;4,1284027777784;3,4429861111113;0,4697960069451
25/08/2006;38954;06:00;0,25;2,2500;;946,6;;6;933,48;;;172,1344;933,48;946,6;;;;;4,1384027777784;2,9529861111113;1,4052126736123
25/08/2006;38954;07:00;0,2916666666667;2,2917;;946,61;;7;933,24;;;178,7569;933,24;946,61;;;;;4,1484027777784;2,7129861111113;2,0604210069458
25/08/2006;38954;08:00;0,3333333333333;2,3333;;946,68;;8;932,85;;;191,268899999998;932,85;946,68;;;;;4,2184027777784;2,3229861111113;3,5926043402793
25/08/2006;38954;09:00;0,375;2,3750;;946,78;;9;932,97;;;190,716099999999;932,97;946,78;;;;;4,3184027777784;2,4429861111113;3,5171876736127
25/08/2006;38954;10:00;0,4166666666667;2,4167;;946,89;;10;933,08;;;190,716099999999;933,08;946,89;;;;;4,4284027777784;2,5529861111113;3,5171876736127
25/08/2006;38954;11:00;0,4583333333333;2,4583;;946,95;;11;933,66;;;176,624100000002;933,66;946,95;;;;;4,4884027777785;3,1329861111112;1,8371543402793
25/08/2006;38954;12:00;0,5;2,5000;;946,93;;12;933,96;;;168,220899999998;933,96;946,93;;;;;4,4684027777784;3,4329861111113;1,0720876736119
25/08/2006;38954;13:00;0,5416666666667;2,5417;;946,69;;13;934,42;;;150,552900000002;934,42;946,69;;;;;4,2284027777785;3,8929861111112;0,1125043402782
25/08/2006;38954;14:00;0,5833333333333;2,5833;;946,19;;14;934,36;;;139,948900000001;934,36;946,19;;;;;3,7284027777785;3,8329861111113;0,010937673611
25/08/2006;38954;15:00;0,625;2,6250;;945,39;;15;933,82;;;133,864899999999;933,82;945,39;;;;;2,9284027777784;3,2929861111113;0,1329210069441
25/08/2006;38954;16:00;0,6666666666667;2,6667;;944,48;;16;933,03;;;131,102500000001;933,03;944,48;;;;;2,0184027777784;2,5029861111112;0,2348210069439
25/08/2006;38954;17:00;0,7083333333333;2,7083;;943,63;;17;932,1;;;132,940899999999;932,1;943,63;;;;;1,1684027777784;1,5729861111113;0,1636876736107
25/08/2006;38954;18:00;0,75;2,7500;;942,9;;18;930,96;;;142,563599999999;930,96;942,9;;;;;0,4384027777784;0,4329861111113;0,0000293402778
25/08/2006;38954;19:00;0,7916666666667;2,7917;;942,35;;19;930,08;;;150,5529;930,08;942,35;;;;;-0,1115972222216;-0,4470138888887;0,1125043402781
25/08/2006;38954;20:00;0,8333333333333;2,8333;;942,16;;20;929,83;;;152,028899999998;929,83;942,16;;;;;-0,3015972222216;-0,6970138888887;0,1563543402781
25/08/2006;38954;21:00;0,875;2,8750;;942,35;;21;929,97;;;153,2644;929,97;942,35;;;;;-0,1115972222216;-0,5570138888887;0,1983960069449
25/08/2006;38954;22:00;0,9166666666667;2,9167;;942,75;;22;930,06;;;161,036100000001;930,06;942,75;;;;;0,2884027777784;-0,4670138888888;0,5706543402786
25/08/2006;38954;23:00;0,9583333333333;2,9583;;943,14;;23;930,31;;;164,608900000001;930,31;943,14;;;;;0,6784027777784;-0,2170138888888;0,8017710069454
26/08/2006;38955;00:00;0;3,0000;;943,31;;24;930,9;;;154,008099999999;930,9;943,31;;;;;0,8484027777783;0,3729861111112;0,2260210069449
26/08/2006;38955;01:00;0,0416666666667;3,0417;;943,32;;1;930,98;;;152,275600000001;930,98;943,32;;;;;0,8584027777785;0,4529861111113;0,1643626736115
26/08/2006;38955;02:00;0,0833333333333;3,0833;;943,22;;2;931,06;;;147,865600000002;931,06;943,22;;;;;0,7584027777784;0,5329861111112;0,0508126736114
26/08/2006;38955;03:00;0,125;3,1250;;943,24;;3;931,12;;;146,8944;931,12;943,24;;;;;0,7784027777784;0,5929861111113;0,034379340278
26/08/2006;38955;04:00;0,1666666666667;3,1667;;943,23;;4;930,83;;;153,759999999999;930,83;943,23;;;;;0,7684027777784;0,3029861111113;0,2166126736115
26/08/2006;38955;05:00;0,2083333333333;3,2083;;943,17;;5;930,58;;;158,508099999998;930,58;943,17;;;;;0,7084027777784;0,0529861111113;0,429571006945
26/08/2006;38955;06:00;0,25;3,2500;;943,11;;6;929,83;;;176,358399999999;929,83;943,11;;;;;0,6484027777784;-0,6970138888887;1,8101460069457
26/08/2006;38955;07:00;0,2916666666667;3,2917;;943,09;;7;929,79;;;176,890000000002;929,79;943,09;;;;;0,6284027777784;-0,7370138888888;1,8643626736126
26/08/2006;38955;08:00;0,3333333333333;3,3333;;943,08;;8;929,48;;;184,960000000001;929,48;943,08;;;;;0,6184027777784;-1,0470138888887;2,7736126736128
26/08/2006;38955;09:00;0,375;3,3750;;943,09;;9;929,29;;;190,440000000002;929,29;943,09;;;;;0,6284027777784;-1,2370138888888;3,4797793402798
26/08/2006;38955;10:00;0,4166666666667;3,4167;;943,1;;10;929,71;;;179,2921;929,71;943,1;;;;;0,6384027777784;-0,8170138888887;2,1182376736125
26/08/2006;38955;11:00;0,4583333333333;3,4583;;943,05;;11;930,06;;;168,7401;930,06;943,05;;;;;0,5884027777784;-0,4670138888888;1,1139043402788
26/08/2006;38955;12:00;0,5;3,5000;;942,85;;12;930,64;;;149,084100000001;930,64;942,85;;;;;0,3884027777784;0,1129861111112;0,0758543402781
26/08/2006;38955;13:00;0,5416666666667;3,5417;;942,24;;13;930,93;;;127,916100000001;930,93;942,24;;;;;-0,2215972222216;0,4029861111112;0,3901043402771
26/08/2006;38955;14:00;0,5833333333333;3,5833;;941,41;;14;930,8;;;112,5721;930,8;941,41;;;;;-1,0515972222216;0,2729861111112;1,7545210069431
26/08/2006;38955;15:00;0,625;3,6250;;940,51;;15;929,73;;;116,208399999999;929,73;940,51;;;;;-1,9515972222216;-0,7970138888887;1,3330626736101
26/08/2006;38955;16:00;0,6666666666667;3,6667;;939,66;;16;928,3;;;129,0496;928,3;939,66;;;;;-2,8015972222216;-2,2270138888888;0,3301460069439
26/08/2006;38955;17:00;0,7083333333333;3,7083;;938,83;;17;926,91;;;142,086400000002;926,91;938,83;;;;;-3,6315972222216;-3,6170138888888;0,0002126736111
26/08/2006;38955;18:00;0,75;3,7500;;938,32;;18;925,65;;;160,528900000002;925,65;938,32;;;;;-4,1415972222216;-4,8770138888888;0,5408376736119
26/08/2006;38955;19:00;0,7916666666667;3,7917;;938,21;;19;924,56;;;186,322500000003;924,56;938,21;;;;;-4,2515972222216;-5,9670138888888;2,9426543402797
26/08/2006;38955;20:00;0,8333333333333;3,8333;;938,08;;20;924,08;;;196;924,08;938,08;;;;;-4,3815972222216;-6,4470138888887;4,2659460069464
26/08/2006;38955;21:00;0,875;3,8750;;938,1;;21;923,85;;;203,0625;923,85;938,1;;;;;-4,3615972222216;-6,6770138888887;5,36115434028
26/08/2006;38955;22:00;0,9166666666667;3,9167;;938,23;;22;923,51;;;216,678400000001;923,51;938,23;;;;;-4,2315972222216;-7,0170138888888;7,7585460069473
26/08/2006;38955;23:00;0,9583333333333;3,9583;;938,47;;23;923,47;;;225;923,47;938,47;;;;;-3,9915972222216;-7,0570138888887;9,3967793402807
27/08/2006;38956;00:00;0;4,0000;;939,07;;24;923,59;;;239,630400000001;923,59;939,07;;;;;-3,3915972222216;-6,9370138888887;12,5699793402813
27/08/2006;38956;01:00;0,0416666666667;4,0417;;939,66;;1;923,76;;;252,809999999999;923,76;939,66;;;;;-2,8015972222216;-6,7670138888888;15,7245293402814
27/08/2006;38956;02:00;0,0833333333333;4,0833;;939,73;;2;923,8;;;253,764900000002;923,8;939,73;;;;;-2,7315972222216;-6,7270138888888;15,9633543402821
27/08/2006;38956;03:00;0,125;4,1250;;939,68;;3;926,06;;;185,5044;926,06;939,68;;;;;-2,7815972222217;-4,4670138888888;2,8406293402794
27/08/2006;38956;04:00;0,1666666666667;4,1667;;939,56;;4;926,21;;;178,222499999998;926,21;939,56;;;;;-2,9015972222217;-4,3170138888887;2,0034043402789
27/08/2006;38956;05:00;0,2083333333333;4,2083;;939,46;;5;926,01;;;180,902500000001;926,01;939,46;;;;;-3,0015972222216;-4,5170138888888;2,2964876736127
27/08/2006;38956;06:00;0,25;4,2500;;939,33;;6;924,4;;;222,904900000002;924,4;939,33;;;;;-3,1315972222216;-6,1270138888888;8,9725210069477
27/08/2006;38956;07:00;0,2916666666667;4,2917;;939,22;;7;923,2;;;256,640399999999;923,2;939,22;;;;;-3,2415972222216;-7,3270138888887;16,6906293402816
27/08/2006;38956;08:00;0,3333333333333;4,3333;;939,15;;8;923,15;;;256;923,15;939,15;;;;;-3,3115972222216;-7,3770138888888;16,527612673615
27/08/2006;38956;09:00;0,375;4,3750;;939,13;;9;923,72;;;237,468099999999;923,72;939,13;;;;;-3,3315972222216;-6,8070138888887;12,0785210069476
27/08/2006;38956;10:00;0,4166666666667;4,4167;;939,15;;10;924,29;;;220,8196;924,29;939,15;;;;;-3,3115972222216;-6,2370138888888;8,558062673614
27/08/2006;38956;11:00;0,4583333333333;4,4583;;939,13;;11;924,94;;;201,356099999998;924,94;939,13;;;;;-3,3315972222216;-5,5870138888887;5,0869043402797
27/08/2006;38956;12:00;0,5;4,5000;;938,82;;12;925,79;;;169,780900000002;925,79;938,82;;;;;-3,6415972222216;-4,7370138888888;1,1999376736124
27/08/2006;38956;13:00;0,5416666666667;4,5417;;938,25;;13;926,12;;;147,1369;926,12;938,25;;;;;-4,2115972222216;-4,4070138888888;0,0381876736113
27/08/2006;38956;14:00;0,5833333333333;4,5833;;937,65;;14;926,27;;;129,5044;926,27;937,65;;;;;-4,8115972222216;-4,2570138888888;0,3075626736106
27/08/2006;38956;15:00;0,625;4,6250;;937,2;;15;926,11;;;122,988100000001;926,11;937,2;;;;;-5,2615972222216;-4,4170138888887;0,7133210069436
27/08/2006;38956;16:00;0,6666666666667;4,6667;;936,78;;16;925,66;;;123,6544;925,66;936,78;;;;;-5,6815972222216;-4,8670138888888;0,6635460069437
27/08/2006;38956;17:00;0,7083333333333;4,7083;;936,38;;17;925,35;;;121,660899999999;925,35;936,38;;;;;-6,0815972222216;-5,1770138888887;0,8182710069436
27/08/2006;38956;18:00;0,75;4,7500;;935,93;;18;924,92;;;121,2201;924,92;935,93;;;;;-6,5315972222217;-5,6070138888888;0,8548543402769
27/08/2006;38956;19:00;0,7916666666667;4,7917;;935,64;;19;924,54;;;123,210000000001;924,54;935,64;;;;;-6,8215972222216;-5,9870138888888;0,6965293402769
27/08/2006;38956;20:00;0,8333333333333;4,8333;;935,67;;20;924,73;;;119,683599999999;924,73;935,67;;;;;-6,7915972222216;-5,7970138888887;0,9891960069436
27/08/2006;38956;21:00;0,875;4,8750;;936,01;;21;925,17;;;117,505600000001;925,17;936,01;;;;;-6,4515972222216;-5,3570138888888;1,19811267361
27/08/2006;38956;22:00;0,9166666666667;4,9167;;936,75;;22;925,6;;;124,3225;925,6;936,75;;;;;-5,7115972222216;-4,9270138888887;0,6155710069437
27/08/2006;38956;23:00;0,9583333333333;4,9583;;937,53;;23;926,24;;;127,464099999999;926,24;937,53;;;;;-4,9315972222216;-4,2870138888887;0,4154876736105
28/08/2006;38957;00:00;0;5,0000;;938,31;;24;926,76;;;133,402499999999;926,76;938,31;;;;;-4,1515972222217;-3,7670138888888;0,1479043402774
28/08/2006;38957;01:00;0,0416666666667;5,0417;;938,89;;1;926,71;;;148,352399999999;926,71;938,89;;;;;-3,5715972222216;-3,8170138888887;0,060229340278
28/08/2006;38957;02:00;0,0833333333333;5,0833;;939,19;;2;927,29;;;141,610000000002;927,29;939,19;;;;;-3,2715972222216;-3,2370138888888;0,0011960069444
28/08/2006;38957;03:00;0,125;5,1250;;939,08;;3;928,15;;;119,464900000001;928,15;939,08;;;;;-3,3815972222216;-2,3770138888888;1,00918767361
28/08/2006;38957;04:00;0,1666666666667;5,1667;;938,95;;4;928,77;;;103,632400000001;928,77;938,95;;;;;-3,5115972222216;-1,7570138888888;3,0785626736092
28/08/2006;38957;05:00;0,2083333333333;5,2083;;938,9;;5;929,5;;;88,3599999999996;929,5;938,9;;;;;-3,5615972222216;-1,0270138888888;6,4241126736088
28/08/2006;38957;06:00;0,25;5,2500;;938,91;;6;928,77;;;102,8196;928,77;938,91;;;;;-3,5515972222216;-1,7570138888888;3,2205293402761
28/08/2006;38957;07:00;0,2916666666667;5,2917;;938,97;;7;928,39;;;111,936400000001;928,39;938,97;;;;;-3,4915972222216;-2,1370138888888;1,834896006943
28/08/2006;38957;08:00;0,3333333333333;5,3333;;939,12;;8;928,46;;;113,635599999999;928,46;939,12;;;;;-3,3415972222216;-2,0670138888887;1,62456267361
28/08/2006;38957;09:00;0,375;5,3750;;939,34;;9;928,55;;;116,424100000002;928,55;939,34;;;;;-3,1215972222216;-1,9770138888888;1,3100710069432
28/08/2006;38957;10:00;0,4166666666667;5,4167;;939,58;;10;929,37;;;104,244100000001;929,37;939,58;;;;;-2,8815972222216;-1,1570138888888;2,9741876736093
28/08/2006;38957;11:00;0,4583333333333;5,4583;;939,78;;11;930,5;;;86,1183999999995;930,5;939,78;;;;;-2,6815972222216;-0,0270138888887;7,0468126736087
28/08/2006;38957;12:00;0,5;5,5000;;939,97;;12;930,79;;;84,2724000000012;930,79;939,97;;;;;-2,4915972222216;0,2629861111112;7,5877293402748
28/08/2006;38957;13:00;0,5416666666667;5,5417;;939,96;;13;931,22;;;76,3876000000002;931,22;939,96;;;;;-2,5015972222216;0,6929861111113;10,205362673608
28/08/2006;38957;14:00;0,5833333333333;5,5833;;939,68;;14;931,13;;;73,1024999999992;931,13;939,68;;;;;-2,7815972222217;0,6029861111113;11,4554043402748
28/08/2006;38957;15:00;0,625;5,6250;;939,12;;15;930,69;;;71,0648999999992;930,69;939,12;;;;;-3,3415972222216;0,1629861111113;12,2821043402748
28/08/2006;38957;16:00;0,6666666666667;5,6667;;938,35;;16;930,02;;;69,3889000000007;930,02;938,35;;;;;-4,1115972222216;-0,5070138888888;12,9930210069407
28/08/2006;38957;17:00;0,7083333333333;5,7083;;937,6;;17;929,34;;;68,2275999999999;929,34;937,6;;;;;-4,8615972222216;-1,1870138888887;13,5025626736076
28/08/2006;38957;18:00;0,75;5,7500;;937,49;;18;928,91;;;73,6164000000007;928,91;937,49;;;;;-4,9715972222216;-1,6170138888888;11,2532293402743
28/08/2006;38957;19:00;0,7916666666667;5,7917;;938,33;;19;928,95;;;87,9843999999999;928,95;938,33;;;;;-4,1315972222216;-1,5770138888887;6,525896006942
28/08/2006;38957;20:00;0,8333333333333;5,8333;;938,88;;20;929,21;;;93,5088999999992;929,21;938,88;;;;;-3,5815972222216;-1,3170138888887;5,1283376736091
28/08/2006;38957;21:00;0,875;5,8750;;939,41;;21;929,31;;;102,01;929,31;939,41;;;;;-3,0515972222216;-1,2170138888888;3,3656960069426
28/08/2006;38957;22:00;0,9166666666667;5,9167;;939,87;;22;929,81;;;101,203600000001;929,81;939,87;;;;;-2,5915972222216;-0,7170138888888;3,5140626736091
28/08/2006;38957;23:00;0,9583333333333;5,9583;;940,26;;23;930,48;;;95,6483999999995;930,48;940,26;;;;;-2,2015972222216;-0,0470138888887;4,6422293402758
29/08/2006;38958;00:00;0;6,0000;;940,56;;24;930,77;;;95,8440999999993;930,77;940,56;;;;;-1,9015972222217;0,2429861111112;4,5992376736092
29/08/2006;38958;01:00;0,0416666666667;6,0417;;940,85;;1;931,05;;;96,0400000000013;931,05;940,85;;;;;-1,6115972222216;0,5229861111112;4,5564460069421
29/08/2006;38958;02:00;0,0833333333333;6,0833;;941,04;;2;931,22;;;96,4323999999987;931,22;941,04;;;;;-1,4215972222216;0,6929861111113;4,4714626736094
29/08/2006;38958;03:00;0,125;6,1250;;941,21;;3;931,35;;;97,2196000000003;931,35;941,21;;;;;-1,2515972222216;0,8229861111113;4,3038960069424
29/08/2006;38958;04:00;0,1666666666667;6,1667;;941,44;;4;931,43;;;100,200100000002;931,43;941,44;;;;;-1,0215972222216;0,9029861111112;3,7040210069422
29/08/2006;38958;05:00;0,2083333333333;6,2083;;941,79;;5;931,25;;;111,091599999999;931,25;941,79;;;;;-0,6715972222216;0,7229861111113;1,9448626736099
29/08/2006;38958;06:00;0,25;6,2500;;942,21;;6;931,05;;;124,545600000002;931,05;942,21;;;;;-0,2515972222216;0,5229861111112;0,5999793402769
29/08/2006;38958;07:00;0,2916666666667;6,2917;;942,68;;7;931,07;;;134,792099999998;931,07;942,68;;;;;0,2184027777784;0,5429861111113;0,1053543402775
29/08/2006;38958;08:00;0,3333333333333;6,3333;;943,26;;8;931,55;;;137,124100000001;931,55;943,26;;;;;0,7984027777784;1,0229861111112;0,0504376736109
29/08/2006;38958;09:00;0,375;6,3750;;943,98;;9;932,42;;;133,633600000001;932,42;943,98;;;;;1,5184027777784;1,8929861111112;0,1403126736107
29/08/2006;38958;10:00;0,4166666666667;6,4167;;944,65;;10;933,43;;;125,888400000001;933,43;944,65;;;;;2,1884027777784;2,9029861111112;0,5106293402771
29/08/2006;38958;11:00;0,4583333333333;6,4583;;945,39;;11;934,27;;;123,6544;934,27;945,39;;;;;2,9284027777784;3,7429861111112;0,6635460069437
29/08/2006;38958;12:00;0,5;6,5000;;946,2;;12;935,04;;;124,545600000002;935,04;946,2;;;;;3,7384027777785;4,5129861111112;0,5999793402769
29/08/2006;38958;13:00;0,5416666666667;6,5417;;946,9;;13;935,73;;;124,768899999999;935,73;946,9;;;;;4,4384027777784;5,2029861111113;0,5845876736104
29/08/2006;38958;14:00;0,5833333333333;6,5833;;947,43;;14;936,21;;;125,888399999998;936,21;947,43;;;;;4,9684027777784;5,6829861111113;0,5106293402772
29/08/2006;38958;15:00;0,625;6,6250;;947,73;;15;936,29;;;130,873600000001;936,29;947,73;;;;;5,2684027777784;5,7629861111112;0,2446126736106
29/08/2006;38958;16:00;0,6666666666667;6,6667;;947,73;;16;935,97;;;138,2976;935,97;947,73;;;;;5,2684027777784;5,4429861111113;0,0304793402776
29/08/2006;38958;17:00;0,7083333333333;6,7083;;947,54;;17;935,73;;;139,476099999999;935,73;947,54;;;;;5,0784027777784;5,2029861111113;0,0155210069443
29/08/2006;38958;18:00;0,75;6,7500;;947,34;;18;935,43;;;141,848100000002;935,43;947,34;;;;;4,8784027777784;4,9029861111112;0,0006043402778
29/08/2006;38958;19:00;0,7916666666667;6,7917;;947,23;;19;935,26;;;143,280900000001;935,26;947,23;;;;;4,7684027777784;4,7329861111113;0,0012543402778
29/08/2006;38958;20:00;0,8333333333333;6,8333;;947,23;;20;935,69;;;133,171599999999;935,69;947,23;;;;;4,7684027777784;5,1629861111113;0,1556960069441
29/08/2006;38958;21:00;0,875;6,8750;;947,3;;21;936,13;;;124,768899999999;936,13;947,3;;;;;4,8384027777784;5,6029861111113;0,5845876736104
29/08/2006;38958;22:00;0,9166666666667;6,9167;;947,37;;22;936,26;;;123,4321;936,26;947,37;;;;;4,9084027777784;5,7329861111113;0,6799376736103
29/08/2006;38958;23:00;0,9583333333333;6,9583;;947,33;;23;936,43;;;118,810000000002;936,43;947,33;;;;;4,8684027777785;5,9029861111112;1,0703626736099
;;;;;;;;;;;;167;;;;;;;;;
