Estação Cerqueira Cesar;CO;;;;;;
Ano;Ultrapassagens PQAr;Atenção;1ª Máxima (ppm);2ª Máxima;3ª Máxima;4ª Máxima;Observação
1981;52;7;17,8;17,4;;;
1982;32;2;16,5;15,6;;;
1983;100;5;18,4;17,4;;;
1984;78;4;16,1;15,5;;;
1985;42;1;15,9;13,9;;;
1986;86;3;16,3;16;;;
1987;51;8;20,9;17,4;;;
1988;64;5;16,8;16,4;;;
1989;47;2;16,9;16,9;;;
1990;64;11;23,7;20,7;;;
1991;66;8;19,8;17,9;;;Não representativo
1992;78;1;15,7;14,7;;;
1993;43;0;14,6;12,8;;;
1994;44;1;21,7;13,4;;;
1995;24;1;17;13,3;;;
1996;5;0;10,9;9,9;;;Não representativo
1997;3;0;10,9;10,9;;;
1998;0;0;7,5;7,1;;;
1999;0;0;8,1;7,9;;;
2000;0;0;7,2;7,1;;;
2001;0;0;9;8,2;;;
2002;0;0;6,7;6,3;;;
2003;0;0;6,4;5,5;;;
2004;0;0;7;6,6;;;
2005;0;0;6,9;5,4;;;
2006;0;0;5,2;4,8;;;
2007;0;0;5;5;;;
2008;0;0;4,6;4,6;;;
2009;0;0;4,2;4;;;
2010;0;0;4,4;4,2;;;
2011;0;0;4,4;4,2;;;
2012;0;0;4;3,5;;;
2013;0;0;2,8;2,6;2,5;2,5;
2014;0;0;3,3;3,1;2,9;2,8;
2015;0;0;2,5;2,2;2,2;2,1;
