Ano;N;Inaláv.;1ª Máxima;2ª Máxima;3º Máxima;4ª Máxima;PQAr (SP);Atenção (SP);PQAr (BR);Atenção (BR);Alerta;Observação
;;(µg/m3);(µg/m3);(µg/m3);(µg/m3);(µg/m3);;;;;;
1982;;;411;398;;;;;;;;
1983;;108;306;243;;;;;;;;
1984;;56;216;177;;;;;;;;
1985;;65;514;340;;;;;21;;;
1986;;53;186;158;;;;;3;;;
1987;;55;201;175;;;;;6;;;
1988;;69;257;176;;;;;15;;;
1989;;54;173;117;;;;;;;;
1990;220;58;200;197;;;;;2;0;0;
1991;274;67;304;223;;;;;3;1;0;
1992;317;60;243;184;;;;;3;0;0;
1993;292;47;283;238;;;;;3;1;0;
1995;293;57;185;179;;;;;3;0;0;
1996;241;44;106;102;;;;;0;0;;Não representativo
1997;347;41;223;124;;;;;1;0;;
1998;314;39;216;125;;;;;1;0;;
1999;364;37;260;137;;;;;1;1;;
2000;359;39;187;150;;;;;2;0;;
2001;350;36;173;165;;;;;2;0;;
2002;226;32;73;68;;;;;0;0;;Não representativo
2003;323;34;151;117;;;;;1;0;;
2004;346;33;76;53;;;;;0;0;;
2005;293;33;188;119;;;;;64;1;;
2006;337;36;106;104;;;;;0;0;;
2007;346;37;151;91;;;;;1;0;;
2008;359;32;123;84;;;;;0;0;;
2009;357;29;70;68;;;;;6;0;;
2010;359;34;136;129;;;;;0;0;;
2011;354;38;85;78;;;;;0;0;;
2012;363;34;107;86;;;;;0;0;;
2013;354;36;111;87;82;82;0;0;0;0;;
2014;352;37;102;83;78;75;0;0;0;0;;
2015;310;33;85;74;68;67;0;0;0;0;;
