;;;;;Estatística;;;;;;;;;;;;;;;;;;;;;;;;
;;;;;;;;;;avalia a habilidade de uma simulação;;;;;;Testes de Hipóteses Nulas;;;;;;;;;;;;;
;;;;;σsimulacao;σobservado;correlaçãoU;correlaçãoV;RMSE;RMSVEUB;ME;F. Bias;obmédio;simmédio;#Pontos (n);tU;tV;;;;;;;;;;;;
;;;;;2,253506942;1,9018775811;0,5590276825;0,8213774518;1,6498279011;0,7555675337;0,3503500681;-0,2024940028;1,555;1,9053500681;135;7,7754683491;16,6073553631;;;;;;;;;;;;
;;;;;σsimulacao;σobservado;RMSE;correlaçãoU;correlaçãoV;n;α (pior correlação);obmédio;simmédio;;;;;;;;;;;;;;;;
;;;;;2,253506942;1,9018775811;1,6498279011;0,5590276825;0,8213774518;135;<0,001;1,555;1,9053500681;;;;;;;;;;;;;;;;
;;;;;;;;;;;;;;;;;;;;;;;;;;;;;
;;;;;;;;;;;;;;;;;;;;;;;;;;;;;
Variable;;U,V;;;m/s;;Simulação;;;;;;Medições CETESB;;360;;;;;;;;;;;;;;
        ;;;;;;;São José dos Campos;;;;;;;;;;;;Comparação;RMSVE;Comparação (BIAS);;Vmodulo Fractional BIAS;;;;;;
z (agl)   ;;m    ;;;47,7;;10;;;;;;Hora (média);;;;;;Medidas CETESB;;Vmódulo;;(Calculando a partir do dia 24/08/2006);;;;Calculando;;
      Date;; Hour;;;U;V;U10m;;V10m;Vmodulo;DIR;;(N-1)h-->Nh;Vmódulo;DIR;U;V;;(Umedido-Ubrams)²;(Vmedido-Vbrams)²;;;Observado;Simulado;Fractional BIAS;;RMSVEUB;;
Simulação;#Dias em relação a uma data de referência;     ;#Fração de um dia;Tempo Corrido;  Ibirapuera;Ibirapuera;Simulação;;Simulação;Simulação;Simulação;;GMT;Observado;(⁰);Observado;Observado;;;;Medido;Simulado;1,555;1,9053500681;-0,2024940028;;sim-Mean_sim;ob-mean_ob;diff²
24/08/2006;38953;00:00;0;1;;;-0,4019833799;;0,2900832103;0,4957205933;125,8153413954;;24;0;777;NaN;NaN;;NaN;NaN;0;0,4957205933;;;;;-1,4096294748;;
24/08/2006;38953;01:00;0,0416666667;1,0417;;;-0,3221633506;;-0,1317233119;0,3480520871;67,7617614497;;1;0;777;NaN;NaN;;NaN;NaN;0;0,3480520871;;;;;-1,557297981;;
24/08/2006;38953;02:00;0,0833333333;1,0833;;;-0,4838899595;;-0,1141840342;0,4971795316;76,7227335238;;2;0;777;NaN;NaN;;NaN;NaN;0;0,4971795316;;;;;-1,4081705366;;
24/08/2006;38953;03:00;0,125;1,125;;;-0,5843288986;;-0,2675395191;0,6426644973;65,39895739;;3;0;777;NaN;NaN;;NaN;NaN;0;0,6426644973;;;;;-1,2626855709;;
24/08/2006;38953;04:00;0,1666666667;1,1667;;;-0,5004938408;;-0,3873833067;0,6328980257;52,2600520281;;4;0;777;NaN;NaN;;NaN;NaN;0;0,6328980257;;;;;-1,2724520424;;
24/08/2006;38953;05:00;0,2083333333;1,2083;;;-0,4187453332;;-0,3507438509;0,546231547;50,0502367432;;5;0;777;NaN;NaN;;NaN;NaN;0;0,546231547;;;;;-1,3591185211;;
24/08/2006;38953;06:00;0,25;1,25;;;-0,4342401067;;-0,3803592549;0,5772673844;48,7842591282;;6;0;777;NaN;NaN;;NaN;NaN;0;0,5772673844;;;;;-1,3280826837;;
24/08/2006;38953;07:00;0,2916666667;1,2917;;;-0,5687456342;;-0,5172180483;0,7687562071;47,7165738999;;7;0;777;NaN;NaN;;NaN;NaN;0;0,7687562071;;;;;-1,1365938611;;
24/08/2006;38953;08:00;0,3333333333;1,3333;;;-0,9255781881;;-0,8661805662;1,2676607415;46,8986859676;;8;0;777;NaN;NaN;;NaN;NaN;0;1,2676607415;;;;;-0,6376893266;;
24/08/2006;38953;09:00;0,375;1,375;;;-1,4437137122;;-1,3575663087;1,9817405394;46,7614545708;;9;0;777;NaN;NaN;;NaN;NaN;0;1,9817405394;;;;;0,0763904713;;
24/08/2006;38953;10:00;0,4166666667;1,4167;;;-1,4835107146;;-1,1116351321;1,8537898229;53,1547764274;;10;0;777;NaN;NaN;;NaN;NaN;0;1,8537898229;;;;;-0,0515602453;;
24/08/2006;38953;11:00;0,4583333333;1,4583;;;-1,1016263051;;-0,642054334;1,2750742269;59,7653379718;;11;0;777;NaN;NaN;;NaN;NaN;0;1,2750742269;;;;;-0,6302758413;;
24/08/2006;38953;12:00;0,5;1,5;;;-0,6459863732;;-0,4282288529;0,7750344152;56,4593256695;;12;0;777;NaN;NaN;;NaN;NaN;0;0,7750344152;;;;;-1,1303156529;;
24/08/2006;38953;13:00;0,5416666667;1,5417;;;-0,1935159031;;-0,3231600004;0,376670666;30,9141788737;;13;1,32;65,45;-1,2006707279;-0,5484430719;;1,0143608412;0,0507524623;1,32;0,376670666;;;;;-1,5286794022;-0,235;1,6736063956
24/08/2006;38953;14:00;0,5833333333;1,5833;;;0,0428240768;;-0,3466032945;0,3492388084;352,9565970772;;14;1,6;72,28;-1,5240884731;-0,4869849344;;2,4552149389;0,0197070048;1,6;0,3492388084;;;;;-1,5561112597;0,045;2,563557266
24/08/2006;38953;15:00;0,625;1,625;;;0,2818676315;;-0,4858868453;0,5617253672;329,8815674559;;15;1,94;90,28;-1,9399768345;0,0094805908;;4,9365928313;0,2453888967;1,94;0,5617253672;;;;;-1,3436247009;0,385;2,9881433566
24/08/2006;38953;16:00;0,6666666667;1,6667;;;-0,0061923659;;-0,4793989807;0,4794389722;0,7400447564;;16;1,78;86,78;-1,777189768;-0,0999826412;;3,1364317982;0,1439567587;1,78;0,4794389722;;;;;-1,4259110959;0,225;2,7255074465
24/08/2006;38953;17:00;0,7083333333;1,7083;;;-0,8219153375;;0,4343056407;0,9296054064;117,8522768184;;17;1,75;127,81;-1,3825840488;1,0728286667;;0,3143494038;0,4077116547;1,75;0,9296054064;;;;;-0,9757446618;0,195;1,370643063
24/08/2006;38953;18:00;0,75;1,75;;;-0,3229753137;;2,0267874588;2,0523597288;170,9458538104;;18;1,54;145,56;-0,8709360715;1,2700670688;;0,3002609921;0,5726257486;1,54;2,0523597288;;;;;0,1470096607;-0,015;0,0262471302
24/08/2006;38953;19:00;0,7916666667;1,7917;;;-1,5236651752;;3,2277275409;3,5692829314;154,7301087879;;19;2,3;170,16;-0,3930640249;2,2661643083;;1,278258961;0,9246038503;2,3;3,5692829314;;;;;1,6639328633;0,745;0,8444376073
24/08/2006;38953;20:00;0,8333333333;1,8333;;;-1,7650089728;;3,2475664658;3,6962067886;151,4765109646;;20;2,33;166,89;-0,528493617;2,2692717988;;1,5289702251;0,9570604555;2,33;3,6962067886;;;;;1,7908567204;0,775;1,0319648765
24/08/2006;38953;21:00;0,875;1,875;;;-0,7810459608;;2,0734953179;2,2157201146;159,3595695946;;21;2,24;177,22;-0,1086425037;2,2373638073;;0,4521264091;0,0268528818;2,24;2,2157201146;;;;;0,3103700465;0,685;0,1403476021
24/08/2006;38953;22:00;0,9166666667;1,9167;;;-0,5705150518;;1,6092168151;1,7073564895;160,4790748535;;22;2,42;171,26;-0,367721135;2,3918990712;;0,0411253727;0,612591514;2,42;1,7073564895;;;;;-0,1979935786;0,865;1,1299553481
24/08/2006;38953;23:00;0,9583333333;1,9583;;;-0,6959709316;;1,4991792949;1,6528502945;155,0976395389;;23;1,95;187,46;0,2531763027;1,9334947012;;0,9008804724;0,1886298722;1,95;1,6528502945;;;;;-0,2524997736;0,395;0,4192559569
25/08/2006;38954;00:00;0;2;;;-0,6378839895;;1,3093094645;1,4564296268;154,0250657845;;24;1,56;181,06;0,0288591182;1,5597330385;;0,4445463716;0,0627119664;1,56;1,4564296268;;;;;-0,4489204413;0,005;0,206043767
25/08/2006;38954;01:00;0,0416666667;2,0417;;;-0,5629131094;;0,7542366028;0,9411397462;143,2647351249;;1;1,25;86,48;-1,2476417846;-0,0767461882;;0,4688533585;0,690532399;1,25;0,9411397462;;;;;-0,9642103219;-0,305;0,4345582485
25/08/2006;38954;02:00;0,0833333333;2,0833;;;-0,3936566964;;0,1275648826;0,4138096107;107,9549735534;;2;1,11;106,83;-1,0624565129;0,3213816396;;0,4472931945;0,0375649353;1,11;0,4138096107;;;;;-1,4915404574;-0,445;1,095246929
25/08/2006;38954;03:00;0,125;2,125;;;-0,0586147886;;-0,095739196;0,1122572362;31,4763841961;;3;1,17;123,25;-0,9784548023;0,6415030785;;0,8461056508;0,5435261713;1,17;0,1122572362;;;;;-1,7930928319;-0,385;1,9827254232
25/08/2006;38954;04:00;0,1666666667;2,1667;;;0,0100183592;;-0,0933680572;0,0939040022;353,8756153845;;4;1,02;98,95;-1,0075809689;0,1586839346;;1,0355083925;0,0635302066;1,02;0,0939040022;;;;;-1,8114460659;-0,535;1,6293145593
25/08/2006;38954;05:00;0,2083333333;2,2083;;;0,0327044378;;-0,2581204981;0,2601841113;352,7789747948;;5;1,12;99,01;-1,1061803453;0,1753996684;;1,2970585493;0,1879397347;1,12;0,2601841113;;;;;-1,6451659568;-0,435;1,464501643
25/08/2006;38954;06:00;0,25;2,25;;;0,1128137781;;-0,4296348548;0,4441993437;345,2873758215;;6;1,17;97,23;-1,160697261;0,1472476431;;1,6218303667;0,3327934163;1,17;0,4441993437;;;;;-1,4611507244;-0,385;1,1581003816
25/08/2006;38954;07:00;0,2916666667;2,2917;;;0,1101566729;;-0,5238131503;0,5352706876;348,1238882631;;7;1,66;67,84;-1,5373826754;-0,6261425632;;2,714385904;0,0104713087;1,66;0,5352706876;;;;;-1,3700793805;0,105;2,1758591787
25/08/2006;38954;08:00;0,3333333333;2,3333;;;-0,0555763947;;-0,7750883257;0,7770782768;4,1012776526;;8;1,65;64,83;-1,4933322788;-0,7017540204;;2,0671419822;0,0053779203;1,65;0,7770782768;;;;;-1,1282717913;0,095;1,4963938755
25/08/2006;38954;09:00;0,375;2,375;;;-0,0909313844;;-0,8893557668;0,8939922799;5,8378693492;;9;1,65;89,04;-1,6497683987;-0,0276447218;;2,4299728371;0,7425459249;1,65;0,8939922799;;;;;-1,0113577882;0,095;1,2240275555
25/08/2006;38954;10:00;0,4166666667;2,4167;;;-0,2162621539;;-0,8649890392;0,8916139059;14,0371719964;;10;1,4;75,99;-1,3583548834;-0,3389277367;;1,3043758029;0,2767404941;1,4;0,8916139059;;;;;-1,0137361622;-0,155;0,7374277963
25/08/2006;38954;11:00;0,4583333333;2,4583;;;-0,2714834736;;-0,6834003216;0,7353497644;21,6656455131;;11;1,75;65,93;-1,5978337435;-0,7137417798;;1,7592050385;0,0009206041;1,75;0,7353497644;;;;;-1,1700003038;0,195;1,8632258292
25/08/2006;38954;12:00;0,5;2,5;;;-0,038556027;;-0,6776809919;0,6787769103;3,2562794303;;12;1,83;67,85;-1,6949459277;-0,6899697834;;2,7436275031;0,0001510144;1,83;0,6787769103;;;;;-1,2265731578;0,275;2,2547219482
25/08/2006;38954;13:00;0,5416666667;2,5417;;;0,0687213208;;-0,6527185008;0,6563261851;353,9897690233;;13;1,87;74,01;-1,7976493056;-0,5151281142;;3,4833393151;0,0189311145;1,87;0,6563261851;;;;;-1,249023883;0,315;2,4461707066
25/08/2006;38954;14:00;0,5833333333;2,5833;;;0,0087058922;;-0,69501771;0,6950722335;359,2823423281;;14;2,15;85,83;-2,1443082791;-0,1563393881;;4,6354700216;0,2901743345;2,15;0,6950722335;;;;;-1,2102778346;0,595;3,2590280602
25/08/2006;38954;15:00;0,625;2,625;;;0,0812263969;;-0,640684078;0,6458125233;352,7745469641;;15;1,67;63,68;-1,4968739636;-0,7404514414;;2,4904007478;0,0099535268;1,67;0,6458125233;;;;;-1,2595375448;0,115;1,889353462
25/08/2006;38954;16:00;0,6666666667;2,6667;;;-0,4385891803;;-0,3649230224;0,5705517342;50,2382449004;;16;1,12;20,92;-0,3999117656;-1,0461694794;;0,0014959424;0,4640967353;1,12;0,5705517342;;;;;-1,334798334;-0,435;0,8096370418
25/08/2006;38954;17:00;0,7083333333;2,7083;;;-0,6188195572;;0,6850684594;0,9231773602;137,9086249675;;17;0,96;321,04;0,60362658;-0,7464817157;;1,4943745583;2,0493359039;0,96;0,9231773602;;;;;-0,9821727079;-0,595;0,1499027058
25/08/2006;38954;18:00;0,75;2,75;;;-0,7691902669;;1,4719529025;1,6608127571;152,4100313755;;18;1,29;45,29;-0,9167729398;-0,9075391875;;0,0217806453;5,6619826066;1,29;1,6608127571;;;;;-0,2445373111;-0,265;0,0004187216
25/08/2006;38954;19:00;0,7916666667;2,7917;;;-1,2082679733;;2,0751038794;2,4012429293;149,7890974688;;19;1,02;17,06;-0,2992404439;-0,9751180219;;0,8263310492;9,3038536475;1,02;2,4012429293;;;;;0,4958928612;-0,535;1,0627400913
25/08/2006;38954;20:00;0,8333333333;2,8333;;;-2,0663461558;;3,0053885993;3,6472108615;145,4896453366;;20;1,16;104,35;-1,1238077856;0,2874996714;;0,8883785794;7,3869202241;1,16;3,6472108615;;;;;1,7418607934;-0,395;4,5661740503
25/08/2006;38954;21:00;0,875;2,875;;;-1,1078222456;;2,0518095262;2,3317788188;151,6343027326;;21;1,1;91,51;-1,0996180151;0,0289865631;;6,73093984E-005;4,0918127399;1,1;2,3317788188;;;;;0,4264287507;-0,455;0,7769166425
25/08/2006;38954;22:00;0,9166666667;2,9167;;;-0,6212026112;;1,6080252881;1,7238439637;158,8777576234;;22;0,95;106,6;-0,9104064457;0,271403949;;0,0836388579;1,786556604;0,95;1,7238439637;;;;;-0,1815061044;-0,605;0,1793470796
25/08/2006;38954;23:00;0,9583333333;2,9583;;;0,2127471492;;1,7386166493;1,7515847689;186,9763597145;;23;0,84;86,78;-0,8386738231;-0,0471828195;;1,105486061;3,1890797427;0,84;1,7515847689;;;;;-0,1537652992;-0,715;0,3149843894
26/08/2006;38955;00:00;0;3;;;-0,068864304;;1,7647706674;1,7661137565;177,7653565865;;24;0,84;99,24;-0,8291005014;0,1348790518;;0,5779590757;2,6565466785;0,84;1,7661137565;;;;;-0,1392363116;-0,715;0,3315038248
26/08/2006;38955;01:00;0,0416666667;3,0417;;;-0,0653731299;;1,5376060413;1,5389951216;177,5654687243;;1;0,94;112,5;-0,8684467606;0,3597224264;;0,6449272563;1,3874098101;0,94;1,5389951216;;;;;-0,3663549465;-0,615;0,0618243626
26/08/2006;38955;02:00;0,0833333333;3,0833;;;0,1026917561;;1,1850331964;1,1894743686;184,9527237949;;2;0;777;NaN;NaN;;NaN;NaN;0;1,1894743686;;;;;-0,7158756996;;
26/08/2006;38955;03:00;0,125;3,125;;;0,3020580569;;0,199574818;0,3620347742;236,5465922135;;3;0,76;122,95;-0,6377506072;0,4133692817;;0,883240325;0,0457080727;0,76;0,3620347742;;;;;-1,543315294;-0,795;0,5599757792
26/08/2006;38955;04:00;0,1666666667;3,1667;;;0,1830304653;;-0,6800640459;0,7042636281;344,9365160682;;4;0,93;108,11;-0,8839291893;0,2890833587;;1,1384029047;0,9392466919;0,93;0,7042636281;;;;;-1,2010864401;-0,625;0,3318755864
26/08/2006;38955;05:00;0,2083333333;3,2083;;;-0,4391789862;;-0,9102670659;1,0106751769;25,7560392402;;5;0,63;232,7;0,5011482929;0,3817726922;;0,8842153919;1,6693667365;0,63;1,0106751769;;;;;-0,8946748912;-0,925;0,0009196122
26/08/2006;38955;06:00;0,25;3,25;;;-0,8726743885;;-1,0139894929;1,3378098819;40,7164240584;;6;1,1;102;-1,0759623608;0,2287028599;;0,0413259997;1,5442842837;1,1;1,3378098819;;;;;-0,5675401862;-0,455;0,0126652935
26/08/2006;38955;07:00;0,2916666667;3,2917;;;-1,7044794002;;-1,1993315207;2,0841415792;54,8684361934;;7;0,67;888;NaN;NaN;;NaN;NaN;0,67;2,0841415792;;;;;0,1787915111;;
26/08/2006;38955;08:00;0,3333333333;3,3333;;;-1,8076656401;;-1,387831095;2,2789756942;52,4848319989;;8;0;777;NaN;NaN;;NaN;NaN;0;2,2789756942;;;;;0,373625626;;
26/08/2006;38955;09:00;0,375;3,375;;;-1,7252119704;;-1,3600685155;2,1968483583;51,7495686157;;9;0;777;NaN;NaN;;NaN;NaN;0;2,1968483583;;;;;0,2914982902;;
26/08/2006;38955;10:00;0,4166666667;3,4167;;;-1,6664696883;;-1,2124978942;2,0608911581;53,9609362828;;10;0;777;NaN;NaN;;NaN;NaN;0;2,0608911581;;;;;0,15554109;;
26/08/2006;38955;11:00;0,4583333333;3,4583;;;-1,446394648;;-0,9281399712;1,7185753646;57,3120325943;;11;0;777;NaN;NaN;;NaN;NaN;0;1,7185753646;;;;;-0,1867747035;;
26/08/2006;38955;12:00;0,5;3,5;;;-1,2430605623;;-0,8336518786;1,4967214224;56,1524313075;;12;1,01;73,82;-0,9699949236;-0,2814424422;;0,074564843;0,3049352617;1,01;1,4967214224;;;;;-0,4086286457;-0,545;0,0185971463
26/08/2006;38955;13:00;0,5416666667;3,5417;;;-0,7880163938;;-0,7635305136;1,0972459533;45,904143558;;13;1,22;83,61;-1,212420578;-0,1357804921;;0,1801189116;0,3940700895;1,22;1,0972459533;;;;;-0,8081041148;-0,335;0,2238275034
26/08/2006;38955;14:00;0,5833333333;3,5833;;;-0,4167306172;;-1,0791660208;1,1568334832;21,1145602457;;14;1,19;5,63;-0,1167437436;-1,1842596414;;0,0899921243;0,0110446691;1,19;1,1568334832;;;;;-0,7485165849;-0,365;0,1470849709
26/08/2006;38955;15:00;0,625;3,625;;;-0,5405719778;;-1,103294443;1,2286076229;26,1030826226;;15;1,28;15;-0,3312883777;-1,2363850577;;0,0437996253;0,0177131117;1,28;1,2286076229;;;;;-0,6767424452;-0,275;0,1613969923
26/08/2006;38955;16:00;0,6666666667;3,6667;;;0,5069887888;;-0,5911522998;0,7787802473;319,3826838966;;16;1,35;10,29;-0,2411511643;-1,3282869103;;0,5597133894;0,543367434;1,35;0,7787802473;;;;;-1,1265698209;-0,205;0,8492909347
26/08/2006;38955;17:00;0,7083333333;3,7083;;;1,0027891389;;-0,3230229748;1,0535321065;287,8550227926;;17;1,61;13,8;-0,3840388667;-1,5635261907;;1,9232919172;1,5388482286;1,61;1,0535321065;;;;;-0,8518179616;0,055;0,8223188155
26/08/2006;38955;18:00;0,75;3,75;;;2,7831092339;;-2,6066440824;3,8131732691;313,1247568548;;18;1,57;313,63;1,1363827648;-1,0832978408;;2,711708064;2,3205837721;1,57;3,8131732691;;;;;1,907823201;0,015;3,5827796703
26/08/2006;38955;19:00;0,7916666667;3,7917;;;2,4803422185;;-2,732707641;3,6904997727;317,7715433977;;19;1,66;352,49;0,2169607218;-1,6457606282;;5,1228957994;1,1814538088;1,66;3,6904997727;;;;;1,7851497045;0,105;2,8229030297
26/08/2006;38955;20:00;0,8333333333;3,8333;;;1,6383496507;;-3,2198038863;3,6126619886;333,0314045744;;20;1,15;314,71;0,8172782021;-0,8090465625;;0,6741583236;5,811750874;1,15;3,6126619886;;;;;1,7073119205;-0,405;4,4618616495
26/08/2006;38955;21:00;0,875;3,875;;;1,6565800141;;-2,7892455981;3,2440943805;329,2932090971;;21;0,98;343,6;0,2766946277;-0,940127695;;1,9040836796;3,4192370192;0,98;3,2440943805;;;;;1,3387443124;-0,575;3,6624172931
26/08/2006;38955;22:00;0,9166666667;3,9167;;;1,4312622549;;-1,7608386282;2,2691549786;320,8947579624;;22;0;777;NaN;NaN;;NaN;NaN;0;2,2691549786;;;;;0,3638049105;;
26/08/2006;38955;23:00;0,9583333333;3,9583;;;1,1268271016;;-2,0628311511;2,3505343382;331,354307002;;23;0,69;45,64;-0,4933230642;-0,4824234181;;2,6248865597;2,4976886026;0,69;2,3505343382;;;;;0,44518427;-0,865;1,7165828215
27/08/2006;38956;00:00;0;4;;;0,3024929642;;-3,318045289;3,3318052964;354,7909714661;;24;0,91;24,09;-0,3714357324;-0,8307439417;;0,4541798882;6,1866679921;0,91;3,3318052964;;;;;1,4264552283;-0,645;4,2909267627
27/08/2006;38956;01:00;0,0416666667;4,0417;;;0,9547706001;;-2,3928245589;2,5762756585;338,2473063816;;1;0,85;27,64;-0,3943274176;-0,7529979334;;1,8200654614;2,6890313618;0,85;2,5762756585;;;;;0,6709255904;-0,705;1,8931712303
27/08/2006;38956;02:00;0,0833333333;4,0833;;;1,229775036;;-2,5414675545;2,8233674876;334,1784112164;;2;1,26;342,58;0,3772110721;-1,2022112157;;0,7268653125;1,7936075411;1,26;2,8233674876;;;;;0,9180174195;-0,295;1,4714112599
27/08/2006;38956;03:00;0,125;4,125;;;0,9693072297;;-2,2559181045;2,4553458004;336,7481063475;;3;2,81;297,38;2,4952124787;-1,2922904805;;2,328386829;0,9285781977;2,81;2,4553458004;;;;;0,5499957323;1,255;0,4970310174
27/08/2006;38956;04:00;0,1666666667;4,1667;;;0,5998147012;;-1,8846978618;1,9778431955;342,3460632678;;4;2,34;295,92;2,1046082887;-1,022850894;;2,2644037408;0,742780196;2,34;1,9778431955;;;;;0,0724931274;0,785;0,5076660435
27/08/2006;38956;05:00;0,2083333333;4,2083;;;0,1252711931;;-1,4920897092;1,497339164;355,200880078;;5;2,37;311,51;1,7747509431;-1,5707192907;;2,7207834455;0,0061826111;2,37;1,497339164;;;;;-0,4080109041;0,815;1,4957556716
27/08/2006;38956;06:00;0,25;4,25;;;0,0266443314;;-1,4633143317;1,4635568843;358,9568618106;;6;1,47;332,01;0,6898966547;-1,298053391;;0,4399036444;0,0273111785;1,47;1,4635568843;;;;;-0,4417931838;-0,085;0,127301376
27/08/2006;38956;07:00;0,2916666667;4,2917;;;0,1858901302;;-1,4870852957;1,4986586727;352,8748141438;;7;1,52;311,61;1,1364769472;-1,0093662113;;0,9036152967;0,2282155236;1,52;1,4986586727;;;;;-0,4066913955;-0,035;0,1381544935
27/08/2006;38956;08:00;0,3333333333;4,3333;;;0,6055340309;;-1,668614437;1,7750903081;340,0543520032;;8;1,83;317,6;1,2339733693;-1,3513732733;;0,394936002;0,1006419559;1,83;1,7750903081;;;;;-0,13025976;0,275;0,1642354731
27/08/2006;38956;09:00;0,375;4,375;;;0,9520300879;;-1,9240778298;2,1467269932;333,6738813345;;9;1,65;315,55;1,1554728389;-1,1778720297;;0,0413889529;0,556823096;1,65;2,1467269932;;;;;0,2413769251;0,095;0,0214262042
27/08/2006;38956;10:00;0,4166666667;4,4167;;;1,1004347781;;-1,9927097861;2,2763674994;331,0911885975;;10;1,4;319,27;0,9134933817;-1,0609099121;;0,0349470857;0,8682510051;1,4;2,2763674994;;;;;0,3710174313;-0,155;0,276694338
27/08/2006;38956;11:00;0,4583333333;4,4583;;;1,036747659;;-1,8416241601;2,113391884;330,6225381387;;11;1,33;325,5;0,7533202951;-1,0960878309;;0,0803310706;0,5558244182;1,33;2,113391884;;;;;0,2080418159;-0,225;0,1875252143
27/08/2006;38956;12:00;0,5;4,5;;;0,9397573596;;-1,3880694004;1,6762698337;325,9010267607;;12;1,66;319,34;1,0816044858;-1,2592584073;;0,0201206072;0,016592272;1,66;1,6762698337;;;;;-0,2290802344;0,105;0,111609603
27/08/2006;38956;13:00;0,5416666667;4,5417;;;3,2558475786;;-2,2879106049;3,9793314;305,0960254438;;13;1,54;319,76;0,9948257713;-1,1755516512;;5,1122196128;1,2373424419;1,54;3,9793314;;;;;2,0739813319;-0,015;4,363843005
27/08/2006;38956;14:00;0,5833333333;4,5833;;;4,6905056854;;-2,7561807233;5,4403470261;300,4388543952;;14;2,02;313,12;1,4744459237;-1,3807277857;;10,3430403911;1,8918707836;2,02;5,4403470261;;;;;3,534996958;0,465;9,4248813221
27/08/2006;38956;15:00;0,625;4,625;;;4,883116028;;-2,5924053346;5,5285972508;297,9634575397;;15;2,39;306,75;1,9149966123;-1,4299957954;;8,8097328657;1,3511959368;2,39;5,5285972508;;;;;3,6232471827;0,835;7,7743223518
27/08/2006;38956;16:00;0,6666666667;4,6667;;;4,8047135502;;-2,8248722559;5,5736142279;300,452875842;;16;2,83;295,5;2,5543163547;-1,218346404;;5,0642875374;2,580925313;2,83;5,5736142279;;;;;3,6682641598;1,275;5,7277133386
27/08/2006;38956;17:00;0,7083333333;4,7083;;;4,7193406393;;-2,923351964;5,5514108815;301,775762019;;17;3,2;290,35;3,000274621;-1,112812742;;2,9551879753;3,2780522746;3,2;5,5514108815;;;;;3,6460608134;1,645;4,0042443788
27/08/2006;38956;18:00;0,75;4,75;;;4,4538684195;;-3,2226039748;5,4974648954;305,8876818599;;18;3,35;298,09;2,9554003499;-1,5773740114;;2,2454065558;2,7067816322;3,35;5,4974648954;;;;;3,5921148273;1,795;3,2296217026
27/08/2006;38956;19:00;0,7916666667;4,7917;;;4,1822598356;;-2,0174339717;4,6434186935;295,7516815214;;19;2,42;296,97;2,1568107484;-1,0975278564;;4,1024440049;0,846227261;2,42;4,6434186935;;;;;2,7380686253;0,865;3,5083860752
27/08/2006;38956;20:00;0,8333333333;4,8333;;;4,037012692;;-0,8153023625;4,1185178667;281,4176987034;;20;1,63;315,51;1,1422791717;-1,1627976152;;8,3794821535;0,1207529506;1,63;4,1185178667;;;;;2,2131677985;0,075;4,5717615347
27/08/2006;38956;21:00;0,875;4,875;;;3,5679085048;;0,07144396;3,5686237316;268,852860043;;21;1,34;313,3;0,9752154953;-0,9189965929;;6,7220570416;0,980972489;1,34;3,5686237316;;;;;1,6632736635;-0,215;3,527911955
27/08/2006;38956;22:00;0,9166666667;4,9167;;;0,1598016461;;2,0469838418;2,0532119751;184,4638493335;;22;0,88;326,05;0,4914529126;-0,7299822153;;0,1099925626;7,7115404822;0,88;2,0532119751;;;;;0,1478619069;-0,675;0,6771017179
27/08/2006;38956;23:00;0,9583333333;4,9583;;;-0,8287070415;;1,8280407521;2,0071094519;155,6137528149;;23;0;777;NaN;NaN;;NaN;NaN;0;2,0071094519;;;;;0,1017593838;;
28/08/2006;38957;00:00;0;5;;;-0,7996337822;;1,3539321513;1,5724332915;149,433855558;;24;0;777;NaN;NaN;;NaN;NaN;0;1,5724332915;;;;;-0,3329167766;;
28/08/2006;38957;01:00;0,0416666667;5,0417;;;-1,0276324773;;0,5929395903;1,1864256682;119,9847640895;;1;0;777;NaN;NaN;;NaN;NaN;0;1,1864256682;;;;;-0,7189243999;;
28/08/2006;38957;02:00;0,0833333333;5,0833;;;-1,2722529742;;-0,2342184661;1,2936328383;79,568793649;;2;1,27;174,09;-0,1307670024;1,2632497738;;1,3029902239;2,2424111295;1,27;1,2936328383;;;;;-0,6117172299;-0,285;0,1067441483
28/08/2006;38957;03:00;0,125;5,125;;;-0,988371662;;-0,4648861816;1,0922443427;64,8097880746;;3;1,18;183,3;0,0679255518;1,1780433436;;1,1157638039;2,6992174248;1,18;1,0922443427;;;;;-0,8131057254;-0,375;0,1919366267
28/08/2006;38957;04:00;0,1666666667;5,1667;;;-0,7137842605;;-0,5061011012;0,8750007401;54,6618602956;;4;1,1;192,79;0,2435161284;1,0727068077;;0,9164240347;2,492634413;1,1;0,8750007401;;;;;-1,030349328;-0,455;0,3310268492
28/08/2006;38957;05:00;0,2083333333;5,2083;;;-0,4741920076;;-0,3141937596;0,5688372163;56,472037466;;5;1,37;195,32;0,3619673273;1,3213173934;;0,6991624333;2,6748967313;1,37;0,5688372163;;;;;-1,3365128518;-0,185;1,3259818479
28/08/2006;38957;06:00;0,25;5,25;;;-0,2147191264;;-0,1135703978;0,2429043814;62,1244998797;;6;0,91;171;-0,1423553632;0,8987963899;;0,0052365142;1,0248865129;0,91;0,2429043814;;;;;-1,6624456867;-0,645;1,0351957254
28/08/2006;38957;07:00;0,2916666667;5,2917;;;-0,078807597;;-0,0332144114;0,0855209593;67,1464232739;;7;1,21;181,69;0,0356850629;1,2094736774;;0,0131085692;1,544273686;1,21;0,0855209593;;;;;-1,8198291089;-0,345;2,1751209003
28/08/2006;38957;08:00;0,3333333333;5,3333;;;-0,0168172123;;-0,0095340034;0,0193317318;60,4502593033;;8;0,94;180,84;0,0137806261;0,9398989809;;0,0009362277;0,9014229918;0,94;0,0193317318;;;;;-1,8860183364;-0,615;1,6154876114
28/08/2006;38957;09:00;0,375;5,375;;;-0,006260283;;-0,0204799664;0,0214154189;16,9972594785;;9;1,74;180,33;0,0100216252;1,7399711397;;0,0002651005;3,099188097;1,74;0,0214154189;;;;;-1,8839346492;0,185;4,2804905828
28/08/2006;38957;10:00;0,4166666667;5,4167;;;-0,0016894662;;-0,0555460108;0,0555716979;1,7421493601;;10;1,21;184,1;0,0865119076;1,2069033473;;0,0077794823;1,5937783819;1,21;0,0555716979;;;;;-1,8497783702;-0,345;2,2643579434
28/08/2006;38957;11:00;0,4583333333;5,4583;;;0,008268006;;-0,0765198651;0,0769652498;353,8330902383;;11;1,01;125,4;-0,8232790737;0,5850739841;;0,6914705457;0,4377064213;1,01;0,0769652498;;;;;-1,8283848183;-0,545;1,6470765918
28/08/2006;38957;12:00;0,5;5,5;;;0,0544909136;;-0,0866061414;0,1023224481;327,8226889499;;12;1,43;176,1;-0,0972618657;1,4266885187;;0,023028906;2,2900607283;1,43;0,1023224481;;;;;-1,80302762;-0,125;2,8157766935
28/08/2006;38957;13:00;0,5416666667;5,5417;;;0,2819510384;;-0,116358571;0,3050175489;292,4254842564;;13;1,64;176,64;-0,0961195084;1,6371808208;;0,1429373383;3,0749003988;1,64;0,3050175489;;;;;-1,6003325192;0,085;2,8403457004
28/08/2006;38957;14:00;0,5833333333;5,5833;;;0,1076663814;;0,3914642867;0,4060004156;195,3781157705;;14;1,95;187,67;0,2602612145;1,9325537768;;0,0232851831;2,3749568164;1,95;0,4060004156;;;;;-1,4993496525;0,395;3,588560606
28/08/2006;38957;15:00;0,625;5,625;;;0,0855039789;;0,557271229;0,5637926508;188,7230545052;;15;2,09;194,76;0,5324708167;2,0210331094;;0,1997793541;2,1425988426;2,09;0,5637926508;;;;;-1,3415574173;0,535;3,5214677405
28/08/2006;38957;16:00;0,6666666667;5,6667;;;0,0775147902;;0,5462972652;0,5517691951;188,0758590878;;16;1,87;170,73;-0,3012328443;1,8455781678;;0,1434497707;1,688130864;1,87;0,5517691951;;;;;-1,353580873;0,315;2,7841621299
28/08/2006;38957;17:00;0,7083333333;5,7083;;;-0,1049735303;;1,2413328481;1,2457634935;175,1662728772;;17;2,17;177,32;-0,1014643598;2,1676265785;;1,23142778E-005;0,858020075;2,17;1,2457634935;;;;;-0,6595865746;0,615;1,6245709361
28/08/2006;38957;18:00;0,75;5,75;;;-2,0469242654;;4,9354836405;5,3431168538;157,4744398258;;18;2,9;172,21;-0,3930736915;2,8732373854;;2,7352217208;4,2528596165;2,9;5,3431168538;;;;;3,4377667857;1,345;4,3796728194
28/08/2006;38957;19:00;0,7916666667;5,7917;;;-1,71395204;;4,4124628556;4,7336518723;158,7721210479;;19;2,81;170,12;-0,4821544732;2,7683256788;;1,5173252456;2,7031870562;2,81;4,7336518723;;;;;2,8283018042;1,255;2,475278567
28/08/2006;38957;20:00;0,8333333333;5,8333;;;-1,668793166;;3,7940007566;4,1447934052;156,2576818171;;20;2,97;172,86;-0,3691538481;2,9469688557;;1,6890623567;0,7174630411;2,97;4,1447934052;;;;;2,2394433371;1,415;0,6797068161
28/08/2006;38957;21:00;0,875;5,875;;;-1,4482415149;;2,8965426061;3,2384197619;153,4354202108;;21;2,87;174,96;-0,2521329341;2,8589034582;;1,430675737;0,0014167055;2,87;3,2384197619;;;;;1,3330696938;1,315;0,0003265138
28/08/2006;38957;22:00;0,9166666667;5,9167;;;-1,5103796489;;2,0549670728;2,5503208336;143,6844964343;;22;2,41;174,19;-0,2439641436;2,397619965;;1,6038082322;0,1174110046;2,41;2,5503208336;;;;;0,6449707654;0,855;0,0441122794
28/08/2006;38957;23:00;0,9583333333;5,9583;;;-1,3070455632;;1,4969749699;1,9872851242;138,8749918417;;23;2,08;171,12;-0,3210802688;2,0550687242;;0,9721275617;0,3114686385;2,08;1,9872851242;;;;;0,0819350561;0,525;0,1963065445
29/08/2006;38958;00:00;0;6;;;-1,1003752018;;1,1199162449;1,5700439421;135,504253796;;24;1,81;171,08;-0,2806499843;1,7881095007;;0,6719494322;0,4464822271;1,81;1,5700439421;;;;;-0,335306126;0,255;0,3484613224
29/08/2006;38958;01:00;0,0416666667;6,0417;;;-1,0303729894;;1,5758540586;1,8828129252;146,8213132564;;1;1,22;142,71;-0,7391364568;0,9706066651;;0,084818718;0,3663244073;1,22;1,8828129252;;;;;-0,0225371429;-0,335;0,097633037
29/08/2006;38958;02:00;0,0833333333;6,0833;;;-0,5546200814;;1,8452583175;1,926806086;163,2710607652;;2;1,58;173,86;-0,1689939943;1,5709363545;;0,1487074791;0,0752525394;1,58;1,926806086;;;;;0,0214560179;0,025;1,25598093E-005
29/08/2006;38958;03:00;0,125;6,125;;;-0,4655117333;;1,7408805507;1,8020450232;165,0293541699;;3;1,54;176,04;-0,1063524396;1,5363232598;;0,1289953982;0,0418436852;1,54;1,8020450232;;;;;-0,103305045;-0,015;0,007797781
29/08/2006;38958;04:00;0,1666666667;6,1667;;;-0,5654391467;;1,7629238005;1,8513837406;162,2169065637;;4;1,43;178,3;-0,042422729;1,4293706;;0,2735461732;0,1112577376;1,43;1,8513837406;;;;;-0,0539663275;-0,125;0,0050457826
29/08/2006;38958;05:00;0,2083333333;6,2083;;;-0,4729051584;;1,6525883986;1,7189205054;164,0309818791;;5;1,7;189,11;0,2691616818;1,6785565195;;0,5506631954;0,0006743433;1,7;1,7189205054;;;;;-0,1864295627;0,145;0,109845555
29/08/2006;38958;06:00;0,25;6,25;;;-0,4651185294;;1,4229811421;1,4970673255;161,8993961213;;6;1,78;185,94;0,1842067625;1,7704428453;;0,4216233347;0,1207296352;1,78;1,4970673255;;;;;-0,4082827426;0,225;0,4010470321
29/08/2006;38958;07:00;0,2916666667;6,2917;;;-0,6767277703;;1,7230076454;1,8511390604;158,5571060687;;7;2,76;188,76;0,420336644;2,7278044479;;1,203550329;1,0096166143;2,76;1,8511390604;;;;;-0,0542110077;1,205;1,5856123618
29/08/2006;38958;08:00;0,3333333333;6,3333;;;-0,7289166537;;2,9397354605;3,0287561912;166,0741871214;;8;3,23;193,95;0,7786724465;3,1347359093;;2,272824895;0,038025175;3,23;3,0287561912;;;;;1,1234061231;1,675;0,304255805
29/08/2006;38958;09:00;0,375;6,375;;;-0,8136938011;;3,1690448353;3,2718408839;165,5996373042;;9;3,27;192,78;0,7233504634;3,1889910798;;2,362505071;0,0003978527;3,27;3,2718408839;;;;;1,3664908158;1,715;0,1214586515
29/08/2006;38958;10:00;0,4166666667;6,4167;;;-0,6940644884;;3,0307681247;3,109225135;167,1013305867;;10;3,9;186,91;0,4692094128;3,8716718;;1,3532061692;0,7071189911;3,9;3,109225135;;;;;1,2038750669;2,345;1,302166113
29/08/2006;38958;11:00;0,4583333333;6,4583;;;-0,7815821479;;2,830651162;2,9365722628;164,564430773;;11;3,5;190,85;0,6588345766;3,4374317449;;2,0748003403;0,3681826758;3,5;2,9365722628;;;;;1,0312221947;1,945;0,8349898775
29/08/2006;38958;12:00;0,5;6,5;;;-0,8537886852;;2,7545125855;2,8837986585;162,778655407;;12;3,65;183,98;0,2533401269;3,6411974377;;1,2257342068;0,7862100271;3,65;2,8837986585;;;;;0,9784485903;2,095;1,2466870504
29/08/2006;38958;13:00;0,5416666667;6,5417;;;-0,6521823137;;2,8357747281;2,9098041307;167,0481157851;;13;3,64;183,5;0,2222166839;3,6332106663;;0,764573607;0,6359040754;3,64;2,9098041307;;;;;1,0044540626;2,085;1,1675795229
29/08/2006;38958;14:00;0,5833333333;6,5833;;;-0,820128047;;3,0592456205;3,167269136;164,9929117883;;14;3,47;181,23;0,0744866762;3,4692004461;;0,800335503;0,168062959;3,47;3,167269136;;;;;1,2619190679;1,915;0,4265147039
29/08/2006;38958;15:00;0,625;6,625;;;-1,1839608221;;3,3406843023;3,5442819916;160,4853335101;;15;3,38;175,09;-0,2892969611;3,3675966606;;0,8004234242;0,000724275;3,38;3,5442819916;;;;;1,6389319235;1,825;0,0346213291
29/08/2006;38958;16:00;0,6666666667;6,6667;;;-1,207374328;;3,5489632252;3,7487188134;161,2114491147;;16;3,12;185,88;0,3196293789;3,1035845502;;2,331740321;0,1983621641;3,12;3,7487188134;;;;;1,8433687453;1,565;0,0774891583
29/08/2006;38958;17:00;0,7083333333;6,7083;;;-1,8435901797;;3,6697840649;4,1068406146;153,326409579;;17;3,53;171,76;-0,5059192225;3,4935577482;;1,7893635897;0,0310557147;3,53;4,1068406146;;;;;2,2014905464;1,975;0,0512979676
29/08/2006;38958;18:00;0,75;6,75;;;-2,0000972536;;3,8673988209;4,3539823913;152,6534138861;;18;3,35;172,87;-0,4158054959;3,3240947323;;2,5099803734;0,2951793327;3,35;4,3539823913;;;;;2,4486323232;1,795;0,4272352139
29/08/2006;38958;19:00;0,7916666667;6,7917;;;-2,0512137627;;3,806630943;4,3241088141;151,6818680247;;19;3,35;174,73;-0,3076948688;3,3358393048;;3,0398581332;0,2216447665;3,35;4,3241088141;;;;;2,418758746;1,795;0,3890749732
29/08/2006;38958;20:00;0,8333333333;6,8333;;;-2,0866616915;;3,5599848501;4,1264572151;149,6235808914;;20;3,56;183,99;0,2477132191;3,5513713071;;5,4493062231;7,41931226E-005;3,56;4,1264572151;;;;;2,2211071469;2,005;0,046702299
29/08/2006;38958;21:00;0,875;6,875;;;-1,8667058038;;3,1284137639;3,6430156789;149,1757248322;;21;3,64;184,16;0,2640525978;3,6304099253;;4,5401313663;0,252000146;3,64;3,6430156789;;;;;1,7376656107;2,085;0,120641178
29/08/2006;38958;22:00;0,9166666667;6,9167;;;-1,485953345;;2,4979768183;2,9065349694;149,2531628014;;22;3,55;185,69;0,3519685779;3,5325087573;;3,3779569946;1,0702563327;3,55;2,9065349694;;;;;1,0011849013;1,995;0,9876684504
29/08/2006;38958;23:00;0,9583333333;6,9583;;;-0,7784246013;;1,665218585;1,8381778466;154,9457490063;;23;2,61;181,96;0,0892666506;2,6084730141;;0,7528881086;0,889728918;2,61;1,8381778466;;;;;-0,0671722215;1,055;1,2592704948
;;;;;;;;;;;;;;;;;;Número de comparaões;135;135;;;;;;;;;
;;;;;;;;;;;;;;;;;;RMSVE;1,6498279011;;;;;;;;;;
