;;;;;Estatística;;;;;;;;;;;;;;;;;;;;;;;;
;;;;;;;;;;avalia a habilidade de uma simulação;;;;;;Testes de Hipóteses Nulas;;;;;;;;;;;;;
;;;;;σsimulacao;σobservado;correlaçãoU;correlaçãoV;RMSE;RMSVEUB;ME;F. Bias;obmédio;simmédio;#Pontos (n);tU;tV;;;;;;;;;;;;
;;;;;2,9817697418;3,1598112511;0,2317350968;0,7438964305;3,1229950529;1,2984595752;-0,0557840387;0,0209471869;2,6909722222;2,6351881836;167;3,0599873475;14,2983619538;;;;;;;;;;;;
;;;;;σsimulacao;σobservado;RMSE;correlaçãoU;correlaçãoV;n;α (pior correlação);obmédio;simmédio;;;;;;;;;;;;;;;;
;;;;;2,9817697418;3,1598112511;3,1229950529;0,2317350968;0,7438964305;167;<0,01;2,6909722222;2,6351881836;;;;;;;;;;;;;;;;
;;;;;;;;;;;;;;;;;;;;;;;;;;;;;
;;;;;;;;;;;;;;;;;;;;;;;;;;;;;
Variable;;U,V;;;m/s;;Simulação;;;;;;Medições CETESB;;360;;;;;;;;;;;;;;
        ;;;;;;;Dumb;;;;;;Dumb;;;;;;Comparação;RMSVE;Comparação (BIAS);;Vmodulo Fractional BIAS;;;;;;
z (agl)   ;;m    ;;;47,7;;10;;;;;;Hora (média);;;;;;Medidas CETESB;;Vmódulo;;(Calculando a partir do dia 24/08/2006);;;;Calculando;;
      Date;; Hour;;;U;V;U10m;;V10m;Vmodulo;DIR;;(N-1)h-->Nh;Vmódulo;DIR;U;V;;(Umedido-Ubrams)²;(Vmedido-Vbrams)²;;;Observado;Simulado;Fractional BIAS;;RMSVEUB;;
Simulação;#Dias em relação a uma data de referência;     ;#Fração de um dia;Tempo Corrido;  Ibirapuera;Ibirapuera;Simulação;;Simulação;Simulação;Simulação;;GMT;Observado;(⁰);Observado;Observado;;;;Medido;Simulado;2,6909722222;2,6351881836;0,0209471869;;sim-Mean_sim;ob-mean_ob;diff²
24/08/2006;38953;00:00;0;1;;;-0,1823596759;;-1,2627029185;1,2758031635;8,2178426553;;24;1,8;35;-1,0324375854;-1,4744736797;;0,7226324523;0,0448468553;1,8;1,2758031635;;;;;-1,3593850201;-0,8909722222;0,2194105492
24/08/2006;38953;01:00;0,0416666667;1,0417;;;-0,1175400498;;-1,2875377593;1,2928917762;5,2161058749;;1;1,4;29;-0,6787334683;-1,22446759;;0,314938053;0,0039778463;1,4;1,2928917762;;;;;-1,3422964074;-1,2909722222;0,002634172
24/08/2006;38953;02:00;0,0833333333;1,0833;;;-0,0154688544;;-1,2602816945;1,2603766243;0,7032202177;;2;1,6;27;-0,7263847996;-1,4256104387;;0,5054014811;0,0273335937;1,6;1,2603766243;;;;;-1,3748115593;-1,0909722222;0,0805647693
24/08/2006;38953;03:00;0,125;1,125;;;-0,2133859323;;-1,7199683703;1,7331545664;7,0721991546;;3;1,6;34;-0,8947086456;-1,3264601161;;0,4642006396;0,1548487462;1,6;1,7331545664;;;;;-0,9020336171;-1,0909722222;0,0356977965
24/08/2006;38953;04:00;0,1666666667;1,1667;;;-0,7126008198;;-2,7927781474;2,8822577451;14,3140733731;;4;1,4;34;-0,7828700649;-1,1606526016;;0,0049377668;2,6638337974;1,4;2,8822577451;;;;;0,2470695615;-1,2909722222;2,3655725285
24/08/2006;38953;05:00;0,2083333333;1,2083;;;-0,9177822616;;-3,0992359313;3,2322728284;16,4956957938;;5;1,6;33;-0,871422456;-1,3418729087;;0,0021492316;3,0883247931;1,6;3,2322728284;;;;;0,5970846449;-1,0909722222;2,8495359866
24/08/2006;38953;06:00;0,25;1,25;;;-1,0581440773;;-3,1988520055;3,3693208576;18,3036314221;;6;1,5;25;-0,6339273926;-1,3594616806;;0,1799597955;3,3833567675;1,5;3,3693208576;;;;;0,734132674;-1,1909722222;3,7060288616
24/08/2006;38953;07:00;0,2916666667;1,2917;;;-1,1541629043;;-3,3529802092;3,5460637746;18,994488437;;7;1,4;34;-0,7828700649;-1,1606526016;;0,1378583727;4,8063003393;1,4;3,5460637746;;;;;0,910875591;-1,2909722222;4,8481337926
24/08/2006;38953;08:00;0,3333333333;1,3333;;;-1,2526029555;;-3,6047875079;3,8162163384;19,1614784641;;8;1,5;28;-0,7042073442;-1,3244213893;;0,3007377465;5,2000696351;1,5;3,8162163384;;;;;1,1810281548;-1,1909722222;5,6263857888
24/08/2006;38953;09:00;0,375;1,375;;;-1,3525649188;;-3,8728515966;4,102244672;19,2513791979;;9;1,7;37;-1,0230855394;-1,3576803671;;0,1085566615;6,3260863136;1,7;4,102244672;;;;;1,4670564884;-0,9909722222;6,0419051423
24/08/2006;38953;10:00;0,4166666667;1,4167;;;-1,4376536489;;-4,0940822947;4,3391655707;19,3489320689;;10;1,6;35;-0,9177222982;-1,3106432709;;0,2703286095;7,7475327995;1,6;4,3391655707;;;;;1,7039773872;-1,0909722222;7,811743319
24/08/2006;38953;11:00;0,4583333333;1,4583;;;-1,4584761755;;-4,1325451678;4,3823603593;19,4391819466;;11;1,3;35;-0,7456493673;-1,0648976576;;0,5081220586;9,4104612471;1,3;4,3823603593;;;;;1,7471721757;-1,3909722222;9,8479502624
24/08/2006;38953;12:00;0,5;1,5;;;-1,110511694;;-3,1547857282;3,3445342297;19,3925067138;;12;1,1;42;-0,736043667;-0,817459308;;0,1402263033;5,4630947946;1,1;3,3445342297;;;;;0,7093460462;-1,5909722222;5,2914641358
24/08/2006;38953;13:00;0,5416666667;1,5417;;;-0,3315209114;;0,3884888539;0,5107148953;139,5238789973;;13;1,1;47;-0,8044890718;-0,7501981961;;0,2236988807;1,2966081977;1,1;0,5107148953;;;;;-2,1244732882;-1,5909722222;0,2846233874
24/08/2006;38953;14:00;0,5833333333;1,5833;;;-0,5672997071;;3,3500747404;3,3977683447;170,3887441498;;14;1,6;209;0,7756953924;1,3993915314;;1,8036358373;3,8051649818;1,6;3,3977683447;;;;;0,7625801611;-1,0909722222;3,4356564377
24/08/2006;38953;15:00;0,625;1,625;;;-1,2108195466;;3,3304282369;3,5437037426;160,0206202815;;15;2,3;209;1,1150621266;2,0116253264;;5,4097255574;1,7392411166;2,3;3,5437037426;;;;;0,908515559;-0,3909722222;1,6886684936
24/08/2006;38953;16:00;0,6666666667;1,6667;;;-1,2250701794;;3,8128052407;4,0047822348;162,1875721464;;16;2,3;239;1,9714847916;1,1845875723;;10,2179636827;6,9075281126;2,3;4,0047822348;;;;;1,3695940512;-0,3909722222;3,0995936032
24/08/2006;38953;17:00;0,7083333333;1,7083;;;-1,2448550386;;3,9098617352;4,1032527165;162,339122751;;17;2,8;232;2,2064301101;1,7238521309;;11,9113691775;4,7786379902;2,8;4,1032527165;;;;;1,468064533;0,1090277778;1,846980902
24/08/2006;38953;18:00;0,75;1,75;;;-1,2945938979;;3,7524821735;3,9695208556;160,9657355494;;18;3,1;209;1,5029098228;2,7113210921;;7,8260270669;1,0840163974;3,1;3,9695208556;;;;;1,3343326721;0,4090277778;0,8561891474
24/08/2006;38953;19:00;0,7916666667;1,7917;;;-1,1647471122;;3,4841413736;3,6736734949;161,5152382665;;19;2,3;217;1,3841745532;1,8368616731;;6,4970016568;2,7135304117;2,3;3,6736734949;;;;;1,0384853113;-0,3909722222;2,0433488401
24/08/2006;38953;20:00;0,8333333333;1,8333;;;-0,5169866718;;2,869565538;2,9157643244;169,7870358077;;20;2,5;211;1,2875951873;2,1429182518;;3,2565156863;0,5280162785;2,5;2,9157643244;;;;;0,2805761409;-0,1909722222;0,2223578587
24/08/2006;38953;21:00;0,875;1,875;;;1,0185743589;;1,3219191404;1,6688211224;217,6152213995;;21;1,9;232;1,4972204319;1,1697568031;;0,2291020632;0,0231533769;1,9;1,6688211224;;;;;-0,9663670612;-0,7909722222;0,0307633495
24/08/2006;38953;22:00;0,9166666667;1,9167;;;1,1760230984;;-0,7079659052;1,3726784223;301,0479406906;;22;2,2;255;2,1250368178;0,5694018992;;0,9006270397;1,6316685079;2,2;1,3726784223;;;;;-1,2625097613;-0,4909722222;0,5952701742
24/08/2006;38953;23:00;0,9583333333;1,9583;;;0,2210231647;;-0,9985819662;1,0227498143;347,5195325064;;23;1,6;263;1,5880738426;0,1949909494;;1,8688275561;1,424616305;1,6;1,0227498143;;;;;-1,6124383693;-1,0909722222;0,2719269425
25/08/2006;38954;00:00;0;2;;;-0,4044896858;;-1,1039398003;1,1757104187;20,1231152034;;24;2;225;1,4142135624;1,4142135624;;3,3076815049;6,3410963577;2;1,1757104187;;;;;-1,4594777649;-0,6909722222;0,5906007691
25/08/2006;38954;01:00;0,0416666667;2,0417;;;-0,7703643073;;-1,1587978189;1,3915004675;33,6158062332;;1;1;49;-0,7547095802;-0,656059029;;0,0002450705;0,2527462909;1;1,3915004675;;;;;-1,2436877161;-1,6909722222;0,2000634295
25/08/2006;38954;02:00;0,0833333333;2,0833;;;-0,7391651063;;-0,7837156283;1,077299977;43,3243408075;;2;1,3;48;-0,9660882731;-0,8698697883;;0,0514941237;0,0074225393;1,3;1,077299977;;;;;-1,5578882066;-1,3909722222;0,0278609458
25/08/2006;38954;03:00;0,125;2,125;;;-0,463443032;;-0,6487012589;0,7972407209;35,5426480929;;3;2,1;50;-1,6086933305;-1,3498539803;;1,3115982464;0,4916151388;2,1;0,7972407209;;;;;-1,8379474626;-0,5909722222;1,5549472502
25/08/2006;38954;04:00;0,1666666667;2,1667;;;-0,4753762075;;-1,0932864145;1,1921651408;23,5000769133;;4;3;53;-2,3959065301;-1,8054450695;;3,6884367202;0,5071699498;3;1,1921651408;;;;;-1,4430230428;0,3090277778;3,0696820778
25/08/2006;38954;05:00;0,2083333333;2,2083;;;-0,6178687003;;-1,6092146656;1,7237556587;21,0046256843;;5;3,8;56;-3,1503427757;-2,1249330332;;6,4134249424;0,2659654347;3,8;1,7237556587;;;;;-0,9114325249;1,1090277778;4,0822598346
25/08/2006;38954;06:00;0,25;2,25;;;-0,7162672448;;-1,9479093179;2,0754251316;20,1890189206;;6;2,5;53;-1,9965887751;-1,5045375579;;1,6392232211;0,1965785176;2,5;2,0754251316;;;;;-0,559763052;-0,1909722222;0,1360066761
25/08/2006;38954;07:00;0,2916666667;2,2917;;;-0,7912560117;;-2,1857426951;2,3245552705;19,9006536127;;7;1,5;18;-0,4635254916;-1,4265847744;;0,1074072939;0,5763207486;1,5;2,3245552705;;;;;-0,3106329131;-1,1909722222;0,7749972992
25/08/2006;38954;08:00;0,3333333333;2,3333;;;-0,9078206541;;-2,4351979477;2,5989088834;20,4450184419;;8;1,3;38;-0,8003599179;-1,0244139797;;0,0115478098;1,9903114043;1,3;2,5989088834;;;;;-0,0362793001;-1,3909722222;1,8351929132
25/08/2006;38954;09:00;0,375;2,375;;;-1,0077826175;;-2,7321783689;2,9121168321;20,2468398824;;9;1,1;39;-0,6922524302;-0,8548605576;;0,0995592991;3,5243221647;1,1;2,9121168321;;;;;0,2769286485;-1,5909722222;3,489053663
25/08/2006;38954;10:00;0,4166666667;2,4167;;;-1,0955001051;;-3,10055031;3,288393636;19,4595578457;;10;1;83;-0,9925461516;-0,1218693434;;0,0105995165;8,872540301;1;3,288393636;;;;;0,6532054525;-1,6909722222;5,4951689705
25/08/2006;38954;11:00;0,4583333333;2,4583;;;-0,647933385;;-2,5646988441;2,6452784036;14,1782632087;;11;3,7;64;-3,3255379713;-1,6219732431;;7,1695663208;0,8887315588;3,7;2,6452784036;;;;;0,01009022;1,0090277778;0,9978762443
25/08/2006;38954;12:00;0,5;2,5;;;0,1312649311;;-0,7900108108;0,8008417842;350,5661558282;;12;5,7;53;-4,5522224073;-3,430345632;;21,935053649;6,9713679678;5,7;0,8008417842;;;;;-1,8343463993;3,0090277778;23,4582734195
25/08/2006;38954;13:00;0,5416666667;2,5417;;;0,1817993354;;1,3082219302;1,3207935558;187,9115387208;;13;3,7;62;-3,2669060936;-1,7370447823;;11,8935691362;9,2736493505;3,7;1,3207935558;;;;;-1,3143946277;1,0090277778;5,3982916744
25/08/2006;38954;14:00;0,5833333333;2,5833;;;-0,3857563296;;1,2748090387;1,3318956532;163,1642213815;;14;3;237;2,5160117038;1,633917105;;8,42025772;0,1289586033;3;1,3318956532;;;;;-1,3032925304;0,3090277778;2,5995767761
25/08/2006;38954;15:00;0,625;2,625;;;-1,2636022303;;2,5987343362;2,889655818;154,0692388055;;15;2,4;202;0,8990558242;2,225241251;;4,6770898608;0,1394970847;2,4;2,889655818;;;;;0,2544676344;-0,2909722222;0,2975046372
25/08/2006;38954;16:00;0,6666666667;2,6667;;;-1,2523262441;;3,7801533053;3,9821953786;161,6704927925;;16;2,3;205;0,972022002;2,0845079102;;4,9477251202;2,8752133059;2,3;3,9821953786;;;;;1,347007195;-0,3909722222;3,0205724548
25/08/2006;38954;17:00;0,7083333333;2,7083;;;-1,3033103044;;3,660683194;3,8857713773;160,4027829499;;17;2,5;228;1,8578620637;1,6728265159;;9,9930107405;3,9515741728;2,5;3,8857713773;;;;;1,2505831937;-0,1909722222;2,0780820173
25/08/2006;38954;18:00;0,75;2,75;;;-1,1892360638;;3,5540109812;3,7477028258;161,4988310967;;18;2,7;216;1,5870201812;2,1843458848;;7,7075987379;1,8759824763;2,7;3,7477028258;;;;;1,1125146422;0,0090277778;1,2176832599
25/08/2006;38954;19:00;0,7916666667;2,7917;;;-0,7477431571;;3,2331642088;3,3185042761;166,977989008;;19;3;232;2,3640322608;1,846984426;;9,6831462516;1,9214943904;3;3,3185042761;;;;;0,6833160925;0,3090277778;0,1400917426
25/08/2006;38954;20:00;0,8333333333;2,8333;;;0,2174259175;;2,4008165665;2,410641868;185,1747794354;;20;3,1;229;2,3395996987;2,0337829899;;4,5036215574;0,1347136464;3,1;2,410641868;;;;;-0,2245463156;0,4090277778;0,4014161318
25/08/2006;38954;21:00;0,875;2,875;;;1,8778321768;;0,4322507487;1,9269391257;257,0371122501;;21;2,4;242;2,1190742229;1,1267317507;;0,0581977248;0,4823038621;2,4;1,9269391257;;;;;-0,7082490579;-0,2909722222;0,1741199576
25/08/2006;38954;22:00;0,9166666667;2,9167;;;0,7406178407;;-0,2962609718;0,7976749647;291,802332195;;22;1,4;47;-1,0238951823;-0,9547977041;;3,1135062082;0,4336706277;1,4;0,7976749647;;;;;-1,8375132188;-1,2909722222;0,298707061
25/08/2006;38954;23:00;0,9583333333;2,9583;;;0,0718480935;;-0,3760437624;0,3828460001;349,1832545627;;23;1,6;44;-1,1114533927;-1,1509436805;;1,4002024074;0,6004698831;1,6;0,3828460001;;;;;-2,2523421835;-1,0909722222;1,3487801869
26/08/2006;38955;00:00;0;3;;;-0,1333748549;;-0,5371381735;0,553449428;13,9448798924;;24;1,7;41;-1,1153003493;-1,2830062864;;0,9641776765;0,5563192418;1,7;0,553449428;;;;;-2,0817387555;-0,9909722222;1,1897716302
26/08/2006;38955;01:00;0,0416666667;3,0417;;;0,180699408;;-0,5518315445;0,5806636974;341,8687625248;;1;1,6;37;-0,962904037;-1,2778168161;;1,3078288394;0,5270546146;1,6;0,5806636974;;;;;-2,0545244861;-1,0909722222;0,9284329653
26/08/2006;38955;02:00;0,0833333333;3,0833;;;0,2656705357;;-0,6776452627;0,7278625801;338,5923586202;;2;1,7;33;-0,9258863595;-1,4257399655;;1,4198078346;0,5596456844;1,7;0,7278625801;;;;;-1,9073256034;-0,9909722222;0,8397035193
26/08/2006;38955;03:00;0,125;3,125;;;0,4571201784;;-1,1793436342;1,2648360625;338,8133909398;;3;1,7;36;-0,9992349289;-1,3753288904;;2,1209701984;0,0384102207;1,7;1,2648360625;;;;;-1,370352121;-0,9909722222;0,1439291076
26/08/2006;38955;04:00;0,1666666667;3,1667;;;-0,7399952402;;-2,5478886316;2,6531734649;16,1951300521;;4;1,2;32;-0,6359031171;-1,0176577154;;0,0108351701;2,341606657;1,2;2,6531734649;;;;;0,0179852813;-1,4909722222;2,2769527475
26/08/2006;38955;05:00;0,2083333333;3,2083;;;-1,328975279;;-3,9831210565;4,1989794764;18,4513663789;;5;1,6;29;-0,7756953924;-1,3993915314;;0,306118633;6,6756582587;1,6;4,1989794764;;;;;1,5637912928;-1,0909722222;7,0477693207
26/08/2006;38955;06:00;0,25;3,25;;;-1,3992599536;;-4,1990942396;4,4260954408;18,429568326;;6;1;37;-0,6018150232;-0,79863551;;0,6359184171;11,5631195715;1;4,4260954408;;;;;1,7909072572;-1,6909722222;12,1234847095
26/08/2006;38955;07:00;0,2916666667;3,2917;;;-1,5784305316;;-4,5338457557;4,8007499705;19,1952481239;;7;0,9;888;0;0;;2,4914429429;20,5557573364;0,9;4,8007499705;;;;;2,165561787;-1,7909722222;15,6541613658
26/08/2006;38955;08:00;0,3333333333;3,3333;;;-1,7790462366;;-4,9154306622;5,227472057;19,8967554221;;8;1,1;107;-1,0519352316;0,3216088752;;0,5286904136;27,4265831164;1,1;5,227472057;;;;;2,5922838735;-1,5909722222;17,4996315621
26/08/2006;38955;09:00;0,375;3,375;;;-1,9415449576;;-5,4247870195;5,7617628404;19,6924166663;;9;4,7;52;-3,703650542;-2,893608934;;3,1050160902;6,4068625003;4,7;5,7617628404;;;;;3,1265746569;2,0090277778;1,248911027
26/08/2006;38955;10:00;0,4166666667;3,4167;;;-2,0709766763;;-5,8740970209;6,2284797667;19,4206555241;;10;6,2;43;-4,2283898324;-4,53439295;;4,6544315261;1,7948069975;6,2;6,2284797667;;;;;3,5932915832;3,5090277778;0,0071003889
26/08/2006;38955;11:00;0,4583333333;3,4583;;;-2,0314069579;;-5,4669163175;5,8321341078;20,3841530674;;11;5,6;50;-4,2898488815;-3,5996106142;;5,100559922;3,4868305895;5,6;5,8321341078;;;;;3,1969459243;2,9090277778;0,0828968591
26/08/2006;38955;12:00;0,5;3,5;;;-1,9293004819;;-4,4161050902;4,8191476961;23,5994727758;;12;5,6;49;-4,2263736492;-3,6739305623;;5,2765451363;0,5508230298;5,6;4,8191476961;;;;;2,1839595126;2,9090277778;0,5257239892
26/08/2006;38955;13:00;0,5416666667;3,5417;;;-1,6208365409;;-2,1178792446;2,6669314928;37,4272320075;;13;5,6;50;-4,2898488815;-3,5996106142;;7,1236268739;2,1955278518;5,6;2,6669314928;;;;;0,0317433092;2,9090277778;8,2787659131
26/08/2006;38955;14:00;0,5833333333;3,5833;;;-0,4820103613;;-3,5497911336;3,5823666871;7,7326465709;;14;4,2;50;-3,2173866611;-2,6997079607;;7,4822835013;0,7226414009;4,2;3,5823666871;;;;;0,9471785036;1,5090277778;0,3156746069
26/08/2006;38955;15:00;0,625;3,625;;;-0,1084224119;;-2,1686557713;2,1713643807;2,8621317585;;15;4,5;15;-1,164685703;-4,3466662183;;1,1156921401;4,7437295072;4,5;2,1713643807;;;;;-0,4638238029;1,8090277778;5,1658543076
26/08/2006;38955;16:00;0,6666666667;3,6667;;;-0,3191034911;;0,7498876698;0,8149592354;156,9485467356;;16;4;219;2,5172815642;3,1085838458;;8,0450801818;5,5634476508;4;0,8149592354;;;;;-1,8202289482;1,3090277778;9,7922476568
26/08/2006;38955;17:00;0,7083333333;3,7083;;;-1,5783613537;;2,1017608103;2,6284259675;143,0945141687;;17;2,9;243;2,5839189201;1,3165724492;;17,3245770783;0,6165207624;2,9;2,6284259675;;;;;-0,006762216;0,2090277778;0,0465653214
26/08/2006;38955;18:00;0,75;3,75;;;-2,7851685862;;4,2551282814;5,0855954169;146,7934889673;;18;2,7;231;2,0982940959;1,6991650558;;23,8482077676;6,5329480103;2,7;5,0855954169;;;;;2,4504072333;0,0090277778;5,9603336461
26/08/2006;38955;19:00;0,7916666667;3,7917;;;-2,3609701368;;2,799004152;3,6617761032;139,8522474037;;19;2,2;227;1,6089781436;1,5003963921;;15,7604893488;1,6863821141;2,2;3,6617761032;;;;;1,0265879197;-0,4909722222;2,3029887842
26/08/2006;38955;20:00;0,8333333333;3,8333;;;0,3944589006;;2,5170353197;2,547756783;188,9067028923;;20;1,1;201;0,3942047445;1,0269384691;;6,45953E-008;2,2203886242;1,1;2,547756783;;;;;-0,0874314006;-1,5909722222;2,2606350023
26/08/2006;38955;21:00;0,875;3,875;;;1,5329115199;;1,0950158603;1,8838464539;234,4603655353;;21;2;36;-1,1755705046;-1,6180339887;;7,3358748768;7,3606394833;2;1,8838464539;;;;;-0,7513417296;-0,6909722222;0,0036444774
26/08/2006;38955;22:00;0,9166666667;3,9167;;;0,4477258291;;-0,7307254111;0,8569819394;328,5036072338;;22;2,3;42;-1,5390003946;-1,7092330986;;3,9470810882;0,9574772945;2,3;0,8569819394;;;;;-1,7782062441;-0,3909722222;1,9244182316
26/08/2006;38955;23:00;0,9583333333;3,9583;;;-0,6105566038;;-0,9861299569;1,1598412212;31,763478832;;23;2,4;44;-1,6671800891;-1,7264155208;;1,1164531897;0,5480227161;2,4;1,1598412212;;;;;-1,4753469624;-0,2909722222;1,4027435251
27/08/2006;38956;00:00;0;4;;;-1,1329944886;;-0,4636090587;1,2241772218;67,746154375;;24;5,2;18;-1,6068883707;-4,9454938847;;0,2245754116;20,0872915935;5,2;1,2241772218;;;;;-1,4110109617;2,5090277778;15,3667037191
27/08/2006;38956;01:00;0,0416666667;4,0417;;;-0,7072049491;;-0,8914255086;1,1378832442;38,4264310539;;1;5,7;24;-2,3183988655;-5,2072091086;;2,5959458363;18,6259880817;5,7;1,1378832442;;;;;-1,4973049394;3,0090277778;20,3070345575
27/08/2006;38956;02:00;0,0833333333;4,0833;;;-0,1920999142;;-2,1179484224;2,1266423999;5,1826003117;;2;4,8;14;-1,1612250989;-4,6574194861;;0,9392036235;6,4489132834;4,8;2,1266423999;;;;;-0,5085457837;2,1090277778;6,8516913495
27/08/2006;38956;03:00;0,125;4,125;;;0,0599716438;;-1,5886688503;1,5898004007;357,8381326753;;3;2,9;11;-0,5533460866;-2,846718832;;0,3761586384;1,5826897565;2,9;1,5898004007;;;;;-1,0453877829;0,2090277778;1,5735583988
27/08/2006;38956;04:00;0,1666666667;4,1667;;;-0,1054961897;;-1,897617036;1,9005472532;3,1820280952;;4;3,8;299;3,3235548871;-1,8422765569;;11,7583912876;0,0030625686;3,8;1,9005472532;;;;;-0,7346409304;1,1090277778;3,3991143055
27/08/2006;38956;05:00;0,2083333333;4,2083;;;-0,3835841458;;-1,8134276177;1,853552406;11,9434047272;;5;5,5;77;-5,3590353563;-1,2372307989;;24,7551147484;0,3320027741;5,5;1,853552406;;;;;-0,7816357776;2,8090277778;12,8928647677
27/08/2006;38956;06:00;0,25;4,25;;;-0,6819827126;;-0,8403030927;1,0822244258;39,0624849877;;6;9,2;71;-8,6987708955;-2,995227021;;64,2688927705;4,6436971367;9,2;1,0822244258;;;;;-1,5529637577;6,5090277778;64,9957075185
27/08/2006;38956;07:00;0,2916666667;4,2917;;;-0,4976307152;;-0,6816783301;0,8439915133;36,1297475914;;7;6,4;62;-5,6508645943;-3,0046180018;;26,5558194127;5,3960487185;6,4;0,8439915133;;;;;-1,7911966703;3,7090277778;30,2524689792
27/08/2006;38956;08:00;0,3333333333;4,3333;;;-1,0320640356;;-1,2435406598;1,6160289435;39,6906348783;;8;7,8;59;-6,6859049455;-4,0172969843;;31,9659170342;7,6937241476;7,8;1,6160289435;;;;;-1,0191592401;5,1090277778;37,5546761256
27/08/2006;38956;09:00;0,375;4,375;;;-1,6385460652;;-1,8317597425;2,4576771477;41,8132748757;;9;9,2;64;-8,268905226;-4,0330145505;;43,9616626001;4,8455227295;9,2;2,4576771477;;;;;-0,1775110359;6,5090277778;44,7098013065
27/08/2006;38956;10:00;0,4166666667;4,4167;;;-1,8240118256;;-1,8711911052;2,613116012;44,2685038465;;10;7,9;66;-7,2170091154;-3,2132194803;;29,0844197672;1,8010401595;7,9;2,613116012;;;;;-0,0220721715;5,2090277778;27,3644066795
27/08/2006;38956;11:00;0,4583333333;4,4583;;;-0,7570129862;;-1,6005674369;1,770560584;25,3125282915;;11;8;58;-6,7843847693;-4,2393541139;;36,3292106108;6,9631951263;8;1,770560584;;;;;-0,8646275996;5,3090277778;38,1140207184
27/08/2006;38956;12:00;0,5;4,5;;;0,9229014209;;-1,8041577886;2,0265074288;332,9083753638;;12;3,1;84;-3,0830178756;-0,3240382361;;16,0473894107;2,1907538897;3,1;2,0265074288;;;;;-0,6086807547;0,4090277778;1,0357306572
27/08/2006;38956;13:00;0,5416666667;4,5417;;;0,9040158735;;-0,1525924559;0,9168037725;279,5808741481;;13;3,8;76;-3,6871237598;-0,9193032033;;21,0785631332;0,5878453701;3,8;0,9168037725;;;;;-1,7183844111;1,1090277778;7,9942596858
27/08/2006;38956;14:00;0,5833333333;4,5833;;;0,953270488;;0,8994501368;1,3106239628;226,6639378709;;14;4,7;60;-4,0703193978;-2,35;;25,2364553406;10,5589261915;4,7;1,3106239628;;;;;-1,3245642207;2,0090277778;11,1128356126
27/08/2006;38956;15:00;0,625;4,625;;;2,1354504132;;0,6210785516;2,2239350338;253,7833533699;;15;4;82;-3,961072275;-0,5566924038;;37,1675888877;1,3871444235;4;2,2239350338;;;;;-0,4112531497;1,3090277778;2,9593664696
27/08/2006;38956;16:00;0,6666666667;4,6667;;;3,334025484;;0,1298744568;3,336554106;267,7692138748;;16;3;173;-0,3656080302;2,9776384549;;13,6872881395;8,1097597892;3;3,336554106;;;;;0,7013659225;0,3090277778;0,1539292198
27/08/2006;38956;17:00;0,7083333333;4,7083;;;-0,9327938505;;3,7155412127;3,8308420577;165,9070439572;;17;3,8;244;3,4154173759;1,6658103578;;18,90694087;4,2013965775;3,8;3,8308420577;;;;;1,1956538741;1,1090277778;0,0075040806
27/08/2006;38956;18:00;0,75;4,75;;;-1,001902502;;4,4374810395;4,5491808712;167,2769876725;;18;3,9;227;2,8522794363;2,6597936042;;14,8547184138;3,1601726173;3,9;4,5491808712;;;;;1,9139926877;1,2090277778;0,4969755242
27/08/2006;38956;19:00;0,7916666667;4,7917;;;-0,5012487157;;3,9839511904;4,0153601785;172,8288988159;;19;2,4;231;1,8651503075;1,5103689385;;5,5998443369;6,118609157;2,4;4,0153601785;;;;;1,3801719949;-0,2909722222;2,7927229944
27/08/2006;38956;20:00;0,8333333333;4,8333;;;-0,8208641227;;3,1195050353;3,2256983078;165,2574378364;;20;3,4;227;2,4866025855;2,3187944242;;10,9393360258;0,6411374827;3,4;3,2256983078;;;;;0,5905101243;0,7090277778;0,0140464342
27/08/2006;38956;21:00;0,875;4,875;;;-1,0484591811;;2,3601400029;2,5825428336;156,0474842624;;21;2,4;211;1,2360913798;2,0572015217;;5,2191712655;0,0917717234;2,4;2,5825428336;;;;;-0,0526453499;-0,2909722222;0,0567996981
27/08/2006;38956;22:00;0,9166666667;4,9167;;;-0,9083740768;;1,3509738288;1,6279661389;146,0837190077;;22;1,5;41;-0,9840885435;-1,1320643703;;0,0057326805;6,1654786981;1,5;1,6279661389;;;;;-1,0072220447;-1,1909722222;0,0337641278
27/08/2006;38956;23:00;0,9583333333;4,9583;;;-0,3903704908;;-0,1408045538;0,4149880028;70,165896474;;23;2;42;-1,3382612127;-1,486289651;;0,8984968206;1,8103301467;2;0,4149880028;;;;;-2,2202001807;-0,6909722222;2,3385381491
28/08/2006;38957;00:00;0;5;;;-0,3164470624;;-0,8552455039;0,9119120655;20,3048405848;;24;1,3;27;-0,5901876497;-1,1583084814;;0,0749339091;0,0918471684;1,3;0,9119120655;;;;;-1,7232761181;-1,3909722222;0,1104258792
28/08/2006;38957;01:00;0,0416666667;5,0417;;;-0,5561136521;;-1,3268307663;1,4386598891;22,7399857533;;1;1,3;29;-0,6302525063;-1,1370056193;;0,0054965697;0,0360335865;1,3;1,4386598891;;;;;-1,1965282944;-1,3909722222;0,037808441
28/08/2006;38957;02:00;0,0833333333;5,0833;;;-0,4497804107;;-1,5577463606;1,6213809367;16,1054331834;;2;1,5;35;-0,8603646545;-1,2287280664;;0,1685794213;0,1082530379;1,5;1,6213809367;;;;;-1,0138072469;-1,1909722222;0,0313874285
28/08/2006;38957;03:00;0,125;5,125;;;-0,2228909661;;-1,5267546931;1,5429388437;8,3059359637;;3;1,8;36;-1,0580134541;-1,4562305899;;0,6974295701;0,0049736491;1,8;1,5429388437;;;;;-1,0922493398;-0,8909722222;0,0405124781
28/08/2006;38957;04:00;0,1666666667;5,1667;;;-0,1246999551;;-1,6964479084;1,701024863;4,2040515449;;4;1,7;40;-1,0927389365;-1,3022755533;;0,9370994694;0,1553718455;1,7;1,701024863;;;;;-0,9341633205;-0,9909722222;0,0032272513
28/08/2006;38957;05:00;0,2083333333;5,2083;;;-0,1113763052;;-2,173221508;2,1760736211;2,9338077497;;5;1,9;35;-1,0897952291;-1,5563888841;;0,9573035906;0,3804824859;1,9;2,1760736211;;;;;-0,4591145625;-0,7909722222;0,1101295063
28/08/2006;38957;06:00;0,25;5,25;;;-0,1340043732;;-2,1234134709;2,1276376431;3,6110332317;;6;2,5;49;-1,8867739506;-1,6401475725;;3,0722011914;0,2335459286;2,5;2,1276376431;;;;;-0,5075505404;-0,1909722222;0,1002218315
28/08/2006;38957;07:00;0,2916666667;5,2917;;;-0,0016278927;;-1,8523747357;1,852375451;0,0503523149;;7;1,6;33;-0,871422456;-1,3418729087;;0,7565425824;0,2606121153;1,6;1,852375451;;;;;-0,7828127326;-1,0909722222;0,094962271
28/08/2006;38957;08:00;0,3333333333;5,3333;;;0,1660959682;;-1,5144410394;1,5235220814;353,7411138552;;8;1,2;84;-1,1934262744;-0,1254341559;;1,8483007282;1,9293401225;1,2;1,5235220814;;;;;-1,1116661021;-1,4909722222;0,1438731327
28/08/2006;38957;09:00;0,375;5,375;;;0,2708588729;;-1,0446544005;1,0791975471;345,4643861915;;9;1,2;38;-0,7387937704;-0,9456129043;;1,0193984601;0,009809218;1,2;1,0791975471;;;;;-1,5559906365;-1,4909722222;0,0042273942
28/08/2006;38957;10:00;0,4166666667;5,4167;;;0,2516827786;;-0,5685034013;0,6217236833;336,1204950439;;10;1,3;43;-0,8865978681;-0,9507598121;;1,2956828307;0,1461199636;1,3;0,6217236833;;;;;-2,0134645002;-1,3909722222;0,3874966362
28/08/2006;38957;11:00;0,4583333333;5,4583;;;0,161163589;;-0,3584725937;0,3930347349;335,7920728439;;11;1,1;36;-0,6465637775;-0,8899186938;;0,6524234986;0,2824349573;1,1;0,3930347349;;;;;-2,2421534486;-1,5909722222;0,4240369896
28/08/2006;38957;12:00;0,5;5,5;;;-0,6756806123;;0,8139463398;1,0578529831;140,3029445114;;12;1,1;81;-1,0864571747;-0,1720779115;;0,1687373842;0,9722438242;1,1;1,0578529831;;;;;-1,5773352005;-1,5909722222;0,0001859684
28/08/2006;38957;13:00;0,5416666667;5,5417;;;-0,8822248573;;3,2599360288;3,3772035193;164,85697696;;13;1,3;888;0;0;;0,7783206988;10,6271829118;1,3;3,3772035193;;;;;0,7420153357;-1,3909722222;4,5496359224
28/08/2006;38957;14:00;0,5833333333;5,5833;;;-0,6955830738;;3,9406458693;4,0015654036;169,9895529099;;14;2;258;1,9562952015;0,4158233816;;7,0324583868;12,4243735695;2;4,0015654036;;;;;1,3663772201;-0,6909722222;4,2326867278
28/08/2006;38957;15:00;0,625;5,625;;;-0,9869600909;;4,4583035661;4,5662414422;167,5174200421;;15;2,7;239;2,3143517119;1,3906028023;;10,8986596192;9,4107879763;2,7;4,5662414422;;;;;1,9310532586;0,0090277778;3,694181949
28/08/2006;38957;16:00;0,6666666667;5,6667;;;-1,1754696758;;4,8144310314;4,9558526123;166,2793561504;;16;2,4;249;2,2405930236;0,8600830789;;11,669484366;15,6368677294;2,4;4,9558526123;;;;;2,3206644287;-0,2909722222;6,8206459967
28/08/2006;38957;17:00;0,7083333333;5,7083;;;-1,2431947707;;4,6443227491;4,8078339235;165,0143630868;;17;3,3;234;2,6697560814;1,9396913326;;15,3111843711;7,3150310994;3,3;4,8078339235;;;;;2,1726457399;0,6090277778;2,4449011316
28/08/2006;38957;18:00;0,75;5,75;;;-1,5896373399;;4,4098099077;4,6875761641;160,1769064669;;18;4,1;182;0,1430879365;4,0975023908;;3,0023368834;0,0975359851;4,1;4,6875761641;;;;;2,0523879806;1,4090277778;0,4139123506
28/08/2006;38957;19:00;0,7916666667;5,7917;;;-1,7197608369;;4,4194948038;4,742310793;158,7374638196;;19;2,2;149;-1,1330837648;1,8857680615;;0,3441899869;6,4197712046;2,2;4,742310793;;;;;2,1071226094;-0,4909722222;6,7500967541
28/08/2006;38957;20:00;0,8333333333;5,8333;;;-1,7422436314;;3,6101142008;4,0085330751;154,2380109655;;20;2,8;164;-0,7717845963;2,6915327486;;0,9417907388;0,8437918843;2,8;4,0085330751;;;;;1,3733448915;0,1090277778;1,5984977641
28/08/2006;38957;21:00;0,875;5,875;;;-0,8865138827;;2,9745774829;3,1038714641;163,4043549257;;21;2,9;146;-1,6216594201;2,4042089604;;0,5404389611;0,3253202514;2,9;3,1038714641;;;;;0,4686832806;0,2090277778;0,0674209801
28/08/2006;38957;22:00;0,9166666667;5,9167;;;-0,3839092816;;2,27131567;2,303532333;170,4062540058;;22;2,4;169;-0,4579415889;2,3559052403;;0,0054807825;0,0071553954;2,4;2,303532333;;;;;-0,3316558505;-0,2909722222;0,0016551576
28/08/2006;38957;23:00;0,9583333333;5,9583;;;-0,2431669878;;2,291169707;2,3040375019;173,941749108;;23;1,6;228;1,1890317208;1,0706089702;;2,0511931409;1,4897685123;1,6;2,3040375019;;;;;-0,3311506816;-1,0909722222;0,5773287736
29/08/2006;38958;00:00;0;6;;;-0,3555117826;;2,5056209779;2,530716324;171,9244515168;;24;1,3;229;0,9811224543;0,8528767377;;1,7865910834;2,7315635236;1,3;2,530716324;;;;;-0,1044718596;-1,3909722222;1,6550831831
29/08/2006;38958;01:00;0,0416666667;6,0417;;;0,0706443993;;2,4011624556;2,4022014423;181,6852082044;;1;1,1;247;1,0125553388;0,4298042413;;0,8871962179;3,8862532091;1,1;2,4022014423;;;;;-0,2329867412;-1,5909722222;1,8441245666
29/08/2006;38958;02:00;0,0833333333;6,0833;;;0,6051538153;;2,1351737019;2,2192741781;195,8238621237;;2;1,3;211;0,6695494974;1,1143174909;;0,0041468039;1,0421474035;1,3;2,2192741781;;;;;-0,4159140055;-1,3909722222;0,9507385261
29/08/2006;38958;03:00;0,125;6,125;;;1,0087511071;;1,921967632;2,1706078352;207,6928844939;;3;1,4;217;0,8425410324;1,1180897141;;0,0276257889;0,6462197069;1,4;2,1706078352;;;;;-0,4645803483;-1,2909722222;0,6829235293
29/08/2006;38958;04:00;0,1666666667;6,1667;;;1,2404968353;;1,8701534378;2,2441716243;213,5568286024;;4;2,1;225;1,4849242405;1,4849242405;;0,0597447564;0,1484015345;2,1;2,2441716243;;;;;-0,3910165592;-0,5909722222;0,0399822672
29/08/2006;38958;05:00;0,2083333333;6,2083;;;1,3861853439;;2,2895786169;2,6765051935;211,1920759534;;5;1,9;213;1,0348141665;1,5934740791;;0,1234617043;0,4845615276;1,9;2,6765051935;;;;;0,0413170099;-0,7909722222;0,692705366
29/08/2006;38958;06:00;0,25;6,25;;;0,8699803815;;3,2025876083;3,3186493115;195,1976106133;;6;2,9;227;2,1209257347;1,9777952442;;1,5648642767;1,5001163352;2,9;3,3186493115;;;;;0,683461128;0,2090277778;0,2250870038
29/08/2006;38958;07:00;0,2916666667;6,2917;;;1,6804678298;;2,9605343835;3,404223254;209,5802470053;;7;5;234;4,0450849719;2,9389262615;;5,5914142286;0,0004669109;5;3,404223254;;;;;0,7690350704;2,3090277778;2,3715775387
29/08/2006;38958;08:00;0,3333333333;6,3333;;;1,0093045298;;3,7745499011;3,9071629848;194,9704941346;;8;5,3;234;4,2877900702;3,1152618372;;10,7484674388;0,4346607513;5,3;3,9071629848;;;;;1,2719748012;2,6090277778;1,7877106621
29/08/2006;38958;09:00;0,375;6,375;;;0,7979662612;;3,6610290832;3,7469833336;192,2960084571;;9;5,7;236;4,7255141636;3,1873995498;;15,4256325255;0,2243249349;5,7;3,7469833336;;;;;1,11179515;3,0090277778;3,5994916439
29/08/2006;38958;10:00;0,4166666667;6,4167;;;0,7580506537;;3,5484767549;3,6285435196;192,0586708509;;10;4,5;224;3,1259626671;3,2370291015;;5,6070073032;0,0969996408;4,5;3,6285435196;;;;;0,993355336;1,8090277778;0,6653215322
29/08/2006;38958;11:00;0,4583333333;6,4583;;;0,7983121503;;3,2997132807;3,3949094279;193,6004510027;;11;3,9;237;3,270815215;2,1240922366;;6,1132714047;1,3820848393;3,9;3,3949094279;;;;;0,7597212444;1,2090277778;0,201876361
29/08/2006;38958;12:00;0,5;6,5;;;0,3625955924;;3,029227968;3,0508519541;186,8257722264;;12;3,5;234;2,8315594803;2,057248383;;6,09578268;0,9447443136;3,5;3,0508519541;;;;;0,4156637705;0,8090277778;0,1547352422
29/08/2006;38958;13:00;0,5416666667;6,5417;;;0,3121857081;;3,5303521636;3,5441284282;185,0534668392;;13;1;176;-0,0697564737;0,9975640503;;0,1458798303;6,4150156271;1;3,5441284282;;;;;0,9089402446;-1,6909722222;6,7595448353
29/08/2006;38958;14:00;0,5833333333;6,5833;;;-0,088436937;;3,6879392588;3,6889994671;178,6263080913;;14;0,9;;0;-0,9;;0,0078210918;21,0491866423;0,9;3,6889994671;;;;;1,0538112836;-1,7909722222;8,0927931947
29/08/2006;38958;15:00;0,625;6,625;;;-0,3304486551;;3,670437268;3,6852823571;174,8555429601;;15;1,6;57;-1,3418729087;-0,871422456;;1,0229790208;20,6284897524;1,6;3,6852823571;;;;;1,0500941736;-1,0909722222;4,5841653112
29/08/2006;38958;16:00;0,6666666667;6,6667;;;-0,3077375737;;4,0470413708;4,0587247099;175,6515892706;;16;1,7;52;-1,3396182811;-1,0466245081;;1,0647777943;25,9454320852;1,7;4,0587247099;;;;;1,4235365264;-0,9909722222;5,8298524971
29/08/2006;38958;17:00;0,7083333333;6,7083;;;-0,5511674373;;4,1165650892;4,1532991318;172,3740140314;;17;1,7;49;-1,2830062864;-1,1153003493;;0,535588101;27,3724159669;1,7;4,1532991318;;;;;1,5181109482;-0,9909722222;6,2954983562
29/08/2006;38958;18:00;0,75;6,75;;;-0,4661548029;;4,1039747243;4,13036425;173,5197651;;18;1,6;51;-1,2434335383;-1,0069126257;;0,6041622326;26,1211695043;1,6;4,13036425;;;;;1,4951760665;-1,0909722222;6,6881629712
29/08/2006;38958;19:00;0,7916666667;6,7917;;;-0,5898447617;;4,005188784;4,0483890671;171,6222623109;;19;0,9;43;-0,6137985241;-0,6582183315;;0,0005737827;21,7473659249;0,9;4,0483890671;;;;;1,4132008836;-1,7909722222;10,2667252918
29/08/2006;38958;20:00;0,8333333333;6,8333;;;-0,8110408709;;3,5314590089;3,6233948206;167,0656462877;;20;1,2;49;-0,9056514963;-0,7872708348;;0,0089511704;18,6514274625;1,2;3,6233948206;;;;;0,988206637;-1,4909722222;6,146327816
29/08/2006;38958;21:00;0,875;6,875;;;-0,8360140673;;2,8191349004;2,9404831418;163,4822837846;;21;1,7;52;-1,3396182811;-1,0466245081;;0,2536172042;14,9440958039;1,7;2,9404831418;;;;;0,3052949583;-0,9909722222;1,6803086032
29/08/2006;38958;22:00;0,9166666667;6,9167;;;-0,7593650324;;1,6298296587;1,798048934;155,0183970921;;22;1,6;52;-1,2608172058;-0,9850583605;;0,2514542822;6,8376393533;1,6;1,798048934;;;;;-0,8371392496;-1,0909722222;0,064431178
29/08/2006;38958;23:00;0,9583333333;6,9583;;;-1,0227250286;;-0,075784312;1,025529008;85,7621062793;;23;2,3;52;-1,8124247333;-1,4160213932;;0,6236256235;1,7962354339;2,3;1,025529008;;;;;-1,6096591756;-0,3909722222;1,4851978903
;;;;;;;;;;;;;;;;;;Número de comparaões;167;167;;;;;;;;;
;;;;;;;;;;;;;;;;;;RMSVE;3,1229950529;;;;;;;;;;
