;;;;;Estatística;;;;;;;;;;;;;;;;;;;;;;;;
;;;;;;;;;;avalia a habilidade de uma simulação;;;;;;Testes de Hipóteses Nulas;;;;;;;;;;;;;
;;;;;σsimulacao;σobservado;correlaçãoU;correlaçãoV;RMSE;RMSVEUB;ME;F. Bias;obmédio;simmédio;#Pontos (n);tU;tV;;;;;;;;;;;;
;;;;;2,367634413;2,1101162167;0,5098698041;0,800595414;1,9349750707;0,611531126;0,405042756;-0,1981627963;1,8414685315;2,2465112875;152;7,2590442303;16,3637594474;;;;;;;;;;;;
;;;;;σsimulacao;σobservado;RMSE;correlaçãoU;correlaçãoV;n;α (pior correlação);obmédio;simmédio;;;;;;;;;;;;;;;;
;;;;;2,367634413;2,1101162167;1,9349750707;0,5098698041;0,800595414;152;<0,001;1,8414685315;2,2465112875;;;;;;;;;;;;;;;;
;;;;;;;;;;;;;;;;;;;;;;;;;;;;;
;;;;;;;;;;;;;;;;;;;;;;;;;;;;;
Variable;;U,V;;;m/s;;Simulação;;;;;;Medições CETESB;;360;;;;;;;;;;;;;;
        ;;;;;;;Sorocaba;;;;;;;;;;;;Comparação;RMSVE;Comparação (BIAS);;Vmodulo Fractional BIAS;;;;;;
z (agl)   ;;m    ;;;47,7;;10;;;;;;Hora (média);;;;;;Medidas CETESB;;Vmódulo;;(Calculando a partir do dia 24/08/2006);;;;Calculando;;
      Date;; Hour;;;U;V;U10m;;V10m;Vmodulo;DIR;;(N-1)h-->Nh;Vmódulo;DIR;U;V;;(Umedido-Ubrams)²;(Vmedido-Vbrams)²;;;Observado;Simulado;Fractional BIAS;;RMSVEUB;;
Simulação;#Dias em relação a uma data de referência;     ;#Fração de um dia;Tempo Corrido;  Ibirapuera;Ibirapuera;Simulação;;Simulação;Simulação;Simulação;;GMT;Observado;(⁰);Observado;Observado;;;;Medido;Simulado;1,8414685315;2,2465112875;-0,1981627963;;sim-Mean_sim;ob-mean_ob;diff²
24/08/2006;38953;00:00;0;1;;;-0,7483981204;;2,3312821884;2,4484640877;162,2021100788;;24;1,15;139;-0,7544678833;0,8679160173;;0,000036842;2,1414405509;1,15;2,4484640877;;;;;0,2019528002;-0,6914685315;0,798201676
24/08/2006;38953;01:00;0,0416666667;1,0417;;;-1,1715093648;;1,699177105;2,0638888114;145,415410913;;1;1,35;136;-0,9377888001;0,9711087305;;0,0546253023;0,530083558;1,35;2,0638888114;;;;;-0,182622476;-0,4914685315;0,095385886
24/08/2006;38953;02:00;0,0833333333;1,0833;;;-1,3676347121;;0,8692189601;1,6204833558;122,4385576461;;2;0,93;160;-0,3180787333;0,8739141373;;1,1015677526;2,20446889E-005;0,93;1,6204833558;;;;;-0,6260279317;-0,9114685315;0,081476336
24/08/2006;38953;03:00;0,125;1,125;;;-1,2491969264;;0,2424936212;1,2725156648;100,9856062092;;3;0,44;777;NaN;NaN;;NaN;NaN;0,44;1,2725156648;;;;;-0,9739956226;;
24/08/2006;38953;04:00;0,1666666667;1,1667;;;-0,9129480017;;0,1676955126;0,9282218694;100,4083904093;;4;0,24;777;NaN;NaN;;NaN;NaN;0,24;0,9282218694;;;;;-1,3182894181;;
24/08/2006;38953;05:00;0,2083333333;1,2083;;;-0,5562763039;;0,2934552318;0,6289350518;117,8132166161;;5;1,06;252;1,0081199073;0,327558014;;2,4473355057;0,0011629998;1,06;0,6289350518;;;;;-1,6175762356;-0,7814685315;0,699076093
24/08/2006;38953;06:00;0,25;1,25;;;-0,3999122133;;0,4121730263;0,5742964234;135,8649824371;;6;1,04;247;0,9573250476;0,4063603736;;1,8420929823;3,37869312E-005;1,04;0,5742964234;;;;;-1,672214864;-0,8014685315;0,7581991757
24/08/2006;38953;07:00;0,2916666667;1,2917;;;-0,4124649504;;0,4945671196;0,6439906608;140,1721688698;;7;1,31;243;1,1672185467;0,5947275547;;2,4953999511;0,0100321127;1,31;0,6439906608;;;;;-1,6025206267;-0,5314685315;1,1471525906
24/08/2006;38953;08:00;0,3333333333;1,3333;;;-0,4785112931;;0,5598925884;0,7365139294;139,4811979252;;8;1,21;245;1,0966324223;0,5113680967;;2,4810777241;0,0023546263;1,21;0,7365139294;;;;;-1,5099973581;-0,6314685315;0,7718128991
24/08/2006;38953;09:00;0,375;1,375;;;-0,5509382629;;0,6530163826;0,8543789355;139,8462714528;;9;1,17;250;1,0994403663;0,4001635677;;2,7237496198;0,063934546;1,17;0,8543789355;;;;;-1,3921323519;-0,6714685315;0,5193563421
24/08/2006;38953;10:00;0,4166666667;1,4167;;;-0,6388372111;;0,7631134791;0,9952161395;140,0657574595;;10;0,99;244;0,8898061058;0,4339874353;;2,3367503903;0,1083239527;0,99;0,9952161395;;;;;-1,251295148;-0,8514685315;0,1598613233
24/08/2006;38953;11:00;0,4583333333;1,4583;;;-0,6914431289;;0,8235834753;1,0753526591;139,9847130013;;11;1,07;257;1,0425759693;0,2406976281;;3,0068222332;0,3397559108;1,07;1,0753526591;;;;;-1,1711586284;-0,7714685315;0,1597521736
24/08/2006;38953;12:00;0,5;1,5;;;-0,4006569177;;0,7067542511;0,8124207882;150,4512260624;;12;1,41;273;1,408067644;-0,0737936983;;3,27148454;0,6092551014;1,41;0,8124207882;;;;;-1,4340904992;-0,4314685315;1,0052508102
24/08/2006;38953;13:00;0,5416666667;1,5417;;;0,3711487511;;0,0544593382;0,3751229331;261,6524530791;;13;1;61;-0,8746197071;-0,4848096202;;1,5519390514;0,2908110095;1;0,3751229331;;;;;-1,8713883544;-0,8414685315;1,0607348416
24/08/2006;38953;14:00;0,5833333333;1,5833;;;0,8155406679;;-0,7001412762;1,0748508677;310,6460744557;;14;2,49;57;-2,0882897142;-1,3561511972;;8,4322308882;0,4303490165;2,49;1,0748508677;;;;;-1,1716604198;0,6485314685;3,3130985103
24/08/2006;38953;15:00;0,625;1,625;;;-0,3044113227;;-1,1280782049;1,1684291548;15,1015369117;;15;1,84;54;-1,4885912696;-1,0815248642;;1,4022821467;0,0021672135;1,84;1,1684291548;;;;;-1,0780821326;-0,0014685315;1,1590968462
24/08/2006;38953;16:00;0,6666666667;1,6667;;;-0,4486277954;;-0,9405914286;1,0421032263;25,4994391266;;16;1,85;35;-1,0611164072;-1,5154312819;;0,3751422996;0,330440857;1,85;1,0421032263;;;;;-1,2044080611;0,0085314685;1,4712223026
24/08/2006;38953;17:00;0,7083333333;1,7083;;;-0,3682890862;;-0,6531355353;0,7498152296;29,4177165907;;17;1,58;24;-0,6426438961;-1,4434018231;;0,0752705617;0,6245208056;1,58;0,7498152296;;;;;-1,4966960579;-0,2614685315;1,525787042
24/08/2006;38953;18:00;0,75;1,75;;;-0,3487420855;;-0,3503685198;0,4943471876;44,8667054157;;18;1,57;316;1,0906136416;-1,1293634865;;2,0717449091;0,6068331581;1,57;0,4943471876;;;;;-1,7521640999;-0,2714685315;2,1924593663
24/08/2006;38953;19:00;0,7916666667;1,7917;;;-0,4225035656;;-0,0514721799;0,4256273584;83,0540772357;;19;1,32;55;-1,0812806985;-0,757120896;;0,4339873108;0,4979401105;1,32;0,4256273584;;;;;-1,8208839291;-0,5214685315;1,6884803755
24/08/2006;38953;20:00;0,8333333333;1,8333;;;-0,5646169931;;0,2472776022;0,616391565;113,651320732;;20;1,02;16;-0,2811501029;-0,9804869299;;0,0803534778;1,5074057462;1,02;0,616391565;;;;;-1,6301197224;-0,8214685315;0,6539167487
24/08/2006;38953;21:00;0,875;1,875;;;-0,9712136729;;0,7162268909;1,2067464348;126,4071240962;;21;0,94;232;0,7407301084;0,5787217868;;2,9307515104;0,0189076537;0,94;1,2067464348;;;;;-1,0397648527;-0,9014685315;0,0191258725
24/08/2006;38953;22:00;0,9166666667;1,9167;;;-2,227142727;;2,0123104055;3,0015925597;132,0990443753;;22;2,07;115;-1,8760571192;0,8748198018;;0,123261104;1,2938848735;2,07;3,0015925597;;;;;0,7550812723;0,2285314685;0,2772546958
24/08/2006;38953;23:00;0,9583333333;1,9583;;;-1,4475265987;;2,1297949696;2,5751426885;145,7978021918;;23;2,11;115;-1,9123094306;0,8917245323;;0,2160230809;1,5328184077;2,11;2,5751426885;;;;;0,3286314011;0,2685314685;0,0036120019
25/08/2006;38954;00:00;0;2;;;-0,6997242417;;1,79950368;1,930758273;158,7517830103;;24;2,21;120;-1,9139161424;1,105;;1,4742619716;0,4823353615;2,21;1,930758273;;;;;-0,3157530145;0,3685314685;0,4682452537
25/08/2006;38954;01:00;0,0416666667;2,0417;;;-0,4430216608;;1,8307812642;1,8836210419;166,3967756539;;1;1,4;126;-1,1326237921;0,8228993532;;0,4755510995;1,0158259465;1,4;1,8836210419;;;;;-0,3628902456;-0,4414685315;0,006174547
25/08/2006;38954;02:00;0,0833333333;2,0833;;;-0,1924256559;;2,1010791684;2,1098723433;174,7672095581;;2;0,98;152;-0,4600821315;0,865288641;;0,071639989;1,5271782276;0,98;2,1098723433;;;;;-0,1366389442;-0,8614685315;0,5253779306
25/08/2006;38954;03:00;0,125;2,125;;;-0,0191871596;;2,3391462667;2,339224958;179,5300342583;;3;0,94;253;0,8989264706;0,2748294024;;0,8429326379;4,2614041163;0,94;2,339224958;;;;;0,0927136706;-0,9014685315;0,9883982509
25/08/2006;38954;04:00;0,1666666667;2,1667;;;0,0323481713;;2,3964587163;2,3966770294;180,7733499106;;4;0,94;183;0,0491957989;0,9387117627;;0,0002838426;2,125026181;0,94;2,3966770294;;;;;0,150165742;-0,9014685315;1,1059346451
25/08/2006;38954;05:00;0,2083333333;2,2083;;;-0,2549152904;;2,24733911;2,2617504019;173,5286092936;;5;1,43;248;1,325872912;0,5356874286;;2,4988913409;2,9297514783;1,43;2,2617504019;;;;;0,0152391144;-0,4114685315;0,1820794151
25/08/2006;38954;06:00;0,25;2,25;;;-0,9038923964;;2,0640822545;2,2533213303;156,3506718822;;6;1,31;240;1,134493279;0,655;;4,1550161614;1,9855127999;1,31;2,2533213303;;;;;0,0068100428;-0,5314685315;0,2897438236
25/08/2006;38954;07:00;0,2916666667;2,2917;;;-1,5246779731;;1,7737666964;2,3389936329;139,3186097498;;7;1,38;280;1,3590346992;-0,2396344852;;8,3157987763;4,0537843179;1,38;2,3389936329;;;;;0,0924823455;-0,4614685315;0,3068615741
25/08/2006;38954;08:00;0,3333333333;2,3333;;;-1,8049251279;;1,4113041773;2,2911861989;128,0225063647;;8;1,24;116;-1,1145046174;0,543580222;;0,4766804813;0,7529448626;1,24;2,2911861989;;;;;0,0446749115;-0,6014685315;0,4175013489
25/08/2006;38954;09:00;0,375;2,375;;;-1,8707569957;;1,0430627522;2,1418944049;119,1423705974;;9;1,23;258;1,2031215489;0,2557313797;;9,448729307;0,6198906901;1,23;2,1418944049;;;;;-0,1046168825;-0,6114685315;0,2568985941
25/08/2006;38954;10:00;0,4166666667;2,4167;;;-1,8939321962;;0,6707701352;2,0092067435;109,5025152335;;10;0,53;888;NaN;NaN;;NaN;NaN;0,53;2,0092067435;;;;;-0,237304544;;
25/08/2006;38954;11:00;0,4583333333;2,4583;;;-1,809869965;;0,3711070476;1,8475252992;101,5876692075;;11;0,99;252;0,9415459511;0,3059268244;;7,5702895438;0,0042484615;0,99;1,8475252992;;;;;-0,3989859883;-0,8514685315;0,2047404519
25/08/2006;38954;12:00;0,5;2,5;;;-0,9832480958;;0,2565238519;1,0161600782;104,6222024167;;12;1,58;49;-1,1924411368;-1,0365732658;;0,0437617284;1,6721001557;1,58;1,0161600782;;;;;-1,2303512093;-0,2614685315;0,9387336433
25/08/2006;38954;13:00;0,5416666667;2,5417;;;0,0904190278;;-0,1376094554;0,1646571067;326,6922896489;;13;1,9;44;-1,3198509039;-1,3667456206;;1,9888612802;1,5107757127;1,9;0,1646571067;;;;;-2,0818541807;0,0585314685;4,5812507274
25/08/2006;38954;14:00;0,5833333333;2,5833;;;-1,2149405246;;-1,7971802023;2,1693172101;34,0597154034;;14;1,98;24;-0,8053385533;-1,8088200061;;0,1677737749;0,000135485;1,98;2,1693172101;;;;;-0,0771940774;0,1385314685;0,0465375112
25/08/2006;38954;15:00;0,625;2,625;;;-1,2243535881;;-2,6713439996;2,9385575496;24,6233447896;;15;2,16;357;0,1130456655;-2,1570397951;;1,7886367634;0,2645088148;2,16;2,9385575496;;;;;0,6920462622;0,3185314685;0,1395133011
25/08/2006;38954;16:00;0,6666666667;2,6667;;;-0,7471470171;;-2,8005651047;2,8985157531;14,937713551;;16;2,58;342;0,7972638455;-2,453725812;;2,3852049124;0,120297495;2,58;2,8985157531;;;;;0,6520044657;0,7385314685;0,0074869222
25/08/2006;38954;17:00;0,7083333333;2,7083;;;-0,3447087665;;-2,3798964908;2,4047310537;8,2415159713;;17;2,49;1;-0,043456492;-2,4896207609;;0,0907529329;0,0120394155;2,49;2,4047310537;;;;;0,1582197662;0,6485314685;0,2404055654
25/08/2006;38954;18:00;0,75;2,75;;;-0,0120487212;;-1,8987578806;1,8987961083;0,3635701084;;18;2,1;359;0,0366500535;-2,0996801598;;0,0023715707;0,0403697623;2,1;1,8987961083;;;;;-0,3477151791;0,2585314685;0,3675349978
25/08/2006;38954;19:00;0,7916666667;2,7917;;;0,4092001664;;-1,4102913793;1,4684572009;343,8197591649;;19;1,78;54;-1,44005025;-1,0462577491;;3,4197271025;0,1325204839;1,78;1,4684572009;;;;;-0,7780540866;-0,0614685315;0,5134948578
25/08/2006;38954;20:00;0,8333333333;2,8333;;;0,8655848027;;-0,694838981;1,1099721889;308,7553835791;;20;1,34;341;0,436261327;-1,2669948913;;0,1843186468;0,3273623858;1,34;1,1099721889;;;;;-1,1365390985;-0,5014685315;0,4033146252
25/08/2006;38954;21:00;0,875;2,875;;;0,9534599204;;-0,0994388873;0,9586312701;275,9540053123;;21;0,46;777;NaN;NaN;;NaN;NaN;0,46;0,9586312701;;;;;-1,2878800173;;
25/08/2006;38954;22:00;0,9166666667;2,9167;;;0,677025652;;0,6593314758;0,9450300146;225,7585864291;;22;0,72;139;-0,4723625009;0,5433908978;;1,321093126;0,0134422176;0,72;0,9450300146;;;;;-1,3014812729;-1,1214685315;0,0324045871
25/08/2006;38954;23:00;0,9583333333;2,9583;;;-0,5101939965;;2,2776038962;2,3340474336;167,3739062423;;23;1,4;169;-0,2671325935;1,3742780568;;0,0590788456;0,8159975721;1,4;2,3340474336;;;;;0,0875361461;-0,4414685315;0,2798459489
26/08/2006;38955;00:00;0;3;;;-2,368040797;;1,9153201062;3,0456638562;128,9666444753;;24;1,62;130;-1,2409919979;1,0413159277;;1,2702389956;0,763883304;1,62;3,0456638562;;;;;0,7991525688;-0,2214685315;1,0416674303
26/08/2006;38955;01:00;0,0416666667;3,0417;;;-1,4240535164;;1,5925354368;2,1363748583;138,1967511253;;1;0,83;79;-0,8147505623;-0,1583714662;;0,3712500899;3,065674983;0,83;2,1363748583;;;;;-0,1101364292;-1,0114685315;0,8123995586
26/08/2006;38955;02:00;0,0833333333;3,0833;;;-0,9312975178;;1,6842830173;1,924610181;151,0602977308;;2;0,61;47;-0,446125758;-0,4160189996;;0,2353916365;4,4112685622;0,61;1,924610181;;;;;-0,3219011064;-1,2314685315;0,8273129007
26/08/2006;38955;03:00;0,125;3,125;;;-1,5882459396;;1,3552428311;2,0878717144;130,4739712942;;3;0,24;777;NaN;NaN;;NaN;NaN;0,24;2,0878717144;;;;;-0,1586395731;;
26/08/2006;38955;04:00;0,1666666667;3,1667;;;-2,1366462499;;0,7272485159;2,2570218433;108,7969913093;;4;0,7;52;-0,5516075275;-0,4309630327;;2,5123477515;1,3414539913;0,7;2,2570218433;;;;;0,0105105558;-1,1414685315;1,3270558176
26/08/2006;38955;05:00;0,2083333333;3,2083;;;-2,5968139845;;0,1091081291;2,5991051256;92,4059330261;;5;0,38;777;NaN;NaN;;NaN;NaN;0,38;2,5991051256;;;;;0,3525938382;;
26/08/2006;38955;06:00;0,25;3,25;;;-2,5529062139;;-0,2691778688;2,5670580169;83,9809854432;;6;0,33;777;NaN;NaN;;NaN;NaN;0,33;2,5670580169;;;;;0,3205467294;;
26/08/2006;38955;07:00;0,2916666667;3,2917;;;-2,4316683397;;-0,3934481792;2,463292996;80,8090958992;;7;0,85;266;0,8479294427;0,0592930027;;10,7557616148;0,2049745778;0,85;2,463292996;;;;;0,2167817086;-0,9914685315;1,4598686426
26/08/2006;38955;08:00;0,3333333333;3,3333;;;-2,3962799873;;-0,4177374575;2,4324190348;80,111146184;;8;1,11;53;-0,8864854162;-0,6680146757;;2,2794796471;0,062638686;1,11;2,4324190348;;;;;0,1859077474;-0,7314685315;0,841579237
26/08/2006;38955;09:00;0,375;3,375;;;-2,3620831619;;-0,3876156545;2,3936755752;80,680873454;;9;1,34;69;-1,2509977715;-0,4802130524;;1,2345107447;0,0085742781;1,34;2,3936755752;;;;;0,1471642877;-0,5014685315;0,4207245341
26/08/2006;38955;10:00;0,4166666667;3,4167;;;-2,2890425556;;-0,3270503361;2,3122884214;81,8688120383;;10;1,21;251;1,1440774765;0,3939374669;;11,7863131547;0,5198234121;1,21;2,3122884214;;;;;0,065777134;-0,6314685315;0,4861515179
26/08/2006;38955;11:00;0,4583333333;3,4583;;;-2,093036361;;-0,2924603067;2,1133703508;82,0455536257;;11;0,26;777;NaN;NaN;;NaN;NaN;0,26;2,1133703508;;;;;-0,1331409366;;
26/08/2006;38955;12:00;0,5;3,5;;;-0,8785724472;;-0,1412912739;0,8898610954;80,863966633;;12;0,81;56;-0,6715204338;-0,4529462518;;0,0428705363;0,0971288253;0,81;0,8898610954;;;;;-1,356650192;-1,0314685315;0,1057431124
26/08/2006;38955;13:00;0,5416666667;3,5417;;;-1,4799361336;;-2,3608320585;2,7863486802;32,0823885564;;13;1,67;32;-0,8849651713;-1,4162403206;;0,353990446;0,8922535513;1,67;2,7863486802;;;;;0,5398373928;-0,1714685315;0,5059561179
26/08/2006;38955;14:00;0,5833333333;3,5833;;;-1,1825309897;;-3,5597465447;3,7510231943;18,3762435616;;14;3,6;17;-1,052538137;-3,4426971215;;0,0168981418;0,0137005675;3,6;3,7510231943;;;;;1,5045119068;1,7585314685;0,0645259377
26/08/2006;38955;15:00;0,625;3,625;;;-0,7116990883;;-3,822418676;3,888110097;10,5471725657;;15;3,53;358;0,1231952234;-3,5278496194;;0,6970485116;0,0867709291;3,53;3,888110097;;;;;1,6415988096;1,6885314685;0,0022026745
26/08/2006;38955;16:00;0,6666666667;3,6667;;;-0,1846628574;;-3,7359733908;3,7405343933;2,8297306568;;16;4,13;1;-0,0720784386;-4,129370981;;0,0126752514;0,154761664;4,13;3,7405343933;;;;;1,4940231058;2,2885314685;0,6312435384
26/08/2006;38955;17:00;0,7083333333;3,7083;;;0,1410946719;;-3,534664901;3,5374798471;357,7141144098;;17;3,72;346;0,8999494516;-3,6095001017;;0,5758605767;0,0056003073;3,72;3,5374798471;;;;;1,2909685596;1,8785314685;0,3452301719
26/08/2006;38955;18:00;0,75;3,75;;;0,3056981719;;-3,4069332046;3,4206205917;354,8726805462;;18;3,88;345;1,004217895;-3,747792206;;0,4879298035;0,1161848589;3,88;3,4206205917;;;;;1,1741093043;2,0385314685;0,747225678
26/08/2006;38955;19:00;0,7916666667;3,7917;;;0,5315342454;;-3,2312425456;3,2746689974;350,6585947341;;19;3,45;330;1,725;-2,9877876431;;1,4243605074;0,0592702896;3,45;3,2746689974;;;;;1,02815771;1,6085314685;0,3368336996
26/08/2006;38955;20:00;0,8333333333;3,8333;;;0,9290931928;;-2,9640426117;3,106245767;342,5961533584;;20;3,33;337;1,3011346579;-3,065281162;;0,1384148517;0,0102492441;3,33;3,106245767;;;;;0,8597344795;1,4885314685;0,3953856534
26/08/2006;38955;21:00;0,875;3,875;;;1,9152605298;;-2,2976811265;2,9912474749;320,1866850897;;21;2,6;351;0,4067296091;-2,5679896855;;2,2756655388;0,0730667171;2,6;2,9912474749;;;;;0,7447361875;0,7585314685;0,0001903098
26/08/2006;38955;22:00;0,9166666667;3,9167;;;2,8271361573;;-1,0967410444;3,0324148413;291,2029453029;;22;1,84;4;-0,1283519117;-1,8355178525;;8,7349097257;0,5457911722;1,84;3,0324148413;;;;;0,7859035539;-0,0014685315;0,6199548008
26/08/2006;38955;23:00;0,9583333333;3,9583;;;2,4231489216;;-0,285614984;2,4399234855;276,7223988539;;23;1,96;357;0,1025784742;-1,9573138881;;5,385047201;2,794577226;1,96;2,4399234855;;;;;0,1934121981;0,1185314685;0,0056071237
27/08/2006;38956;00:00;0;4;;;0,4974208269;;0,5331666374;0,7291736023;223,0134986756;;24;1,84;13;-0,41390994;-1,7928409192;;0,8305237666;5,4103111535;1,84;0,7291736023;;;;;-1,5173376852;-0,0014685315;2,2978592912
27/08/2006;38956;01:00;0,0416666667;4,0417;;;-1,4612291594;;-0,4111959742;1,5179831308;74,2831768857;;1;1,69;11;-0,3224672022;-1,65894994;;1,2967787951;1,5568899594;1,69;1,5179831308;;;;;-0,7285281567;-0,1514685315;0,332997811
27/08/2006;38956;02:00;0,0833333333;4,0833;;;-1,5553002175;;-1,9542830397;2,4976350746;38,5142420824;;2;5,55;240;4,806440991;2,775;;40,471751204;22,3661180697;5,55;2,4976350746;;;;;0,2511237871;3,7085314685;11,9536678753
27/08/2006;38956;03:00;0,125;4,125;;;-1,2091616186;;-2,0544308856;2,3838536204;30,479484297;;3;2,73;239;2,3400667309;1,4060539445;;12,5970218768;11,9749552596;2,73;2,3838536204;;;;;0,137342333;0,8885314685;0,5642851174
27/08/2006;38956;04:00;0,1666666667;4,1667;;;-1,3162798976;;-1,6668271465;2,1238892402;38,2978646662;;4;2,54;359;0,0443291124;-2,5396131457;;1,8512568778;0,7617554005;2,54;2,1238892402;;;;;-0,1226220472;0,6985314685;0,6742930964
27/08/2006;38956;05:00;0,2083333333;4,2083;;;-1,3127053165;;-1,6269705677;2,0905091428;38,8979857138;;5;3,08;1;-0,0537534118;-3,0795309011;;1,5849598983;2,1099315222;3,08;2,0905091428;;;;;-0,1560021447;1,2385314685;1,9447239984
27/08/2006;38956;06:00;0,25;4,25;;;-1,1589387547;;-1,7168117049;2,0713718805;34,0214329624;;6;1,6;353;0,1949909494;-1,5880738426;;1,8331256439;0,0165734372;1,6;2,0713718805;;;;;-0,175139407;-0,2414685315;0,0043995528
27/08/2006;38956;07:00;0,2916666667;4,2917;;;-1,0067807544;;-1,8811232808;2,1335960923;28,1557742441;;7;1,89;348;0,3929530956;-1,8486989654;;1,9592548511;0,0010513362;1,89;2,1335960923;;;;;-0,1129151952;0,0485314685;0,0260650252
27/08/2006;38956;08:00;0,3333333333;4,3333;;;-0,8534908035;;-2,0653929342;2,2347918302;22,452083116;;8;2,43;340;0,8311089483;-2,2834530685;;2,8378763237;0,0475502222;2,43;2,2347918302;;;;;-0,0117194573;0,5885314685;0,3603011739
27/08/2006;38956;09:00;0,375;4,375;;;-0,6388372111;;-1,8645014789;1,9709081021;18,9130826177;;9;2,56;329;1,3184974718;-2,1943482898;;3,8311590607;0,1087989187;2,56;1,9709081021;;;;;-0,2756031854;0,7185314685;0,9883037101
27/08/2006;38956;10:00;0,4166666667;4,4167;;;-0,4421518461;;-1,184616162;1,2644420533;20,467828327;;10;1,44;343;0,4210152548;-1,3770788486;;0,7450574441;0,0370418857;1,44;1,2644420533;;;;;-0,9820692341;-0,4014685315;0,3370971759
27/08/2006;38956;11:00;0,4583333333;4,4583;;;-0,4548833123;;-0,6976986458;0,8328878845;33,1034166033;;11;2,41;307;1,9247115792;-1,4503742058;;5,6624718477;0,5665204986;2,41;0,8328878845;;;;;-1,413623403;0,5685314685;3,9289379345
27/08/2006;38956;12:00;0,5;4,5;;;-0,4914453189;;-0,6877493952;0,8452915071;35,5484747647;;12;2,4;311;1,8113029925;-1,5745416696;;5,3026497856;0,7864005379;2,4;0,8452915071;;;;;-1,4012197803;0,5585314685;3,8406249574
27/08/2006;38956;13:00;0,5416666667;4,5417;;;1,8596757944;;-2,3521934876;2,9985343526;321,6696295138;;13;2,96;302;2,5102223646;-1,5685610221;;0,42321084;0,6140798409;2,96;2,9985343526;;;;;0,7520230651;1,1185314685;0,1343284098
27/08/2006;38956;14:00;0,5833333333;4,5833;;;3,0245721843;;-2,303877067;3,8020897461;307,2972490616;;14;3,77;327;2,053289162;-3,1617880412;;0,9433907093;0,7360112396;3,77;3,8020897461;;;;;1,5555784587;1,9285314685;0,1390939476
27/08/2006;38956;15:00;0,625;4,625;;;3,5994243944;;-2,1622640808;4,1989572427;300,9942888486;;15;4,26;315;3,0122748879;-3,0122748879;;0,3447445431;0,7225183721;4,26;4,1989572427;;;;;1,9524459553;2,4185314685;0,2172357057
27/08/2006;38956;16:00;0,6666666667;4,6667;;;3,98267906;;-1,8211894717;4,3793222748;294,5735513496;;16;3,91;306;3,163256448;-2,2982403365;;0,671453417;0,2275775276;3,91;4,3793222748;;;;;2,1328109874;2,0685314685;0,0041318565
27/08/2006;38956;17:00;0,7083333333;4,7083;;;4,2176481881;;-1,3238460941;4,4205344382;287,426162033;;17;3,01;305;2,4656476533;-1,7264650734;;3,0695058738;0,1621020425;3,01;4,4205344382;;;;;2,1740231507;1,1685314685;1,011013523
27/08/2006;38956;18:00;0,75;4,75;;;4,2937867646;;-0,871065827;4,3812510148;281,4677708459;;18;3,26;245;2,9545633857;1,3777355333;;1,7935192584;5,057107558;3,26;4,3812510148;;;;;2,1347397273;1,4185314685;0,51295427
27/08/2006;38956;19:00;0,7916666667;4,7917;;;4,226286759;;-0,5350730806;4,2600238228;277,2155973321;;19;3,1;246;2,8319909187;1,2608835935;;1,9440608902;3,2254603755;3,1;4,2600238228;;;;;2,0135125353;1,2585314685;0,5699964112
27/08/2006;38956;20:00;0,8333333333;4,8333;;;4,0192589395;;-0,2547067732;4,0273214377;273,6260749772;;20;2,06;239;1,7657646394;1,0609784343;;5,0782365602;1,7310275651;2,06;4,0273214377;;;;;1,7808101503;0,2185314685;2,4407146794
27/08/2006;38956;21:00;0,875;4,875;;;3,5699936771;;0,0590473129;3,5704819618;269,0524203483;;21;1,29;239;1,1057458179;0,6643991166;;6,0725175113;0,3664508062;1,29;3,5704819618;;;;;1,3239706743;-0,5514685315;3,5172722147
27/08/2006;38956;22:00;0,9166666667;4,9167;;;2,891776498;;0,3320726225;2,9107805725;263,4492228021;;22;1,06;237;0,888990802;0,5773173771;;4,0111505441;0,0601449897;1,06;2,9107805725;;;;;0,664269285;-0,7814685315;2,090157834
27/08/2006;38956;23:00;0,9583333333;4,9583;;;2,2058739697;;0,6689828446;2,3050852515;253,1288463908;;23;0,76;192;0,158012885;0,7433921766;;4,1937350222;0,0055367487;0,76;2,3050852515;;;;;0,058573964;-1,0814685315;1,2996968916
28/08/2006;38957;00:00;0;5;;;1,5430870656;;1,1119925902;1,902010834;234,2224020191;;24;0,24;777;NaN;NaN;;NaN;NaN;0,24;1,902010834;;;;;-0,3445004535;;
28/08/2006;38957;01:00;0,0416666667;5,0417;;;0,6253729558;;1,6285195528;1,7444676173;201,0074470403;;1;0,75;157;-0,2930483464;0,6903786401;;0,8434976882;0,8801083721;0,75;1,7444676173;;;;;-0,5020436702;-1,0914685315;0,3474216671
28/08/2006;38957;02:00;0,0833333333;5,0833;;;0,0316767458;;1,9489211681;1,9491785798;180,9311736546;;2;0,77;214;0,4305785357;0,6383589309;;0,159122638;1,7175733777;0,77;1,9491785798;;;;;-0,2973327077;-1,0714685315;0,5992862737
28/08/2006;38957;03:00;0,125;5,125;;;-0,3581908947;;1,881838197;1,9156241063;169,2231790154;;3;1,05;174;-0,1097548864;1,0442479901;;0,0617204502;0,7015573546;1,05;1,9156241063;;;;;-0,3308871811;-0,7914685315;0,2121351803
28/08/2006;38957;04:00;0,1666666667;5,1667;;;-0,8841130479;;1,3976611929;1,6538176114;147,6839431645;;4;1,47;85;-1,4644062062;-0,1281189418;;0,3367401496;2,3280050196;1,47;1,6538176114;;;;;-0,5926936761;-0,3714685315;0,0489405646
28/08/2006;38957;05:00;0,2083333333;5,2083;;;-1,6241109028;;0,3848810999;1,6690924737;103,3319887265;;5;0,68;888;NaN;NaN;;NaN;NaN;0,68;1,6690924737;;;;;-0,5774188137;;
28/08/2006;38957;06:00;0,25;5,25;;;-1,4690336613;;0,0229785986;1,4692133658;90,8961464876;;6;1,46;251;1,3804571204;0,4753295055;;8,1195977151;0,204621343;1,46;1,4692133658;;;;;-0,7772979217;-0,3814685315;0,1566809062
28/08/2006;38957;07:00;0,2916666667;5,2917;;;-1,0136916112;;0,163852838;1,0268487888;99,1818579286;;7;1,26;165;-0,3261119968;1,2170665411;;0,472765726;1,1092591045;1,26;1,0268487888;;;;;-1,2196624987;-0,5814685315;0,4072915398
28/08/2006;38957;08:00;0,3333333333;5,3333;;;-0,7872419013;;0,159199925;0,8031777059;101,432454982;;8;1,34;115;-1,2144524346;0,5663084707;;0,1825088398;0,165737368;1,34;0,8031777059;;;;;-1,4433335816;-0,5014685315;0,8871097726
28/08/2006;38957;09:00;0,375;5,375;;;-0,7047882316;;0,0723137748;0,7084883438;95,8582502367;;9;0,82;254;0,7882345907;0,2260226318;;2,2291171477;0,0236264127;0,82;0,7084883438;;;;;-1,5380229436;-1,0214685315;0,2668284607
28/08/2006;38957;10:00;0,4166666667;5,4167;;;-0,69501771;;-0,035114897;0,6959042127;87,1076620593;;10;0,48;888;NaN;NaN;;NaN;NaN;0,48;0,6959042127;;;;;-1,5506070748;;
28/08/2006;38957;11:00;0,4583333333;5,4583;;;-0,6760128541;;-0,0764483735;0,6803217861;83,5479941305;;11;1,07;23;-0,4180823075;-0,9849401932;;0,0665281669;0,8253573864;1,07;0,6803217861;;;;;-1,5661895013;-0,7714685315;0,6315814199
28/08/2006;38957;12:00;0,5;5,5;;;-0,403492752;;-0,1021079079;0,4162119962;75,7988595879;;12;1,53;81;-1,5111631611;-0,2393447315;;1,2269337353;0,0188339458;1,53;0,4162119962;;;;;-1,8302992913;-0,3114685315;2,306846877
28/08/2006;38957;13:00;0,5416666667;5,5417;;;0,1061590997;;-0,5304499558;0,5409684927;348,682890147;;13;1,29;90;-1,29;0;;1,9492602318;0,2813771556;1,29;0,5409684927;;;;;-1,7055427948;-0,5514685315;1,3318874052
28/08/2006;38957;14:00;0,5833333333;5,5833;;;0,3118821971;;-0,6231686308;0,6968569776;333,4130425806;;14;1,6;66;-1,4616727322;-0,6507786289;;3,1454970875;0,000762312;1,6;0,6968569776;;;;;-1,5496543098;-0,2414685315;1,7113500307
28/08/2006;38957;15:00;0,625;5,625;;;0,6193557443;;-0,7614453413;0,9815296969;320,8752701823;;15;1,41;59;-1,208605894;-0,7262036856;;3,3414437511;0,0012419743;1,41;0,9815296969;;;;;-1,2649815906;-0,4314685315;0,6947440197
28/08/2006;38957;16:00;0,6666666667;5,6667;;;1,1333805002;;-0,8431840948;1,4126254903;306,6475879473;;16;1,49;196;0,4106996602;1,4322799269;;0,5222675965;5,1777365142;1,49;1,4126254903;;;;;-0,8338857971;-0,3514685315;0,2327264182
28/08/2006;38957;17:00;0,7083333333;5,7083;;;1,6113019874;;-0,8156002443;1,8059617529;296,8473773916;;17;1,71;239;1,4657560842;0,8807151081;;0,0211836099;2,8774857748;1,71;1,8059617529;;;;;-0,4405495345;-0,1314685315;0,0955310665
28/08/2006;38957;18:00;0,75;5,75;;;2,1570213619;;-0,3614914246;2,1871024681;279,513689973;;18;1,81;319;1,1874668425;-1,3660243402;;0,9400359662;1,0090863786;1,81;2,1871024681;;;;;-0,0594088194;-0,0314685315;0,0007806597
28/08/2006;38957;19:00;0,7916666667;5,7917;;;2,4834401887;;2,386390313;3,4441739063;226,1416849754;;19;1,52;223;1,0366375073;1,1116576265;;2,093237999;1,6249434222;1,52;3,4441739063;;;;;1,1976626189;-0,3214685315;2,307759452
28/08/2006;38957;20:00;0,8333333333;5,8333;;;-0,7687136561;;3,2464940915;3,3362620657;166,6786913393;;20;2,74;109;-2,5907208971;0,8920567432;;3,3197103864;5,5433752269;2,74;3,3362620657;;;;;1,0897507783;0,8985314685;0,0365648244
28/08/2006;38957;21:00;0,875;5,875;;;-1,4712975627;;2,8485836436;3,2061106176;152,6835812057;;21;2,62;109;-2,4772586681;0,8529885647;;1,0119577456;3,982399719;2,62;3,2061106176;;;;;0,9595993302;0,7785314685;0,0327855705
28/08/2006;38957;22:00;0,9166666667;5,9167;;;-1,4634334844;;2,394194815;2,806030359;148,5649560605;;22;2,22;112;-2,0583481571;0,8316266374;;0,3539234679;2,4416193097;2,22;2,806030359;;;;;0,5595190715;0,3785314685;0,0327565124
28/08/2006;38957;23:00;0,9583333333;5,9583;;;-0,8863769492;;2,0174339717;2,2035661838;156,2813019722;;23;1,68;114;-1,5347563688;0,6833175604;;0,4203958718;1,779866599;1,68;2,2035661838;;;;;-0,0429451037;-0,1614685315;0,0140478029
29/08/2006;38958;00:00;0;6;;;0,0238782015;;1,9467168431;1,9468632812;180,7027480985;;24;1,23;111;-1,1483039246;0,4407925779;;1,3740109366;2,2678078925;1,23;1,9468632812;;;;;-0,2996480062;-0,6114685315;0,09723204
29/08/2006;38958;01:00;0,0416666667;6,0417;;;0,5424248024;;2,1897287786;2,2559115209;193,912862534;;1;1,22;126;-0,9870007331;0,7170980078;;2,3391424686;2,1686413871;1,22;2,2559115209;;;;;0,0094002334;-0,6214685315;0,3979953985
29/08/2006;38958;02:00;0,0833333333;6,0833;;;0,9031179038;;2,1552340714;2,336804624;202,7353761717;;2;1,12;121;-0,9600273768;0,5768426439;;3,4713103366;2,4913194984;1,12;2,336804624;;;;;0,0902933366;-0,7214685315;0,6589573304
29/08/2006;38958;03:00;0,125;6,125;;;1,2002847423;;2,1713792625;2,4810423947;208,9327319192;;3;1,05;169;-0,2003494451;1,0307085426;;1,961776127;1,3011296912;1,05;2,4810423947;;;;;0,2345311072;-0,7914685315;1,0526752586
29/08/2006;38958;04:00;0,1666666667;6,1667;;;1,4188703739;;2,0871383023;2,5237550259;214,2084993199;;4;1,09;166;-0,2636948662;1,0576223416;;2,8310257871;1,0599031132;1,09;2,5237550259;;;;;0,2772437384;-0,7514685315;1,0582489343
29/08/2006;38958;05:00;0,2083333333;6,2083;;;1,6326898974;;2,0507371519;2,6212972298;218,5249733707;;5;1,31;166;-0,3169176832;1,2710874014;;3,8009697183;0,6078537334;1,31;2,6212972298;;;;;0,3747859424;-0,5314685315;0,8212971713
29/08/2006;38958;06:00;0,25;6,25;;;1,725152394;;2,1026281535;2,7197786554;219,3679986974;;6;1,42;180;0;1,42;;2,9761507826;0,465981196;1,42;2,7197786554;;;;;0,473267368;-0,4214685315;0,8005523298
29/08/2006;38958;07:00;0,2916666667;6,2917;;;1,6076082536;;2,1533276282;2,6872335536;216,7438881888;;7;1,58;159;-0,5662213603;1,4750570739;;4,7255351903;0,4600509449;1,58;2,6872335536;;;;;0,4407222661;-0,2614685315;0,4930719162
29/08/2006;38958;08:00;0,3333333333;6,3333;;;1,3502979939;;2,313885894;2,6790618885;210,2662505502;;8;2,37;144;-1,3930510479;1,9173702767;;7,5259639655;0,1572246347;2,37;2,6790618885;;;;;0,4325506011;0,5285314685;0,0092123269
29/08/2006;38958;09:00;0,375;6,375;;;0,7055031478;;2,6580584733;2,7500926419;194,8647354518;;9;2,5;160;-0,8550503583;2,349231552;;2,4353272453;0,0953740673;2,5;2,7500926419;;;;;0,5035813544;0,6585314685;0,0240095379
29/08/2006;38958;10:00;0,4166666667;6,4167;;;0,4023369708;;2,7677981117;2,7968878106;188,2707873599;;10;2,44;156;-0,9924374091;2,2290509166;;1,9453955707;0,2902485402;2,44;2,7968878106;;;;;0,5503765232;0,5985314685;0,0023188988
29/08/2006;38958;11:00;0,4583333333;6,4583;;;0,003343544;;2,9428334308;2,9428353302;180,065097424;;11;2,7;132;-2,0064910288;1,8066526372;;4,0394350098;1,2909067957;2,7;2,9428353302;;;;;0,6963240427;0,8585314685;0,026311249
29/08/2006;38958;12:00;0,5;6,5;;;-1,0757701688;;3,5260263301;3,686481132;163,0333565312;;12;3,52;114;-3,2156800109;1,4317129836;;4,5792141322;4,3861483931;3,52;3,686481132;;;;;1,4399698445;1,6785314685;0,0569116484
29/08/2006;38958;13:00;0,5416666667;6,5417;;;-1,771324066;;3,8074054355;4,199276735;155,0506782909;;13;3,8;111;-3,5476056207;1,3617982083;;3,1551761616;5,98099471;3,8;4,199276735;;;;;1,9527654476;1,9585314685;0,000033247
29/08/2006;38958;14:00;0,5833333333;6,5833;;;-2,2751016895;;3,7455056069;4,382339552;148,7245928956;;14;3,28;115;-2,9726895415;1,3861878985;;0,4866288112;5,5663800492;3,28;4,382339552;;;;;2,1358282645;1,4385314685;0,4862228217
29/08/2006;38958;15:00;0,625;6,625;;;-2,539680264;;3,5785726716;4,3881839306;144,6370265279;;15;3,31;122;-2,8070391983;1,7540327646;;0,0714807997;3,3289458722;3,31;4,3881839306;;;;;2,1416726432;1,4685314685;0,453119041
29/08/2006;38958;16:00;0,6666666667;6,6667;;;-2,6990470027;;3,5895347202;4,4910593662;143,0597208034;;16;3,06;114;-2,7954491004;1,2446141278;;0,0092933644;5,4986525844;3,06;4,4910593662;;;;;2,2445480787;1,2185314685;1,0527100843
29/08/2006;38958;17:00;0,7083333333;6,7083;;;-2,9601105725;;3,4622200582;4,5551314288;139,47039474;;17;3,33;110;-3,1291764272;1,1389270773;;0,0285832632;5,3976902753;3,33;4,5551314288;;;;;2,3086201413;1,4885314685;0,6725454312
29/08/2006;38958;18:00;0,75;6,75;;;-3,0652032556;;3,4798546581;4,637333225;138,6250353862;;18;3,6;117;-3,2076234871;1,6343657991;;0,0202835223;3,4058291288;3,6;4,637333225;;;;;2,3908219375;1,7585314685;0,3997912372
29/08/2006;38958;19:00;0,7916666667;6,7917;;;-2,962910661;;3,613961024;4,6732808463;140,6533419857;;19;3,73;117;-3,3234543352;1,693384564;;0,129991741;3,6886139388;3,73;4,6732808463;;;;;2,4267695589;1,8885314685;0,2897002419
29/08/2006;38958;20:00;0,8333333333;6,8333;;;-2,9778643251;;3,5548017076;4,6372719479;140,0470259234;;20;3,69;120;-3,19563374;1,845;;0,047423518;2,9234218792;3,69;4,6372719479;;;;;2,3907606605;1,8485314685;0,2940124966
29/08/2006;38958;21:00;0,875;6,875;;;-2,826242512;;3,2479835003;4,3054667058;138,9717424883;;21;3,12;106;-2,9991364913;0,8599885501;;0,0298923281;5,7025198817;3,12;4,3054667058;;;;;2,0589554183;1,2785314685;0,6090615414
29/08/2006;38958;22:00;0,9166666667;6,9167;;;-2,2479944498;;2,9067301621;3,6745828718;142,2825049806;;22;4,02;107;-3,844345119;1,175334253;;2,5483354589;2,9977317941;4,02;3,6745828718;;;;;1,4280715843;2,1785314685;0,5631900378
29/08/2006;38958;23:00;0,9583333333;6,9583;;;-1,8077847928;;2,6796251123;3,232410339;145,9947857265;;23;;;0;0;;3,2680858569;7,1803907427;0;3,232410339;;;;;0,9858990515;-1,8414685315;7,9940074495
;;;;;;;;;;;;;;;;;;Número de comparaões;152;152;;;;;;;;;
;;;;;;;;;;;;;;;;;;RMSVE;1,9349750707;;;;;;;;;;
