;;;;;Estatística;;;;;;;;;;;;;;;;;;;;;;;;
;;;;;;;;;;avalia a habilidade de uma simulação;;;;;;Testes de Hipóteses Nulas;;;;;;;;;;;;;
;;;;;σsimulacao;σobservado;correlaçãoU;correlaçãoV;RMSE;RMSVEUB;ME;F. Bias;obmédio;simmédio;#Pontos (n);tU;tV;;;;;;;;;;;;
;;;;;2,6365370598;1,9509455712;0,6967915905;0,7639533329;2,0955160855;0,9030444922;0,9925799785;-0,5160620493;1,4270833333;2,4196633118;120;10,5525891917;12,8607220317;;;;;;;;;;;;
;;;;;σsimulacao;σobservado;RMSE;correlaçãoU;correlaçãoV;n;α (pior correlação);obmédio;simmédio;;;;;;;;;;;;;;;;
;;;;;2,6365370598;1,9509455712;2,0955160855;0,6967915905;0,7639533329;120;<0,001;1,4270833333;2,4196633118;;;;;;;;;;;;;;;;
;;;;;;;;;;;;;;;;;;;;;;;;;;;;;
;;;;;;;;;;;;;;;;;;;;;;;;;;;;;
Variable;;U,V;;;m/s;;Simulação;;;;;;Medições CETESB;;360;;;;;;;;;;;;;;
        ;;;;;;;São Caetano;;;;;;;;;;;;Comparação;RMSVE;Comparação (BIAS);;Vmodulo Fractional BIAS;;;;;;
z (agl)   ;;m    ;;;47,7;;10;;;;;;Hora (média);;;;;;Medidas CETESB;;Vmódulo;;(Calculando a partir do dia 24/08/2006);;;;Calculando;;
      Date;; Hour;;;U;V;U10m;;V10m;Vmodulo;DIR;;(N-1)h-->Nh;Vmódulo;DIR;U;V;;(Umedido-Ubrams)²;(Vmedido-Vbrams)²;;;Observado;Simulado;Fractional BIAS;;RMSVEUB;;
Simulação;#Dias em relação a uma data de referência;     ;#Fração de um dia;Tempo Corrido;Sao Caetano;Sao Caetano;Simulação;;Simulação;Simulação;Simulação;;GMT;Observado;(⁰);Observado;Observado;;;;Medido;Simulado;1,4270833333;2,4196633118;-0,5160620493;;sim-Mean_sim;ob-mean_ob;diff²
24/08/2006;38953;00:00;0;1;;;-0,9152714794;;0,7277251267;1,1693184943;128,4879328287;;24;0,68;90;-0,68;0;;0,055352669;0,52958386;0,68;1,1693184943;;;;;-1,2503448176;-0,7470833333;0,2532721215
24/08/2006;38953;01:00;0,0416666667;1,0417;;;-0,8701126054;;-0,0925995223;0,8750260668;83,9253069159;;1;0,11;777;NaN;NaN;;NaN;NaN;0,11;0,8750260668;;;;;-1,544637245;;
24/08/2006;38953;02:00;0,0833333333;1,0833;;;-0,8143491409;;-0,5832524757;1,0016725881;54,3890352443;;2;0,1;777;NaN;NaN;;NaN;NaN;0,1;1,0016725881;;;;;-1,4179907237;;
24/08/2006;38953;03:00;0,125;1,125;;;-0,7946889451;;-0,833890184;1,1519129127;43,62110974;;3;0,11;777;NaN;NaN;;NaN;NaN;0,11;1,1519129127;;;;;-1,2677503991;;
24/08/2006;38953;04:00;0,1666666667;1,1667;;;-0,806544639;;-0,8446139272;1,167855702;43,679216391;;4;0,02;777;NaN;NaN;;NaN;NaN;0,02;1,167855702;;;;;-1,2518076098;;
24/08/2006;38953;05:00;0,2083333333;1,2083;;;-0,9049647707;;-0,901628495;1,2774565274;45,1058092602;;5;0,05;777;NaN;NaN;;NaN;NaN;0,05;1,2774565274;;;;;-1,1422067844;;
24/08/2006;38953;06:00;0,25;1,25;;;-1,0695742283;;-1,1149118314;1,5449975475;43,8110336436;;6;0,06;777;NaN;NaN;;NaN;NaN;0,06;1,5449975475;;;;;-0,8746657643;;
24/08/2006;38953;07:00;0,2916666667;1,2917;;;-1,2347198731;;-1,3158628631;1,804446796;43,1778347039;;7;0,07;777;NaN;NaN;;NaN;NaN;0,07;1,804446796;;;;;-0,6152165158;;
24/08/2006;38953;08:00;0,3333333333;1,3333;;;-1,4450839683;;-1,4086232415;2,0180404138;45,7320064556;;8;0,06;777;NaN;NaN;;NaN;NaN;0,06;2,0180404138;;;;;-0,401622898;;
24/08/2006;38953;09:00;0,375;1,375;;;-1,5985526483;;-1,6329282028;2,2851313058;44,3905271318;;9;0,05;777;NaN;NaN;;NaN;NaN;0,05;2,2851313058;;;;;-0,134532006;;
24/08/2006;38953;10:00;0,4166666667;1,4167;;;-1,4672463708;;-1,7461232695;2,2807363691;40,0399314726;;10;0,01;777;NaN;NaN;;NaN;NaN;0,01;2,2807363691;;;;;-0,1389269427;;
24/08/2006;38953;11:00;0,4583333333;1,4583;;;-1,3721029384;;-1,5306951846;2,055649343;41,8727961079;;11;0,03;777;NaN;NaN;;NaN;NaN;0,03;2,055649343;;;;;-0,3640139688;;
24/08/2006;38953;12:00;0,5;1,5;;;-0,7844418128;;-1,0622463372;1,320498481;36,4449216298;;12;0,81;30;-0,405;-0,7014805771;;0,1439760893;0,1301519337;0,81;1,320498481;;;;;-1,0991648308;-0,6170833333;0,2324025702
24/08/2006;38953;13:00;0,5416666667;1,5417;;;-0,3071220467;;-0,9999890504;1,0460889315;17,0730525306;;13;1,64;57;-1,3754197314;-0,8932080174;;1,1412599432;0,011402189;1,64;1,0460889315;;;;;-1,3735743803;0,2129166667;2,5169538422
24/08/2006;38953;14:00;0,5833333333;1,5833;;;0,0877738378;;-0,9731201162;0,9770706254;354,845961812;;14;1,89;69;-1,7644670061;-0,6773154246;;3,4307961439;0,0875004155;1,89;0,9770706254;;;;;-1,4425926864;0,4629166667;3,6309658945
24/08/2006;38953;15:00;0,625;1,625;;;0,5092109867;;-0,8150640571;0,9610542369;328,0049326224;;15;2,33;49;-1,7584733219;-1,5286175375;;5,1423921236;0,5091585694;2,33;0,9610542369;;;;;-1,4586090749;0,9029166667;5,5768038282
24/08/2006;38953;16:00;0,6666666667;1,6667;;;-0,4228610237;;-0,4720353437;0,633741912;41,8547750788;;16;1,99;60;-1,7233905535;-0,995;;1,6913770581;0,2734920317;1,99;0,633741912;;;;;-1,7859213998;0,5629166667;5,5170402624
24/08/2006;38953;17:00;0,7083333333;1,7083;;;-0,7449426921;;0,581614126;0,9451003153;127,9809439847;;17;1,74;36;-1,022746339;-1,4076895702;;0,0771748662;3,9573291958;1,74;0,9451003153;;;;;-1,4745629965;0,3129166667;3,1950835461
24/08/2006;38953;18:00;0,75;1,75;;;-1,0181598375;;2,9002959162;3,0738194248;160,6561834839;;18;1,57;94;-1,5661755589;0,1095176638;;0,3003212309;7,7884432542;1,57;3,0738194248;;;;;0,654156113;0,1429166667;0,2613657715
24/08/2006;38953;19:00;0,7916666667;1,7917;;;-1,557087508;;3,4926635735;3,8240319488;155,9718922965;;19;1,67;139;-1,0956185784;1,260364999;;0,212953573;4,983156926;1,67;3,8240319488;;;;;1,404368637;0,2429166667;1,3489706794
24/08/2006;38953;20:00;0,8333333333;1,8333;;;-1,6072507955;;3,4206357653;3,7794184947;154,8326222791;;20;1,24;155;-0,5240466446;1,1238216559;;1,1733312327;5,2753550529;1,24;3,7794184947;;;;;1,3597551829;-0,1870833333;2,3927093954
24/08/2006;38953;21:00;0,875;1,875;;;-1,1663262222;;2,7855518643;3,0198702034;157,2806652749;;21;1,11;154;-0,4865919729;0,9976613914;;0,4620386497;3,1965523431;1,11;3,0198702034;;;;;0,6002068916;-0,3170833333;0,8414213568
24/08/2006;38953;22:00;0,9166666667;1,9167;;;-1,4180363049;;2,2503775039;2,659892079;147,7836324181;;22;1,07;165;-0,2769363783;1,0335406341;;1,3021090427;1,4806919675;1,07;2,659892079;;;;;0,2402287672;-0,3570833333;0,3567817455
24/08/2006;38953;23:00;0,9583333333;1,9583;;;-1,6135063124;;1,5508915675;2,2380051998;133,8664217835;;23;1,43;131;-1,0792346997;0,9381644115;;0,2854461561;0,3754345678;1,43;2,2380051998;;;;;-0,181658112;0,0029166667;0,0340678489
25/08/2006;38954;00:00;0;2;;;-1,7107349171;;0,7270102105;1,8588054774;113,0240131908;;24;1,41;115;-1,2778939797;0,5958917491;;0,1873512771;0,0171920509;1,41;1,8588054774;;;;;-0,5608578344;-0,0170833333;0,2956907081
25/08/2006;38954;01:00;0,0416666667;2,0417;;;-1,4474670223;;-0,3866624328;1,4982218186;75,0437801418;;1;1,28;117;-1,140488351;0,5811078397;;0,0942359047;0,9365793003;1,28;1,4982218186;;;;;-0,9214414932;-0,1470833333;0,5996305598
25/08/2006;38954;02:00;0,0833333333;2,0833;;;-1,1678752074;;-0,8026125998;1,4170813263;55,5015258563;;2;1,3;109;-1,2291741483;0,4232386008;;0,0037575602;1,502711166;1,3;1,4170813263;;;;;-1,0025819855;-0,1270833333;0,76649789
25/08/2006;38954;03:00;0,125;2,125;;;-0,7017498377;;-0,6909069418;0,9847868992;45,4460823569;;3;1,1;108;-1,0461621679;0,3399186938;;0,1186198532;1,062601491;1,1;0,9847868992;;;;;-1,4348764126;-0,3270833333;1,2272055064
25/08/2006;38954;04:00;0,1666666667;2,1667;;;-0,5273460279;;-0,5500565329;0,7620078888;43,7924444726;;4;1,22;104;-1,1837607861;0,2951447126;;0,4308803347;0,7143651455;1,22;0,7620078888;;;;;-1,657655423;-0,2070833333;2,1041593874
25/08/2006;38954;05:00;0,2083333333;2,2083;;;-0,8011827674;;-0,8335923023;1,1561876808;43,8642557747;;5;1,22;102;-1,1933400729;0,2536522628;;0,1537873523;1,1821007443;1,22;1,1561876808;;;;;-1,263475631;-0,2070833333;1,1159646867
25/08/2006;38954;06:00;0,25;2,25;;;-1,0222706057;;-1,2916748646;1,6472586764;38,3591587399;;6;1,23;69;-1,1483039246;-0,4407925779;;0,0158843975;0,7240006658;1,23;1,6472586764;;;;;-0,7724046354;-0,1970833333;0,3309946006
25/08/2006;38954;07:00;0,2916666667;2,2917;;;-1,1203332793;;-1,5470191047;1,910082398;35,9116197153;;7;2,41;39;-1,5166621424;-1,8729217671;;0,1570765677;0,1062125454;2,41;1,910082398;;;;;-0,5095809138;0,9829166667;2,2275490277
25/08/2006;38954;08:00;0,3333333333;2,3333;;;-1,0797617843;;-1,7544639587;2,0601041947;31,609673244;;8;2,05;41;-1,3449210094;-1,5471546395;;0,0703094147;0,0429771538;2,05;2,0601041947;;;;;-0,3595591171;0,6229166667;0,9652586656
25/08/2006;38954;09:00;0,375;2,375;;;-1,099064522;;-1,9035239887;2,1980323927;30,0014545857;;9;2,36;38;-1,4529610818;-1,8597053785;;0,125242775;0,0019200706;2,36;2,1980323927;;;;;-0,2216309191;0,9329166667;1,3329801279
25/08/2006;38954;10:00;0,4166666667;2,4167;;;-1,286134264;;-1,9672706842;2,3503819455;33,1752858142;;10;1,89;41;-1,2399515648;-1,4264011066;;0,0021328417;0,2925399;1,89;2,3503819455;;;;;-0,0692813663;0,4629166667;0,2832347462
25/08/2006;38954;11:00;0,4583333333;2,4583;;;-1,0591483669;;-1,622264036;1,9374044145;33,1398307214;;11;2,37;32;-1,2559086562;-2,0098739879;;0,0387146115;0,1502414748;2,37;1,9374044145;;;;;-0,4822588973;0,9429166667;2,031125388
25/08/2006;38954;12:00;0,5;2,5;;;-0,6608804609;;-1,4492543128;1,5928280029;24,513656562;;12;2,44;44;-1,6949664239;-1,7551891128;;1,0693337789;0,0935961018;2,44;1,5928280029;;;;;-0,8268353089;1,0129166667;3,3846873315
25/08/2006;38954;13:00;0,5416666667;2,5417;;;-0,2639291923;;-1,3012666571;1,3277626036;11,4654735599;;13;2,58;47;-1,8868925502;-1,759555769;;2,6340100611;0,21002891;2,58;1,3277626036;;;;;-1,0919007082;1,1529166667;5,0392050466
25/08/2006;38954;14:00;0,5833333333;2,5833;;;0,139069076;;-1,1258143036;1,1343712153;352,9580662298;;14;2,3;47;-1,6821135137;-1,5685962281;;3,3167060251;0,1960558327;2,3;1,1343712153;;;;;-1,2852920965;0,8729166667;4,6578650654
25/08/2006;38954;15:00;0,625;2,625;;;0,3979640666;;-0,8192939781;0,9108336955;334,0922880614;;15;1,74;28;-0,8168805192;-1,5363288116;;1,4758473678;0,5141389525;1,74;0,9108336955;;;;;-1,5088296163;0,3129166667;3,3187595197
25/08/2006;38954;16:00;0,6666666667;2,6667;;;-0,3992568734;;-0,5451057381;0,6756821122;36,2205134672;;16;1,69;27;-0,7672439446;-1,5058010259;;0,1354144845;0,9229354359;1,69;0,6756821122;;;;;-1,7439811996;0,2629166667;4,0276390457
25/08/2006;38954;17:00;0,7083333333;2,7083;;;-0,5298005736;;0,442104185;0,6900324327;129,8440804009;;17;1,79;38;-1,1020340408;-1,410539249;;0,327451141;3,4322876934;1,79;0,6900324327;;;;;-1,7296308791;0,3629166667;4,3787552313
25/08/2006;38954;18:00;0,75;2,75;;;-0,6385989057;;1,3102031098;1,4575461403;154,0151871411;;18;1,37;78;-1,340062213;-0,2848390164;;0,4920507715;2,5441593843;1,37;1,4575461403;;;;;-0,9621171715;-0,0570833333;0,8190862482
25/08/2006;38954;19:00;0,7916666667;2,7917;;;-1,3262291482;;3,1744662832;3,4403662504;157,3257939352;;19;1,5;78;-1,4672214011;-0,3118675362;;0,0198788154;12,1545235005;1,5;3,4403662504;;;;;1,0207029386;0,0729166667;0,8982988172
25/08/2006;38954;20:00;0,8333333333;2,8333;;;-1,938376154;;3,1472398908;3,6962712353;148,3712017845;;20;1,77;96;-1,7603037548;0,18501538;;0,0317097794;8,7747740526;1,77;3,6962712353;;;;;1,2766079235;0,3429166667;0,8717793631
25/08/2006;38954;21:00;0,875;2,875;;;-1,6555076398;;2,4768867901;2,9792068939;146,2419279091;;21;1,49;71;-1,4088226776;-0,4850965501;;0,0608534705;8,7733453079;1,49;2,9792068939;;;;;0,559543582;0,0629166667;0,2466382931
25/08/2006;38954;22:00;0,9166666667;2,9167;;;-1,5198522887;;2,2213042446;2,691494664;145,6194349201;;22;0,87;157;-0,3399360818;0,8008392225;;1,3922022553;2,017720879;0,87;2,691494664;;;;;0,2718313522;-0,5570833333;0,6870995559
25/08/2006;38954;23:00;0,9583333333;2,9583;;;-1,068501854;;1,4464542243;1,7983119961;143,5465610526;;23;0,37;777;NaN;NaN;;NaN;NaN;0,37;1,7983119961;;;;;-0,6213513158;;
26/08/2006;38955;00:00;0;3;;;-1,0919153599;;0,8239409334;1,3679027067;127,03758921;;24;0,19;777;NaN;NaN;;NaN;NaN;0,19;1,3679027067;;;;;-1,0517606051;;
26/08/2006;38955;01:00;0,0416666667;3,0417;;;-1,173237079;;0,1119558787;1,1785666558;95,4509313919;;1;0,34;777;NaN;NaN;;NaN;NaN;0,34;1,1785666558;;;;;-1,241096656;;
26/08/2006;38955;02:00;0,0833333333;3,0833;;;-0,8567079264;;-0,1525512042;0,8701840846;79,9033526499;;2;0,12;777;NaN;NaN;;NaN;NaN;0,12;0,8701840846;;;;;-1,5494792272;;
26/08/2006;38955;03:00;0,125;3,125;;;-0,3988875;;-0,7476832042;0,847432246;28,0798321476;;3;0,13;777;NaN;NaN;;NaN;NaN;0,13;0,847432246;;;;;-1,5722310658;;
26/08/2006;38955;04:00;0,1666666667;3,1667;;;-0,4536500818;;-1,2832745991;1,3610995899;19,4689979714;;4;0,15;777;NaN;NaN;;NaN;NaN;0,15;1,3610995899;;;;;-1,0585637219;;
26/08/2006;38955;05:00;0,2083333333;3,2083;;;-1,0802979715;;-1,6009357023;1,9313308443;34,0111464152;;5;0,3;777;NaN;NaN;;NaN;NaN;0,3;1,9313308443;;;;;-0,4883324675;;
26/08/2006;38955;06:00;0,25;3,25;;;-1,8249427818;;-1,9582746552;2,6767995409;42,9815611351;;6;0,4;777;NaN;NaN;;NaN;NaN;0,4;2,6767995409;;;;;0,2571362291;;
26/08/2006;38955;07:00;0,2916666667;3,2917;;;-2,2409048641;;-2,1194882609;3,0844586393;46,5950079696;;7;0,32;777;NaN;NaN;;NaN;NaN;0,32;3,0844586393;;;;;0,6647953275;;
26/08/2006;38955;08:00;0,3333333333;3,3333;;;-2,209150669;;-2,1722133314;3,0982022909;45,4830238739;;8;0,24;777;NaN;NaN;;NaN;NaN;0,24;3,0982022909;;;;;0,6785389791;;
26/08/2006;38955;09:00;0,375;3,375;;;-2,1301524277;;-2,1646471349;3,0369798458;44,5398251741;;9;0,34;777;NaN;NaN;;NaN;NaN;0,34;3,0369798458;;;;;0,617316534;;
26/08/2006;38955;10:00;0,4166666667;3,4167;;;-2,1902053894;;-2,1259820831;3,0523432745;45,852477537;;10;0,29;777;NaN;NaN;;NaN;NaN;0,29;3,0523432745;;;;;0,6326799627;;
26/08/2006;38955;11:00;0,4583333333;3,4583;;;-1,7682260957;;-1,8460923864;2,5563021388;43,7658199461;;11;0,39;777;NaN;NaN;;NaN;NaN;0,39;2,5563021388;;;;;0,136638827;;
26/08/2006;38955;12:00;0,5;3,5;;;-1,4332282744;;-1,6790402984;2,2075596504;40,4840610454;;12;1,4;23;-0,5470235799;-1,2887067948;;0,7853587606;0,152360244;1,4;2,2075596504;;;;;-0,2121036614;-0,0270833333;0,0342325218
26/08/2006;38955;13:00;0,5416666667;3,5417;;;-1,2174427314;;-1,5330782386;1,9576760942;38,4536690561;;13;1,77;22;-0,6630536703;-1,6411154226;;0,307347231;0,0116720331;1,77;1,9576760942;;;;;-0,4619872176;0,3429166667;0,6478702629
26/08/2006;38955;14:00;0,5833333333;3,5833;;;-1,5945610328;;-2,0348302662;2,5851806705;38,0834363001;;14;1,74;1;-0,0303671872;-1,7397349896;;2,4467023865;0,0870812223;1,74;2,5851806705;;;;;0,1655173587;0,3129166667;0,021726556
26/08/2006;38955;15:00;0,625;3,625;;;-0,6985922911;;-1,805282586;1,9357366568;21,1550001513;;15;1,8;353;0,2193648181;-1,786583073;;0,8426452543;0,0003496718;1,8;1,9357366568;;;;;-0,483926655;0,3729166667;0,7341804779
26/08/2006;38955;16:00;0,6666666667;3,6667;;;0,1871352759;;-1,3420168812;1,3550014468;352,0616748404;;16;1,95;6;-0,2038305034;-1,939317696;;0,1528542406;0,3567682634;1,95;1,3550014468;;;;;-1,064661865;0,5229166667;2,5204055943
26/08/2006;38955;17:00;0,7083333333;3,7083;;;1,1493469622;;-0,5932613026;1,2934285495;297,3015391107;;17;2,52;342;0,7787228258;-2,3966624211;;0,1373622505;3,252255594;2,52;1,2934285495;;;;;-1,1262347623;1,0929166667;4,9246330645
26/08/2006;38955;18:00;0,75;3,75;;;1,3584003777;;-2,981915517;3,2767471273;335,5085413678;;18;2,44;302;2,0692373546;-1,2930030047;;0,5052892078;2,852425474;2,44;3,2767471273;;;;;0,8570838155;1,0129166667;0,0242838775
26/08/2006;38955;19:00;0,7916666667;3,7917;;;3,0072354661;;-2,4821890853;3,8993240189;309,5364572444;;19;2,87;357;0,1502041944;-2,8660667647;;8,1626276875;0,1473620727;2,87;3,8993240189;;;;;1,4796607071;1,4429166667;0,0013501245
26/08/2006;38955;20:00;0,8333333333;3,8333;;;2,8065823162;;-2,3764410624;3,6775503288;310,2558712148;;20;2,32;319;1,5220569473;-1,7509262261;;1,6500054234;0,3912688105;2,32;3,6775503288;;;;;1,257887017;0,8929166667;0,1332033566
26/08/2006;38955;21:00;0,875;3,875;;;2,0661078504;;-2,6395898045;3,3520495202;321,9483550559;;21;1,81;341;0,5892783596;-1,7113886218;;2,181025345;0,8615574355;1,81;3,3520495202;;;;;0,9323862084;0,3829166667;0,3019167772
26/08/2006;38955;22:00;0,9166666667;3,9167;;;1,6880959037;;-1,843471027;2,4996106112;317,5191654824;;22;1,22;2;-0,042577386;-1,219256809;;2,9952300357;0,38964339;1,22;2,4996106112;;;;;0,0799472994;-0,2070833333;0,0823865841
26/08/2006;38955;23:00;0,9583333333;3,9583;;;1,3199736313;;-1,9403421736;2,3467548099;325,7733763855;;23;1,51;12;-0,3139466531;-1,4770028771;;2,6696954959;0,2146833037;1,51;2,3467548099;;;;;-0,0729085019;0,0829166667;0,0242814831
27/08/2006;38956;00:00;0;4;;;0,2494402237;;-3,5652871453;3,5740023578;355,9979040606;;24;2,09;11;-0,3987908003;-2,0516008134;;0,4202034606;2,2912463115;2,09;3,5740023578;;;;;1,154339046;0,6629166667;0,241495955
27/08/2006;38956;01:00;0,0416666667;4,0417;;;0,6393733982;;-3,3159601167;3,3770386195;349,0863365148;;1;1,54;351;0,2409090762;-1,5210400445;;0,158773816;3,2217380654;1,54;3,3770386195;;;;;0,9573753077;0,1129166667;0,7131103964
27/08/2006;38956;02:00;0,0833333333;4,0833;;;0,9369572711;;-2,9421185146;3,0877095527;342,3352230713;;2;1,38;10;-0,2396344852;-1,3590346992;;1,3843681611;2,5061543666;1,38;3,0877095527;;;;;0,6680462409;-0,0470833333;0,5114103079
27/08/2006;38956;03:00;0,125;4,125;;;0,4938819916;;-2,7529636003;2,7969140148;349,8293218647;;3;4,02;262;3,9808776363;0,5594758659;;12,1591386264;10,9722552172;4,02;2,7969140148;;;;;0,377250703;2,5929166667;4,9091756624
27/08/2006;38956;04:00;0,1666666667;4,1667;;;-0,2153744663;;-2,5152539601;2,5244580893;4,8941462283;;4;3,43;262;3,3966194758;0,4773637363;;13,0465002374;8,9557606768;3,43;2,5244580893;;;;;0,1047947775;2,0029166667;3,6028667062
27/08/2006;38956;05:00;0,2083333333;4,2083;;;-0,4796134556;;-2,5159688763;2,5612747712;10,7926766619;;5;3,29;256;3,1922729394;0,7959230365;;13,4827496979;10,9686280424;3,29;2,5612747712;;;;;0,1416114594;1,8629166667;2,9628916167
27/08/2006;38956;06:00;0,25;4,25;;;-0,3135860808;;-2,7590403881;2,776803935;6,4842784576;;6;3,33;323;2,0040440271;-2,6594562485;;5,3714093169;0,0099170009;3,33;2,776803935;;;;;0,3571406232;1,9029166667;2,3894235766
27/08/2006;38956;07:00;0,2916666667;4,2917;;;-0,0516932082;;-3,0179592093;3,0184018912;0,9812965825;;7;3,15;327;1,7156129603;-2,641812289;;3,1233710931;0,1414865056;3,15;3,0184018912;;;;;0,5987385794;1,7229166667;1,2637763719
27/08/2006;38956;08:00;0,3333333333;4,3333;;;0,3128532917;;-3,1598105009;3,1752605536;354,3455654078;;8;2,62;324;1,539997361;-2,1196245253;;1,5058825669;1,0819868639;2,62;3,1752605536;;;;;0,7555972418;1,1929166667;0,1912482793
27/08/2006;38956;09:00;0,375;4,375;;;0,6985922911;;-3,0790845454;3,1573395172;347,216962473;;9;2,31;330;1,155;-2,0005186827;;0,2083079968;1,16330432;2,31;3,1573395172;;;;;0,7376762054;0,8829166667;0,0210947916
27/08/2006;38956;10:00;0,4166666667;4,4167;;;0,9786011405;;-3,1655298306;3,3133426174;342,821376205;;10;3,38;328;1,7911271131;-2,866402565;;0,6601984562;0,089477121;3,38;3,3133426174;;;;;0,8936793056;1,9529166667;1,1219837871
27/08/2006;38956;11:00;0,4583333333;4,4583;;;1,080715006;;-2,9874561176;3,176922879;340,1123626413;;11;2,6;329;1,3390989948;-2,2286349818;;0,0667622857;0,5758095161;2,6;3,176922879;;;;;0,7572595671;1,1729166667;0,1727708244
27/08/2006;38956;12:00;0,5;4,5;;;1,3726987019;;-2,7913307703;3,1105994914;333,8133260302;;12;3,16;330;1,58;-2,736640276;;0,0429738282;0,0029910502;3,16;3,1105994914;;;;;0,6909361796;1,7329166667;1,0857233355
27/08/2006;38956;13:00;0,5416666667;4,5417;;;3,0289808342;;-2,4952363062;3,9244017529;309,4812674379;;13;3,07;323;1,8475721211;-2,4518110158;;1,3957265475;0,0018857558;3,07;3,9244017529;;;;;1,5047384411;1,6429166667;0,019093222
27/08/2006;38956;14:00;0,5833333333;4,5833;;;4,7967898955;;-2,685165713;5,497209129;299,2393993703;;14;2,9;310;2,221528885;-1,8640840681;;6,631969272;0,6741750676;2,9;5,497209129;;;;;3,0775458172;1,4729166667;2,5748347107
27/08/2006;38956;15:00;0,625;4,625;;;5,0552916822;;-2,5166837925;5,6470940583;296,4655714592;;15;2,94;278;2,9113881221;-0,4091689168;;4,5963224751;4,4416189513;2,94;5,6470940583;;;;;3,2274307465;1,5129166667;2,9395585301
27/08/2006;38956;16:00;0,6666666667;4,6667;;;5,0452828553;;-2,7336608626;5,7382733293;298,4499462959;;16;3,48;259;3,4160625984;0,6640153039;;2,6543586454;11,5442033327;3,48;5,7382733293;;;;;3,3186100175;2,0529166667;1,6019796583
27/08/2006;38956;17:00;0,7083333333;4,7083;;;4,896520707;;-2,7440271477;5,6129849475;299,2664211883;;17;4,09;256;3,9685095205;0,989460553;;0,8612047623;13,9389304113;4,09;5,6129849475;;;;;3,1933216357;2,6629166667;0,2813294312
27/08/2006;38956;18:00;0,75;4,75;;;4,3896451132;;-3,2010969121;5,4328634863;306,1009598212;;18;4,34;256;4,211083452;1,0499410269;;0,0318842668;18,0713235586;4,34;5,4328634863;;;;;3,0132001745;2,9129166667;0,0100567819
27/08/2006;38956;19:00;0,7916666667;4,7917;;;4,1360285873;;-2,2338152783;4,7007087947;298,3729055716;;19;3,31;259;3,2491859772;0,6315777747;;0,786489815;8,2104773481;3,31;4,7007087947;;;;;2,2810454829;1,8829166667;0,1585065543
27/08/2006;38956;20:00;0,8333333333;4,8333;;;4,0426724454;;-0,4267215712;4,0651312156;276,0255054203;;20;2,55;255;2,463110857;0,659988565;;2,4950148114;1,1809389202;2,55;4,0651312156;;;;;1,6454679038;1,1229166667;0,2730597954
27/08/2006;38956;21:00;0,875;4,875;;;3,5215581037;;0,5567350418;3,565294572;261,0162688642;;21;2,06;259;2,0221519979;0,3930665305;;2,2482186703;0,0267873816;2,06;3,565294572;;;;;1,1456312602;0,6329166667;0,2628762544
27/08/2006;38956;22:00;0,9166666667;4,9167;;;-0,9229568287;;2,3776921658;2,5505429506;158,7851127464;;22;1,45;259;1,423359416;0,2766730433;;5,50519992;4,4142813531;1,45;2,5505429506;;;;;0,1308796388;0,0229166667;0,0116560034
27/08/2006;38956;23:00;0,9583333333;4,9583;;;-1,0560503967;;2,3611895166;2,5865920385;155,9032497258;;23;1,22;299;1,0670360427;-0,5914677367;;4,5074960291;8,7181848554;1,22;2,5865920385;;;;;0,1669287267;-0,2070833333;0,139885021
28/08/2006;38957;00:00;0;5;;;-1,1897397282;;2,1096581629;2,422011186;150,5792162578;;24;0,86;268;0,8594761112;0,0300135672;;4,1992855565;4,3249216448;0,86;2,422011186;;;;;0,0023478742;-0,5670833333;0,3242519001
28/08/2006;38957;01:00;0,0416666667;5,0417;;;-1,4538416919;;1,357447156;1,989049634;133,0361900026;;1;0,61;888;NaN;NaN;;NaN;NaN;0,61;1,989049634;;;;;-0,4306136778;;
28/08/2006;38957;02:00;0,0833333333;5,0833;;;-1,4951876794;;0,427948844;1,5552255173;105,9720471461;;2;0,94;155;-0,397261166;0,8519293198;;1,2054426288;0,1797594438;0,94;1,5552255173;;;;;-0,8644377945;-0,4870833333;0,1423963893
28/08/2006;38957;03:00;0,125;5,125;;;-0,9880737803;;-0,2818795468;1,0274949509;74,0775118593;;3;0,48;777;NaN;NaN;;NaN;NaN;0,48;1,0274949509;;;;;-1,3921683609;;
28/08/2006;38957;04:00;0,1666666667;5,1667;;;-0,7257591071;;-0,7769947689;1,0632248833;43,0472846923;;4;0,38;777;NaN;NaN;;NaN;NaN;0,38;1,0632248833;;;;;-1,3564384285;;
28/08/2006;38957;05:00;0,2083333333;5,2083;;;-0,5459338494;;-0,5795110808;0,7961638404;43,2911086145;;5;0,28;777;NaN;NaN;;NaN;NaN;0,28;0,7961638404;;;;;-1,6234994714;;
28/08/2006;38957;06:00;0,25;5,25;;;-0,2991566886;;-0,389909344;0,4914509343;37,4971073811;;6;1,02;92;-1,0193786436;0,0355974866;;0,5187196644;0,1810560629;1,02;0,4914509343;;;;;-1,9282123775;-0,4070833333;2,313833569
28/08/2006;38957;07:00;0,2916666667;5,2917;;;-0,1477970114;;-0,2792283992;0,315931093;27,8924965933;;7;0,28;777;NaN;NaN;;NaN;NaN;0,28;0,315931093;;;;;-2,1037322188;;
28/08/2006;38957;08:00;0,3333333333;5,3333;;;-0,0587530058;;-0,1793903503;0,1887665581;18,1343904558;;8;0,34;777;NaN;NaN;;NaN;NaN;0,34;0,1887665581;;;;;-2,2308967537;;
28/08/2006;38957;09:00;0,375;5,375;;;-0,0223041943;;-0,116227503;0,1183482553;10,8630642317;;9;0,42;777;NaN;NaN;;NaN;NaN;0,42;0,1183482553;;;;;-2,3013150565;;
28/08/2006;38957;10:00;0,4166666667;5,4167;;;-0,0004716898;;-0,1161977149;0,1161986722;0,2325836305;;10;0,24;777;NaN;NaN;;NaN;NaN;0,24;0,1161986722;;;;;-2,3034646396;;
28/08/2006;38957;11:00;0,4583333333;5,4583;;;0,0110728606;;-0,1292687663;0,1297421372;355,1041280689;;11;0,53;777;NaN;NaN;;NaN;NaN;0,53;0,1297421372;;;;;-2,2899211746;;
28/08/2006;38957;12:00;0,5;5,5;;;0,0208451694;;-0,1203025254;0,1220951216;350,1697967383;;12;0,34;777;NaN;NaN;;NaN;NaN;0,34;0,1220951216;;;;;-2,2975681902;;
28/08/2006;38957;13:00;0,5416666667;5,5417;;;0,1466948489;;-0,1629532351;0,2192558677;318,0056129039;;13;0,71;888;NaN;NaN;;NaN;NaN;0,71;0,2192558677;;;;;-2,2004074441;;
28/08/2006;38957;14:00;0,5833333333;5,5833;;;0,1482914951;;0,369957224;0,3985708408;201,8425994882;;14;1,39;125;-1,1386213416;0,7972712465;;1,6561446492;0,1825972738;1,39;0,3985708408;;;;;-2,021092471;-0,0370833333;3,9362922584
28/08/2006;38957;15:00;0,625;5,625;;;0,2262054469;;0,5166461153;0,5639965538;203,6454578085;;15;1,01;157;-0,3946384398;0,929709902;;0,3854471316;0,1706216919;1,01;0,5639965538;;;;;-1,855666758;-0,4170833333;2,0695222699
28/08/2006;38957;16:00;0,6666666667;5,6667;;;0,0920335469;;0,9203950456;0,9249849803;185,7102259388;;16;1,08;177;-0,0565228327;1,0785198975;;0,0220689979;0,0250034688;1,08;0,9249849803;;;;;-1,4946783315;-0,3470833333;1,3169742799
28/08/2006;38957;17:00;0,7083333333;5,7083;;;-2,189788355;;3,1478356543;3,8345850292;145,1756379307;;17;2,1;127;-1,6771345711;1,2638115486;;0,2628139021;3,5495468309;2,1;3,8345850292;;;;;1,4149217174;0,6729166667;0,5505714953
28/08/2006;38957;18:00;0,75;5,75;;;-2,1065601927;;5,3030101494;5,7060943289;158,3351151032;;18;2,09;138;-1,3984829673;1,5531726852;;0,5013733571;14,0612810075;2,09;5,7060943289;;;;;3,2864310171;0,6629166667;6,8828275468
28/08/2006;38957;19:00;0,7916666667;5,7917;;;-1,9619088126;;4,7756402909;5,1629280818;157,6663636338;;19;1,62;152;-0,7605439317;1,4303751004;;1,4432775771;11,1907991947;1,62;5,1629280818;;;;;2,74326477;0,1929166667;6,5042754479
28/08/2006;38957;20:00;0,8333333333;5,8333;;;-1,7775795828;;4,0601283162;4,4322038668;156,3555404757;;20;1,27;155;-0,5367251924;1,1510108895;;1,5397196182;8,4629642021;1,27;4,4322038668;;;;;2,012540555;-0,1570833333;4,707267817
28/08/2006;38957;21:00;0,875;5,875;;;-1,6443668621;;3,1059534796;3,5143832169;152,1021735264;;21;1,45;134;-1,0430427105;1,0072546372;;0,3615907354;4,4045368314;1,45;3,5143832169;;;;;1,0947199051;0,0229166667;1,1487621818
28/08/2006;38957;22:00;0,9166666667;5,9167;;;-1,6468690689;;2,3598192605;2,8776595824;145,0896086016;;22;1,35;143;-0,8124502813;1,0781579386;;0,6962547132;1,6426557442;1,35;2,8776595824;;;;;0,4579962706;-0,0770833333;0,2863101826
28/08/2006;38957;23:00;0,9583333333;5,9583;;;-1,3632260621;;1,7839542524;2,2451899855;142,6143928411;;23;1,27;147;-0,6916915745;1,0651116213;;0,4509585681;0,5167347283;1,27;2,2451899855;;;;;-0,1744733263;-0,1570833333;0,0003024119
29/08/2006;38958;00:00;0;6;;;-1,1984974518;;1,4596205979;1,888620775;140,6105122755;;24;1,33;124;-1,1026199715;0,7437265616;;0,0091924912;0,5125042712;1,33;1,888620775;;;;;-0,5310425368;-0,0970833333;0,1883205903
29/08/2006;38958;01:00;0,0416666667;6,0417;;;-1,0935834978;;1,7180628083;2,0365816163;147,5223802362;;1;1,5;116;-1,3481910694;0,6575567202;;0,0648250156;1,1246731628;1,5;2,0365816163;;;;;-0,3830816955;0,0729166667;0,2079345063
29/08/2006;38958;02:00;0,0833333333;6,0833;;;-0,9022242586;;2,0174935481;2,2100427211;155,9057795172;;2;1,14;129;-0,8859463961;0,7174252458;;0,0002649688;1,6901775905;1,14;2,2100427211;;;;;-0,2096205907;-0,2870833333;0,0060004765
29/08/2006;38958;03:00;0,125;6,125;;;-0,7839652019;;1,9624449998;2,1132420153;158,224086231;;3;0,38;777;NaN;NaN;;NaN;NaN;0,38;2,1132420153;;;;;-0,3064212965;;
29/08/2006;38958;04:00;0,1666666667;6,1667;;;-0,6841152378;;1,9498148134;2,0663473728;160,6659845189;;4;0,34;777;NaN;NaN;;NaN;NaN;0,34;2,0663473728;;;;;-0,353315939;;
29/08/2006;38958;05:00;0,2083333333;6,2083;;;-0,5935949302;;1,8753443747;1,967046381;162,4360755635;;5;0,5;777;NaN;NaN;;NaN;NaN;0,5;1,967046381;;;;;-0,4526169308;;
29/08/2006;38958;06:00;0,25;6,25;;;-0,4645942575;;1,8439476378;1,9015758504;165,8583098786;;6;0,65;888;NaN;NaN;;NaN;NaN;0,65;1,9015758504;;;;;-0,5180874614;;
29/08/2006;38958;07:00;0,2916666667;6,2917;;;-0,8163747369;;2,9204922992;3,0324483475;164,382554544;;7;1,23;208;0,5774500222;1,0860255392;;1,942747459;3,3652682934;1,23;3,0324483475;;;;;0,6127850357;-0,1970833333;0,6558867752
29/08/2006;38958;08:00;0,3333333333;6,3333;;;-0,8415755333;;3,6552474352;3,7508776561;167,034304621;;8;1,34;174;-0,1400681408;1,3326593398;;0,4921126218;5,3944154611;1,34;3,7508776561;;;;;1,3312143443;-0,0870833333;2,0115683024
29/08/2006;38958;09:00;0,375;6,375;;;-0,7290358064;;3,8456534528;3,9141466102;169,265593781;;9;1,6;175;-0,1394491884;1,5939115169;;0,3476123801;5,0703417458;1,6;3,9141466102;;;;;1,4944832984;0,1729166667;1,7465383622
29/08/2006;38958;10:00;0,4166666667;6,4167;;;-0,6414585705;;3,5192346261;3,577216998;169,6699757028;;10;1,69;180;0;1,69;;0,4114690977;3,3460993172;1,69;3,577216998;;;;;1,1575536862;0,2629166667;0,8003753968
29/08/2006;38958;11:00;0,4583333333;6,4583;;;-0,7984422552;;3,511251395;3,6008882785;167,1890531863;;11;1,53;180;0;1,53;;0,6375100349;3,9253570903;1,53;3,6008882785;;;;;1,1812249667;0,1029166667;1,1627487899
29/08/2006;38958;12:00;0,5;6,5;;;-0,9025817167;;3,3229901261;3,4433874504;164,8040900824;;12;1,26;176;-0,0878931569;1,2569307033;;0,6637174494;4,2686015384;1,26;3,4433874504;;;;;1,0237241386;-0,1670833333;1,4180224351
29/08/2006;38958;13:00;0,5416666667;6,5417;;;-0,7796161283;;3,279856848;3,3712404618;166,6290313791;;13;1,44;177;-0,075363777;1,43802653;;0,4959713744;3,3923389202;1,44;3,3712404618;;;;;0,95157715;0,0129166667;0,8810835029
29/08/2006;38958;14:00;0,5833333333;6,5833;;;-0,8374051887;;3,6276040084;3,7230039339;167,0013973574;;14;1,52;168;-0,31602577;1,4867843531;;0,2718364982;4,5831087965;1,52;3,7230039339;;;;;1,3033406221;0,0929166667;1,4651261519
29/08/2006;38958;15:00;0,625;6,625;;;-1,3132415037;;3,6559027751;3,8846143114;160,2411394618;;15;1,36;180;0;1,36;;1,7246032469;5,2711695527;1,36;3,8846143114;;;;;1,4649509995;-0,0670833333;2,3471291971
29/08/2006;38958;16:00;0,6666666667;6,6667;;;-1,8876766794;;3,9529504609;4,38054113;154,473838762;;16;1,38;166;-0,3338522159;1,3390081023;;2,4143704632;6,8326946541;1,38;4,38054113;;;;;1,9608778182;-0,0470833333;4,0319079862
29/08/2006;38958;17:00;0,7083333333;6,7083;;;-1,9884798651;;4,1384116413;4,5913509;154,3360182134;;17;1,49;173;-0,1815853217;1,4788937659;;3,2648678912;7,0730353295;1,49;4,5913509;;;;;2,1716875882;0,0629166667;4,4469147996
29/08/2006;38958;18:00;0,75;6,75;;;-1,9376016614;;4,1428798676;4,5735930947;154,9347718735;;18;1,24;177;-0,0648965857;1,2383006231;;3,5070243006;8,4365805879;1,24;4,5735930947;;;;;2,1539297829;-0,1870833333;5,4803424105
29/08/2006;38958;19:00;0,7916666667;6,7917;;;-2,042098581;;3,9990029801;4,4902328948;152,9487835753;;19;1,12;180;0;1,12;;4,1701666145;8,2886581597;1,12;4,4902328948;;;;;2,070569583;-0,3070833333;5,6532333906
29/08/2006;38958;20:00;0,8333333333;6,8333;;;-1,9825818064;;3,8475003197;4,3282663191;152,7383618424;;20;1,42;164;-0,3914050453;1,3649916082;;2,5318434852;6,1628495026;1,42;4,3282663191;;;;;1,9086030073;-0,0070833333;3,6698541558
29/08/2006;38958;21:00;0,875;6,875;;;-1,7797243315;;3,3747023987;3,8152372109;152,1940804919;;21;1,41;173;-0,1718357742;1,3994900738;;2,5853056126;3,9014637284;1,41;3,8152372109;;;;;1,3955738991;-0,0170833333;1,9956004565
29/08/2006;38958;22:00;0,9166666667;6,9167;;;-1,4534842338;;2,7195412675;3,0835890004;151,8773082278;;22;1,29;180;0;1,29;;2,1126164178;2,0435882354;1,29;3,0835890004;;;;;0,6639256886;-0,1370833333;0,6416154532
29/08/2006;38958;23:00;0,9583333333;6,9583;;;-1,4512203324;;2,3554106106;2,7665862715;148,3618630571;;23;1,42;157;-0,5548382025;1,3071168919;;0,8035009229;1,0989197206;1,42;2,7665862715;;;;;0,3469229597;-0,0070833333;0,1253204555
;;;;;;;;;;;;;;;;;;Número de comparaões;120;120;;;;;;;;;
;;;;;;;;;;;;;;;;;;RMSVE;2,0955160855;;;;;;;;;;
