;;;;;Estatística;;;;;;;;;;;;;;;;;;;;;;;;
;;;;;;;;;;avalia a habilidade de uma simulação;;;;;;Testes de Hipóteses Nulas;;;;;;;;;;;;;
;;;;;σsimulacao;σobservado;correlaçãoU;correlaçãoV;RMSE;RMSVEUB;ME;F. Bias;obmédio;simmédio;#Pontos (n);tU;tV;;;;;;;;;;;;
;;;;;2,5678563345388;2,5411402186522;0,2448426875487;0,6353640427378;2,7304921801684;1,0007995752536;0,1537267410499;-0,0704207687003;2,1061111111111;2,259837852161;150;3,0721473590922;10,0095953764031;;;;;;;;;;;;
;;;;;σsimulacao;σobservado;RMSE;correlaçãoU;correlaçãoV;n;α (pior correlação);obmédio;simmédio;;;;;;;;;;;;;;;;
;;;;;2,5678563345388;2,5411402186522;2,7304921801683;0,2448426875487;0,6353640427378;150;<0,01;2,1061111111111;2,259837852161;;;;;;;;;;;;;;;;
;;;;;;;;;;;;;;;;;;;;;;;;;;;;;
;;;;;;;;;;;;;;;;;;;;;;;;;;;;;
Variable;;U,V;;;m/s;;Simulação;;;;;;Medições CETESB;;360;;;;;;;;;;;;;;
        ;;;;;;;Ibirapuera;;;;;;;;;;;;Comparação;RMSVE;Comparação (BIAS);;Vmodulo Fractional BIAS;;;;;;
z (agl)   ;;m    ;;;47,7;;10;;;;;;Hora (média);;;;;;Medidas CETESB;;Vmódulo;;(Calculando a partir do dia 24/08/2006);;;;Calculando;;
      Date;; Hour;;;U;V;U10m;;V10m;Vmodulo;DIR;;(N-1)h-->Nh;Vmódulo;DIR;U;V;;(Umedido-Ubrams)²;(Vmedido-Vbrams)²;;;Observado;Simulado;Fractional BIAS;;RMSVEUB;;
Simulação;#Dias em relação a uma data de referência;     ;#Fração de um dia;Tempo Corrido;  Ibirapuera;Ibirapuera;Simulação;;Simulação;Simulação;Simulação;;GMT;Observado;(⁰);Observado;Observado;;;;Medido;Simulado;2,1061111111111;2,259837852161;-0,0704207687003;;sim-Mean_sim;ob-mean_ob;diff²
23/08/2006;38952;00:00;0;0,0000;;;-1,3933106602999;;-0,5873958665246;1,5120676241873;67,1405466395616;;24;0,82;359;0,0143109732786;-0,8198751100282;;1,981398663318;0,05404659866;0,82;1,5120676241873;;;;;-0,7477702279737;-1,2861111111111;0,2898109064571
23/08/2006;38952;01:00;0,0416666666667;0,0417;;;0,3106707136855;;0,3630175771307;0,4778054558581;220,556936236283;;1;1;4;-0,0697564737441;-0,9975640502598;;0,1447248449357;1,8511823647927;1;0,4778054558581;;;;;-1,782032396303;-1,1061111111111;0,4568695837754
23/08/2006;38952;02:00;0,0833333333333;0,0833;;;0,0153125125196;;-0,8416174714864;0,841756759017;358,957667132569;;2;1,11;345;0,2872891400638;-1,0721776671809;;0,0739712859303;0,0531580038387;1,11;0,841756759017;;;;;-1,418081093144;-0,9961111111111;0,1780586657368
23/08/2006;38952;03:00;0,125;0,1250;;;-0,0232437506509;;-0,3056968277576;0,3065792270284;4,3481353950351;;3;1,12;319;0,7347861124694;-0,8452747298495;;0,5746092733822;0,2911443124259;1,12;0,3065792270284;;;;;-1,9532586251326;-0,9861111111111;0,9353743138779
23/08/2006;38952;04:00;0,1666666666667;0,1667;;;-0,228930190563;;-0,0808688824731;0,242793756723;70,5443897857793;;4;0,63;332;0,2957670845551;-0,5562569835011;;0,2753072305164;0,225993846599;0,63;0,242793756723;;;;;-2,017044095438;-1,4761111111111;0,2926084935328
23/08/2006;38952;05:00;0,2083333333333;0,2083;;;-0,2521324345164;;-0,7304486997719;0,7727393270267;19,0433804399374;;5;0,72;320;0,4628070789743;-0,5515519990457;;0,5111385079503;0,0320040295307;0,72;0,7727393270267;;;;;-1,4870985251343;-1,3861111111111;0,0101984577911
23/08/2006;38952;06:00;0,25;0,2500;;;-0,4284528858829;;-1,662619949836;1,716938255446;14,4505730383545;;6;0,93;315;0,6576093065035;-0,6576093065035;;1,1795310857311;1,0100463932116;0,93;1,716938255446;;;;;-0,542899596715;-1,1761111111111;0,4009568219638
23/08/2006;38952;07:00;0,2916666666667;0,2917;;;-0,7341151247258;;-2,7197955374782;2,8171284638862;15,1050654875457;;7;0,41;777;NaN;NaN;;NaN;NaN;0,41;2,8171284638862;;;;;0,5572906117252;;
23/08/2006;38952;08:00;0,3333333333333;0,3333;;;-1,2399434127012;;-4,271523426917;4,4478502732671;16,1870253726795;;8;0,53;888;NaN;NaN;;NaN;NaN;0,53;4,4478502732671;;;;;2,188012421106;;
23/08/2006;38952;09:00;0,375;0,3750;;;-1,5922660974193;;-4,8362912254716;5,0916622180349;18,2232446504585;;9;2,01;15;-0,5202262806561;-1,941510910841;;1,1492693687257;8,3797530699726;2,01;5,0916622180349;;;;;2,8318243658739;-0,0961111111111;8,5728061573874
23/08/2006;38952;10:00;0,4166666666667;0,4167;;;-1,4454707436059;;-4,902010163324;5,1106838399525;16,4293682104571;;10;3,21;349;0,6124968751587;-3,151023258867;;4,2352307198835;3,0659551395798;3,21;5,1106838399525;;;;;2,8508459877915;1,1038888888889;3,0518591054062
23/08/2006;38952;11:00;0,4583333333333;0,4583;;;-1,4317043555715;;-4,317595861243;4,5487813074257;18,3453962551562;;11;2,18;24;-0,8866858819052;-1,9915290976609;;0,2970451366375;5,4105865886414;2,18;4,5487813074257;;;;;2,2889434552646;0,0738888888889;4,906466732022
23/08/2006;38952;12:00;0,5;0,5000;;;-1,4824808822911;;-3,1511193032778;3,4824276632615;25,1951869307202;;12;4,13;42;-2,7635094042621;-3,0691881292216;;1,6410340741031;0,0067127172822;4,13;3,4824276632615;;;;;1,2225898111005;2,0238888888889;0,6420802120646
23/08/2006;38952;13:00;0,5416666666667;0,5417;;;-0,8760680304869;;-1,4593063094695;1,7020781706193;30,9777343265711;;13;3,39;44;-2,354891875856;-2,438561923148;;2,1869199656322;0,9589415569209;3,39;1,7020781706193;;;;;-0,5577596815417;1,2838888888889;3,3916694569691
23/08/2006;38952;14:00;0,5833333333333;0,5833;;;0,8709488711174;;1,1835634818068;1,4694810143609;216,348237025551;;14;1,29;96;-1,2829332450251;0,1348417176153;;4,6392081702383;1,0998173386889;1,29;1,4694810143609;;;;;-0,7903568378001;-0,8161111111111;0,0006632825938
23/08/2006;38952;15:00;0,625;0,6250;;;0,2927744092409;;1,1783059667786;1,2141341795915;193,95374112424;;15;2,15;193;0,4836447668393;2,0948956392883;;0,0364314934097;0,8401366277514;2,15;1,2141341795915;;;;;-1,0457036725695;0,0438888888889;1,1872119499855
23/08/2006;38952;16:00;0,6666666666667;0,6667;;;-1,242502992386;;2,8439697411046;3,1035427457031;156,399946478158;;16;2,36;199;0,7683408445189;2,2314238384144;;4,0434929364182;0,3752124829025;2,36;3,1035427457031;;;;;0,8437048935421;0,2538888888889;0,3478829193451
23/08/2006;38952;17:00;0,7083333333333;0,7083;;;-1,2203660870041;;4,271523426917;4,4424324162569;164,055461983612;;17;2,79;206;1,2230554995415;2,5076353891747;;5,9703090495972;3,1113010096904;2,79;4,4424324162569;;;;;2,1825945640959;0,6838888888889;2,2461187008977
23/08/2006;38952;18:00;0,75;0,7500;;;-0,8812563676858;;3,6760406721451;3,7801967949899;166,518907656373;;18;2,96;201;1,0607691306541;2,7633980624317;;3,7714630362023;0,8329165330644;2,96;3,7801967949899;;;;;1,5203589428288;0,8538888888889;0,4441823327987
23/08/2006;38952;19:00;0,7916666666667;0,7917;;;-0,7682197945797;;3,1858465735956;3,2771603627645;166,442782054271;;19;2,85;183;0,1491574752924;2,8460941740505;;0,841581055278;0,1154316929966;2,85;3,2771603627645;;;;;1,0173225106035;0,7438888888889;0,074765945484
23/08/2006;38952;20:00;0,8333333333333;0,8333;;;-0,6715437781074;;2,5718241605664;2,6580539044173;165,365920547571;;20;2,64;181;0,0460743529944;2,6395979152129;;0,5149757820861;0,0045932818189;2,64;2,6580539044173;;;;;0,3982160522562;0,5338888888889;0,0184071186
23/08/2006;38952;21:00;0,875;0,8750;;;0,0524181166094;;1,0343469039672;1,0356742618678;182,901125076199;;21;1,55;238;1,3144745490425;0,8213748595615;;1,5927864386458;0,0453570916984;1,55;1,0356742618678;;;;;-1,2241635902932;-0,5561111111111;0,4462941149414
23/08/2006;38952;22:00;0,9166666666667;0,9167;;;0,5543842063739;;-1,2654008538903;1,3815140858143;336,341314740918;;22;1,38;12;-0,2869181333285;-1,3498436890127;;0,7077896267888;0,0071305924035;1,38;1,3815140858143;;;;;-0,8783237663468;-0,7261111111111;0,0231686924139
23/08/2006;38952;23:00;0,9583333333333;0,9583;;;0,2491785412045;;-1,4388988498206;1,4603149815748;350,175350470064;;23;1,06;16;-0,292175597166;-1,0189373976946;;0,2930643031309;0,1763676212718;1,06;1,4603149815748;;;;;-0,7995228705862;-1,0461111111111;0,0608057603652
24/08/2006;38953;00:00;0;1,0000;;;0,1836048767937;;-1,3467539811686;1,359211917464;352,236646398111;;24;1,04;9;-0,1626918436418;-1,027195874219;;0,1199214185844;0,1021173837173;1,04;1,359211917464;;;;;-0,9006259346971;-1,0661111111111;0,0273853436128
24/08/2006;38953;01:00;0,0416666666667;1,0417;;;0,2225519946999;;-1,1519492138083;1,1732503490468;349,065399201139;;1;0,74;353;0,0901833141198;-0,7344841522146;;0,0175214675985;0,1742770776515;0,74;1,1732503490468;;;;;-1,0865875031142;-1,3661111111111;0,0781334474276
24/08/2006;38953;02:00;0,0833333333333;1,0833;;;0,2650686885989;;-0,8380202243619;0,8789421517455;342,447657286075;;2;0,77;342;0,2379430856687;-0,7323135175473;;0,0007357983343;0,0111739078656;0,77;0,8789421517455;;;;;-1,3808957004155;-1,3361111111111;0,0020056594392
24/08/2006;38953;03:00;0,125;1,1250;;;0,0601321363566;;-0,9518869314198;0,9537843592923;356,385342158026;;3;0,83;317;0,5660586388519;-0,6070235723439;;0,2559616259271;0,1189307364331;0,83;0,9537843592923;;;;;-1,3060534928687;-1,2761111111111;0,0008965462253
24/08/2006;38953;04:00;0,1666666666667;1,1667;;;-0,4052575597125;;-1,8030509433521;1,8480331149704;12,667410276041;;4;0,81;327;0,4411576183622;-0,6793231600358;;0,7164186536751;1,2627641309971;0,81;1,8480331149704;;;;;-0,4118047371906;-1,2961111111111;0,7819977629564
24/08/2006;38953;05:00;0,2083333333333;1,2083;;;-0,5439314363639;;-2,3745981691799;2,4360989045065;12,9017390237542;;5;0,96;329;0,4944365519137;-0,822880608674;;1,0782080790796;2,4078273875824;0,96;2,4360989045065;;;;;0,1762610523454;-1,1461111111111;1,7486681386848
24/08/2006;38953;06:00;0,25;1,2500;;;-0,727197341794;;-2,516966141917;2,6199111690034;16,1149685694126;;6;0,79;333;0,3586524947942;-0,7038951541088;;1,1790698676186;3,2872264068317;0,79;2,6199111690034;;;;;0,3600733168424;-1,3161111111111;2,8095942365137
24/08/2006;38953;07:00;0,2916666666667;1,2917;;;-0,8611947971835;;-2,7304489231933;2,8630417043528;17,5054883377291;;7;0,94;323;0,5657061217629;-0,7507173794445;;2,0360462324902;3,919336985314;0,94;2,8630417043528;;;;;0,6032038521917;-1,1661111111111;3,1304754393674
24/08/2006;38953;08:00;0,3333333333333;1,3333;;;-0,9815642201973;;-3,1040092015121;3,25550939815;17,5482382566341;;8;0,77;335;0,3254160615403;-0,6978569960182;;1,7081974568511;5,7895684360029;0,77;3,25550939815;;;;;0,995671545989;-1,3361111111111;5,4372103599529
24/08/2006;38953;09:00;0,375;1,3750;;;-1,1063610242876;;-3,4653250040415;3,6376520036554;17,7065233991735;;9;0,68;306;0,550131556175;-0,3996939715589;;2,7439676691274;9,3980936273207;0,68;3,6376520036554;;;;;1,3778141514944;-1,4261111111111;7,8619968782773
24/08/2006;38953;10:00;0,4166666666667;1,4167;;;-1,194908645815;;-3,7335274483086;3,9200808510944;17,7471754172695;;10;0,96;321;0,6041475754078;-0,7460601229987;;3,2366032871205;8,9249610197942;0,96;3,9200808510944;;;;;1,6602429989334;-1,1461111111111;7,8756233909636
24/08/2006;38953;11:00;0,4583333333333;1,4583;;;-1,2014805396002;;-3,8113525062917;3,9962436630233;17,4967963635241;;11;0,83;325;0,4760684421714;-0,6798961967599;;2,8141705862429;9,8060186185066;0,83;3,9962436630233;;;;;1,7364058108623;-1,2761111111111;9,075258205176
24/08/2006;38953;12:00;0,5;1,5000;;;-0,8178202982009;;-2,7974822398027;2,9145731972556;16,2958347159485;;12;0,7;6;-0,0731699242874;-0,6961653267578;;0,5545041793696;4,4155327690485;0,7;2,9145731972556;;;;;0,6547353450946;-1,4061111111111;4,2470881160557
24/08/2006;38953;13:00;0,5416666666667;1,5417;;;-0,1625886522468;;1,2808275098283;1,2911057972809;172,765548187703;;13;0,88;31;-0,4532335059208;-0,7543072246179;;0,0844744309672;4,1417733873492;0,88;1,2911057972809;;;;;-0,9687320548801;-1,2261111111111;0,0662439785864
24/08/2006;38953;14:00;0,5833333333333;1,5833;;;-0,9361143863352;;3,1341707350948;3,2709840019524;163,37016211251;;14;2,07;198;0,6396651783561;1,968686988731;;2,4830812364989;1,3583523630384;2,07;3,2709840019524;;;;;1,0111461497914;-0,0361111111111;1,0967477705131
24/08/2006;38953;15:00;0,625;1,6250;;;-1,6215974970502;;3,1576220192337;3,5496697393968;152,817224466442;;15;2,27;205;0,9593434541514;2,0573186765732;;6,6612561935896;1,21066744587;2,27;3,5496697393968;;;;;1,2898318872358;0,1638888888889;1,2677476355264
24/08/2006;38953;16:00;0,6666666666667;1,6667;;;-1,5759401297002;;3,6846879008099;4,0075568890253;156,843615979625;;16;1,97;213;1,0729388989796;1,6521810188525;;7,0165601085795;4,1310842252041;1,97;4,0075568890253;;;;;1,7477190368643;-0,1361111111111;3,5488160264209
24/08/2006;38953;17:00;0,7083333333333;1,7083;;;-1,5513820002922;;3,8056799242876;4,1097427896349;157,821778459009;;17;2,6;211;1,3390989947661;2,2286349818255;;8,3548803827933;2,4870707505452;2,6;4,1097427896349;;;;;1,8499049374739;0,4938888888889;1,83877952402
24/08/2006;38953;18:00;0,75;1,7500;;;-1,6513439636571;;3,5856944270554;3,9476754439192;155,272193628221;;18;3,09;158;-1,1575343736552;2,8649981106114;;0,2438479111779;0,519403180536;3,09;3,9476754439192;;;;;1,6878375917582;0,9838888888889;0,4955437762714
24/08/2006;38953;19:00;0,7916666666667;1,7917;;;-1,7122204534572;;3,23613885551;3,6611874540071;152,116968223839;;19;2,87;210;1,435;2,4854929088613;;9,9049965826594;0,5634693372201;2,87;3,6611874540071;;;;;1,4013496018461;0,7638888888889;0,4063561605639
24/08/2006;38953;20:00;0,8333333333333;1,8333;;;-1,2864309140031;;2,7220784058457;3,0107499637257;154,70498350638;;20;2,25;169;-0,4293202395972;2,2086611627573;;0,7346387081805;0,2635972655006;2,25;3,0107499637257;;;;;0,7509121115647;0,1438888888889;0,3684771928677
24/08/2006;38953;21:00;0,875;1,8750;;;0,1528830027934;;1,62872281347;1,6358823966474;185,362458959284;;21;2,17;171;-0,3394627891373;2,1432836990915;;0,2424043788319;0,2647729050115;2,17;1,6358823966474;;;;;-0,6239554555136;0,0638888888889;0,4731298421265
24/08/2006;38953;22:00;0,9166666666667;1,9167;;;1,7199683703409;;-0,69613649643;1,855504571979;292,035048322149;;22;1,7;220;1,0927389364671;1,3022755533023;;0,3934167627176;3,9936507205153;1,7;1,855504571979;;;;;-0,404333280182;-0,4061111111111;0,0000031606828
24/08/2006;38953;23:00;0,9583333333333;1,9583;;;0,9896580262276;;-0,9516793979318;1,3729955154059;313,879258416815;;23;1;295;0,9063077870367;-0,4226182617407;;0,0069472623732;0,2799056858279;1;1,3729955154059;;;;;-0,8868423367552;-1,1061111111111;0,0480787954076
25/08/2006;38954;00:00;0;2,0000;;;0,3790806690984;;-0,7040919468016;0,7996546899975;331,70213130376;;24;1,13;250;1,0618526614881;0,386482761958;;0,4661775935918;1,1893531953862;1,13;0,7996546899975;;;;;-1,4601831621635;-0,9761111111111;0,2343257506101
25/08/2006;38954;01:00;0,0416666666667;2,0417;;;-0,2154059249313;;-0,4401577746035;0,4900393647856;26,0763603275046;;1;1,24;262;1,2279324052396;0,1725746451905;;2,0832255353404;0,3754410182666;1,24;0,4900393647856;;;;;-1,7697984873754;-0,8661111111111;0,8166508740195
25/08/2006;38954;02:00;0,0833333333333;2,0833;;;-0,4593822933711;;0,0495209491175;0,4620437380426;96,1526681901377;;2;1,2;29;-0,5817715442956;-1,0495436485673;;0,0149791287419;1,207942989884;1,2;0,4620437380426;;;;;-1,7977941141184;-0,9061111111111;0,7950985778521
25/08/2006;38954;03:00;0,125;2,1250;;;-0,2947459773765;;0,0845076362952;0,3066214796322;105,998309265642;;3;1,32;33;-0,7189235262198;-1,107045149688;;0,1799265929428;1,4197980417843;1,32;0,3066214796322;;;;;-1,9532163725289;-0,7861111111111;1,362134691229
25/08/2006;38954;04:00;0,1666666666667;2,1667;;;-0,1355816276809;;-0,3540728837998;0,3791437521666;20,9528479477532;;4;1,89;36;-1,1109141268328;-1,5290421193687;;0,9512734839018;1,3805527045331;1,89;0,3791437521666;;;;;-1,8806940999944;-0,2161111111111;2,7708365268798
25/08/2006;38954;05:00;0,2083333333333;2,2083;;;0,0598485072564;;-0,9106569451461;0,9126214525002;356,239920226653;;5;1,75;7;-0,213271350959;-1,7369557653723;;0,0745944569516;0,6827697403073;1,75;0,9126214525002;;;;;-1,3472163996608;-0,3561111111111;0,9822896929911
25/08/2006;38954;06:00;0,25;2,2500;;;0,212804838549;;-1,3859778103921;1,4022198080933;351,270901347678;;6;1,25;12;-0,2598896135222;-1,2226845009173;;0,2234400450188;0,0266647049193;1,25;1,4022198080933;;;;;-0,8576180440677;-0,8561111111111;0,0000022708469
25/08/2006;38954;07:00;0,2916666666667;2,2917;;;0,2039777475279;;-1,6768014048462;1,6891624767265;353,064222027777;;7;0,96;239;0,822880608674;0,4944365519137;;0,3830407515348;4,7142742648749;0,96;1,6891624767265;;;;;-0,5706753754345;-1,1461111111111;0,3311262858937
25/08/2006;38954;08:00;0,3333333333333;2,3333;;;0,1354640253711;;-1,8872403616325;1,8920958444922;355,894413616609;;8;0,57;888;NaN;NaN;;NaN;NaN;0,57;1,8920958444922;;;;;-0,3677420076688;;
25/08/2006;38954;09:00;0,375;2,3750;;;0,0523579318978;;-2,070561609326;2,0712234865044;358,551480258477;;9;0,46;777;NaN;NaN;;NaN;NaN;0,46;2,0712234865044;;;;;-0,1886143656567;;
25/08/2006;38954;10:00;0,4166666666667;2,4167;;;-0,0584206768593;;-2,2415692034008;2,24233036574;1,4929276554538;;10;0,64;888;NaN;NaN;;NaN;NaN;0,64;2,24233036574;;;;;-0,017507486421;;
25/08/2006;38954;11:00;0,4583333333333;2,4583;;;0,1773581188063;;-1,6630350168119;1,672465655686;353,912571566587;;11;1,13;357;0,0591396305545;-1,1284513742727;;0,0139756109645;0,2857796708705;1,13;1,672465655686;;;;;-0,5873721964751;-0,9761111111111;0,1511179437524
25/08/2006;38954;12:00;0,5;2,5000;;;0,4243160516896;;-0,2295527910269;0,4824298867087;298,413158987779;;12;1,35;320;0,8677632730768;-1,0341599982106;;0,196645438156;0,647392757852;1,35;0,4824298867087;;;;;-1,7774079654524;-0,7561111111111;1,0430472646873
25/08/2006;38954;13:00;0,5416666666667;2,5417;;;-0,0533637775361;;0,7124624641492;0,7144581552298;175,716517135218;;13;3,14;54;-2,5403133623373;-1,8456456921984;;6,1849182373429;6,5439173395717;3,14;0,7144581552298;;;;;-1,5453796969312;1,0338888888889;6,6526264377983
25/08/2006;38954;14:00;0,5833333333333;2,5833;;;-1,0478365806843;;0,8737159842901;1,3643097599241;129,822309886832;;14;2,73;203;1,0666959807757;2,5129782499252;;4,4712479534745;2,687180775535;2,73;1,3643097599241;;;;;-0,8955280922369;0,6238888888889;2,3086279625335
25/08/2006;38954;15:00;0,625;2,6250;;;-1,8518213130215;;2,5388263359816;3,1424323922138;143,892968310172;;15;2,4;201;0,8600830789087;2,2405930235933;;7,3544254309706;0,0889431086181;2,4;3,1424323922138;;;;;0,8825945400528;0,2938888888889;0,3465743437123
25/08/2006;38954;16:00;0,6666666666667;2,6667;;;-1,7164403010456;;3,6270627689877;4,0126987972225;154,675013446287;;16;2,7;202;1,011437802223;2,5033964073303;;7,4413189462923;1,2626260923204;2,7;4,0126987972225;;;;;1,7528609450614;0,5938888888889;1,3432162269888
25/08/2006;38954;17:00;0,7083333333333;2,7083;;;-1,7937119363942;;3,4239566621092;3,8653436761516;152,351256335544;;17;2,43;195;0,6289302795991;2,3471997578824;;5,8691953067129;1,1594054308;2,43;3,8653436761516;;;;;1,6055058239905;0,3238888888889;1,6425419683394
25/08/2006;38954;18:00;0,75;2,7500;;;-1,7983468509585;;3,3569925233291;3,8083395591832;151,82196689266;;18;2,55;204;1,0371784398433;2,3295409169886;;8,0402036747765;1,0556568033716;2,55;3,8083395591832;;;;;1,5485017070222;0,4438888888889;1,2201694779844
25/08/2006;38954;19:00;0,7916666666667;2,7917;;;-1,3018575699411;;3,3720041122912;3,6145877864179;158,889507980821;;19;3;205;1,2678547852221;2,71892336111;;6,6034215882782;0,4265144675634;3;3,6145877864179;;;;;1,3547499342569;0,8938888888889;0,2123929031377
25/08/2006;38954;20:00;0,8333333333333;2,8333;;;-0,2868873759659;;2,682577865305;2,697874787664;173,895723685166;;20;2,76;206;1,2099043651379;2,4806715677857;;2,2403855162365;0,0407661529779;2,76;2,697874787664;;;;;0,4380369355029;0,6538888888889;0,0465920657805
25/08/2006;38954;21:00;0,875;2,8750;;;2,0867492213865;;0,5115908011576;2,148545429072;256,224964341074;;21;2,05;208;0,9624167037111;1,8100425653608;;1,2641236103023;1,6859769839624;2,05;2,148545429072;;;;;-0,111292423089;-0,0561111111111;0,0030449771916
25/08/2006;38954;22:00;0,9166666666667;2,9167;;;1,46636244806;;-0,1872021239182;1,4782636653453;277,275270924639;;22;0,76;257;0,7405212492368;0,1709628013013;;0,5268454459091;0,1282821136576;0,76;1,4782636653453;;;;;-0,7815741868158;-1,3461111111111;0,3187019388928
25/08/2006;38954;23:00;0,9583333333333;2,9583;;;0,3266023677776;;-0,0791186833913;0,3360489141472;283,617442622463;;23;1,04;4;-0,0725467326939;-1,0374666122702;;0,1593200044072;0,9184307527864;1,04;0,3360489141472;;;;;-1,9237889380139;-1,0661111111111;0,7356112547606
26/08/2006;38955;00:00;0;3,0000;;;-0,0126851385621;;0,3670160556653;0,3672352078116;178,020479796587;;24;0,86;9;-0,1345336399346;-0,8494119729118;;0,0148470572867;1,479697148708;0,86;0,3672352078116;;;;;-1,8926026443494;-1,2461111111111;0,4179513025488
26/08/2006;38955;01:00;0,0416666666667;3,0417;;;0,2824461593237;;0,1893673899759;0,3400527037137;236,159932863577;;1;0,81;351;0,1267119166826;-0,8000275558821;;0,024253154331;0,9789023588893;0,81;0,3400527037137;;;;;-1,9197851484473;-1,2961111111111;0,3889693048473
26/08/2006;38955;02:00;0,0833333333333;3,0833;;;0,2675175837568;;0,0325294906803;0,2694880802243;263,067008531228;;2;0,93;1;-0,0162307379867;-0,9298583564954;;0,0805131100922;0,9261903683916;0,93;0,2694880802243;;;;;-1,9903497719367;-1,1761111111111;0,662984596783
26/08/2006;38955;03:00;0,125;3,1250;;;0,7435924873424;;-0,3577185554049;0,8251620156751;295,690718726332;;3;0,8;353;0,0974954747241;-0,7940369213131;;0,4174413497143;0,1903737164287;0,8;0,8251620156751;;;;;-1,4346758364859;-1,3061111111111;0,0165288886107
26/08/2006;38955;04:00;0,1666666666667;3,1667;;;0,074179386378;;-0,4591609243173;0,4651143254978;350,822916560302;;4;0,28;777;NaN;NaN;;NaN;NaN;0,28;0,4651143254978;;;;;-1,7947235266632;;
26/08/2006;38955;05:00;0,2083333333333;3,2083;;;-0,6394383475208;;-1,1659923131599;1,3298193390939;28,7406720406317;;5;0,43;777;NaN;NaN;;NaN;NaN;0,43;1,3298193390939;;;;;-0,9300185130671;;
26/08/2006;38955;06:00;0,25;3,2500;;;-0,696344029918;;-1,4164852331215;1,5783933044884;26,1787277331103;;6;0,47;888;NaN;NaN;;NaN;NaN;0,47;1,5783933044884;;;;;-0,6814445476727;;
26/08/2006;38955;07:00;0,2916666666667;3,2917;;;-0,8690810697258;;-1,9557955904869;2,140195854945;23,9585401351694;;7;0,89;266;0,8878320047312;0,0620832616323;;3,0867435511981;4,07183506183;0,89;2,140195854945;;;;;-0,119641997216;-1,2161111111111;1,202244517726
26/08/2006;38955;08:00;0,3333333333333;3,3333;;;-1,2092976343132;;-2,601086382368;2,8684579719591;24,9346688022676;;8;1,11;200;0,3796423590915;1,0430588090724;;2,5247303026408;13,2797941762981;1,11;2,8684579719591;;;;;0,6086201197981;-0,9961111111111;2,5751623234554
26/08/2006;38955;09:00;0,375;3,3750;;;-1,5199060879523;;-3,3695137104357;3,6964492639571;24,278983488584;;9;1,07;218;0,6587577785985;0,8431715063592;;4,7465762434141;17,7467167358021;1,07;3,6964492639571;;;;;1,436611411796;-1,0361111111111;6,1143566752923
26/08/2006;38955;10:00;0,4166666666667;3,4167;;;-1,7306217560559;;-4,1134520869247;4,4626830196597;22,8175844732614;;10;3,61;47;-2,6401868628452;-2,4620140798256;;0,8273086834887;2,7272474912913;3,61;4,4626830196597;;;;;2,2028451674987;1,5038888888889;0,488539879408
26/08/2006;38955;11:00;0,4583333333333;3,4583;;;-1,7967557608842;;-3,458683932427;3,8975409951275;27,4514782938209;;11;3,91;44;-2,7161142284947;-2,8126186193241;;0,8452199919671;0,4174003887947;3,91;3,8975409951275;;;;;1,6377031429664;1,8038888888889;0,0276177021478
26/08/2006;38955;12:00;0,5;3,5000;;;-1,6020201713532;;-1,5377539679165;2,2206206103847;46,1725901176291;;12;3,08;68;-2,8557262720657;-1,153788307721;;1,5717789869639;0,1474296282093;3,08;2,2206206103847;;;;;-0,0392172417763;0,9738888888889;1,0263840319915
26/08/2006;38955;13:00;0,5416666666667;3,5417;;;-0,8997960259431;;0,6355090468155;1,1015918649334;125,232843798363;;13;3,52;62;-3,1079755268634;-1,6525399010063;;4,8760567082847;5,2351679876285;3,52;1,1015918649334;;;;;-1,1582459872277;1,4138888888889;6,6158778209351
26/08/2006;38955;14:00;0,5833333333333;3,5833;;;-0,7853067184213;;-0,559344256736;0,9641434745624;54,5391676674506;;14;2,98;45;-2,1071782079359;-2,1071782079359;;1,7473442347915;2,395789940487;2,98;0,9641434745624;;;;;-1,2956943775986;0,8738888888889;4,7070915502226
26/08/2006;38955;15:00;0,625;3,6250;;;-0,7157829999564;;0,5911937293542;0,9283616367851;129,55465903373;;15;3,05;338;1,1425501099185;-2,8279107564287;;3,4534019472576;11,6902754847006;3,05;0,9283616367851;;;;;-1,3314762153759;0,9438888888889;5,1772863577059
26/08/2006;38955;16:00;0,6666666666667;3,6667;;;-1,5621045638365;;2,5819933014762;3,0177574583168;148,82608427595;;16;3,77;200;1,2894159403378;3,5426411803629;;8,1311691857263;0,9228443472095;3,77;3,0177574583168;;;;;0,7579196061558;1,6638888888889;0,8207803412559
26/08/2006;38955;17:00;0,7083333333333;3,7083;;;-2,9625405405561;;3,398914287896;4,5087985972875;138,924144545605;;17;2,89;200;0,9884382142112;2,7157116740713;;15,6102331206227;0,4667658115369;2,89;4,5087985972875;;;;;2,2489607451265;0,7838888888889;2,1464355439396
26/08/2006;38955;18:00;0,75;3,7500;;;-3,3210200520836;;3,4869084867889;4,8153613552444;136,395847012828;;18;2,61;210;1,305;2,2603263038774;;21,4000615222792;1,5045038514359;2,61;4,8153613552444;;;;;2,5555235030834;0,5038888888889;4,209204590161
26/08/2006;38955;19:00;0,7916666666667;3,7917;;;-2,2647437762225;;2,536751001102;3,4006131819909;138,242370689735;;19;2,87;202;1,0751209231037;2,6610176626067;;11,1546962098048;0,0154422031615;2,87;3,4006131819909;;;;;1,1407753298299;0,7638888888889;0,1420433893652
26/08/2006;38955;20:00;0,8333333333333;3,8333;;;0,369686319877;;2,5310784190979;2,5579339199298;188,30979479339;;20;1,7;201;0,609225514227;1,5870867250453;;0,0573790256299;0,8911203184404;1,7;2,5579339199298;;;;;0,2980960677688;-0,4061111111111;0,495907750786
26/08/2006;38955;21:00;0,875;3,8750;;;1,3514580735623;;1,3197054499052;1,8889312849085;225,681053639547;;21;1,12;338;0,4195593846258;-1,0384459171148;;0,8684351664415;5,5608778697782;1,12;1,8889312849085;;;;;-0,3709065672525;-0,9861111111111;0,3784766307843
26/08/2006;38955;22:00;0,9166666666667;3,9167;;;0,6842932520507;;-0,4188302498247;0,8022942309218;301,469238092911;;22;1,1;1;-0,019197647081;-1,099832464672;;0,4948994451612;0,463764016627;1,1;0,8022942309218;;;;;-1,4575436212392;-1,0061111111111;0,2037913112006
26/08/2006;38955;23:00;0,9583333333333;3,9583;;;0,267088681215;;-1,5941338988109;1,6163536899365;350,488736994541;;23;0,84;888;NaN;NaN;;NaN;NaN;0,84;1,6163536899365;;;;;-0,6434841622246;;
27/08/2006;38956;00:00;0;4,0000;;;-0,7166131339083;;-1,0946699711328;1,3083717856136;33,2103032574033;;24;4,06;22;-1,5209027692686;-3,7643664495412;;0,6468818175481;7,1272792868262;4,06;1,3083717856136;;;;;-0,9514660665475;1,9538888888889;8,4410874170786
27/08/2006;38956;01:00;0,0416666666667;4,0417;;;-0,1536508766989;;-0,477250926684;0,5013751478993;17,8459564174712;;1;5,66;7;-0,6897804836731;-5,6178112182899;;0,2874349554744;26,4253601116351;5,66;0,5013751478993;;;;;-1,7584627042617;3,5538888888889;28,2210794492494
27/08/2006;38956;02:00;0,0833333333333;4,0833;;;-0,2507350423642;;-0,4355159422563;0,5025357673129;29,9298755301646;;2;6,97;360;NaN;NaN;;NaN;NaN;6,97;0,5025357673129;;;;;-1,7573020848482;;
27/08/2006;38956;03:00;0,125;4,1250;;;0,0970841656653;;-0,7247069399385;0,7311808832416;352,369893080732;;3;5,87;276;5,8378435258118;-0,6135820793811;;32,9563180311092;0,0123487346339;5,87;0,7311808832416;;;;;-1,5286569689194;3,7638888888889;28,011041657004
27/08/2006;38956;04:00;0,1666666666667;4,1667;;;-0,0847497586978;;-0,5914842762373;0,597525037664;8,1540238672206;;4;4,03;314;2,8989393953648;-2,7994732329498;;8,9024009680709;4,8752152329641;4,03;0,597525037664;;;;;-1,6623128144971;1,9238888888889;12,8608426573682
27/08/2006;38956;05:00;0,2083333333333;4,2083;;;-0,1924665567294;;-0,5835634147804;0,6144832255883;18,2532057096088;;5;3,32;318;2,2215136131114;-2,467240820585;;5,8273002603845;3,5482405691387;3,32;0,6144832255883;;;;;-1,6453546265727;1,2138888888889;8,1752734807093
27/08/2006;38956;06:00;0,25;4,2500;;;-0,3844073619559;;-0,9011795825295;0,9797416291523;23,1011670546297;;6;6,1;4;-0,4255144898392;-6,0851407065849;;0,0016897959628;26,8734529357182;6,1;0,9797416291523;;;;;-1,2800962230088;3,9938888888889;27,8149189605181
27/08/2006;38956;07:00;0,2916666666667;4,2917;;;-0,1995296131028;;-0,9778286174142;0,9979783923207;11,5330879122456;;7;6,03;355;0,5255491287684;-6,0070540294932;;0,5257391819134;25,2931082455019;6,03;0,9979783923207;;;;;-1,2618594598403;3,9238888888889;26,8919859363477
27/08/2006;38956;08:00;0,3333333333333;4,3333;;;-0,4680295220359;;-1,2536406229062;1,3381578549999;20,4724275147513;;8;4,59;357;0,2402220391551;-4,5837095645235;;0,5016202739295;11,0893591559241;4,59;1,3381578549999;;;;;-0,9216799971612;2,4838888888889;11,5978994376322
27/08/2006;38956;09:00;0,375;4,3750;;;-0,811525115733;;-0,770018418142;1,1187052237937;46,5033495865696;;9;6,21;19;-2,021778239179;-5,8716703544718;;1,4647126228108;26,0268524794573;6,21;1,1187052237937;;;;;-1,1411326283673;4,1038888888889;27,5102507164808
27/08/2006;38956;10:00;0,4166666666667;4,4167;;;-0,8735776286315;;-0,4287572683319;0,973124179328;63,8579119000534;;10;4;16;-1,102549423268;-3,8450467837533;;0,0524280827391;11,6710340531781;4;0,973124179328;;;;;-1,286713672833;1,8938888888889;10,1162326556319
27/08/2006;38956;11:00;0,4583333333333;4,4583;;;-0,6191969146622;;0,2777766558447;0,6786491653715;114,161383260764;;11;3,44;32;-1,8229222689622;-2,9172854507781;;1,4489547285847;10,2084218651769;3,44;0,6786491653715;;;;;-1,5811886867895;1,3338888888889;8,4976772722229
27/08/2006;38956;12:00;0,5;4,5000;;;-0,3730276090331;;0,7611636559892;0,8476554183746;153,891660853062;;12;1,6;257;1,5589921036564;0,3599216869502;;3,7327001702206;0,1609951177183;1,6;0,8476554183746;;;;;-1,4121824337864;-0,5061111111111;0,8209652417746
27/08/2006;38956;13:00;0,5416666666667;4,5417;;;-0,4389194914587;;1,3352012836725;1,4054937879276;161,80280199728;;13;1,37;888;NaN;NaN;;NaN;NaN;1,37;1,4054937879276;;;;;-0,8543440642334;;
27/08/2006;38956;14:00;0,5833333333333;4,5833;;;0,2032928870177;;1,7227354835136;1,7346888897058;186,730113258581;;14;2,16;888;NaN;NaN;;NaN;NaN;2,16;1,7346888897058;;;;;-0,5251489624552;;
27/08/2006;38956;15:00;0,625;4,6250;;;1,6817822085572;;0,4610979035382;1,7438470901047;254,667853631702;;15;3,63;259;3,563306675915;0,6926366532169;;3,5401343212663;0,0536101926028;3,63;1,7438470901047;;;;;-0,5159907620563;1,5238888888889;4,1611089903403
27/08/2006;38956;16:00;0,6666666666667;4,6667;;;3,5625890320631;;0,2809795893421;3,5736522132131;265,490445886584;;16;5,42;266;5,4067971524083;0,3780800876932;;3,4011035911471;0,00942850678;5,42;3,5736522132131;;;;;1,3138143610521;3,3138888888889;4,0002981169016
27/08/2006;38956;17:00;0,7083333333333;4,7083;;;-0,7619246121117;;3,6568092355946;3,7353424073399;168,23036928091;;17;5,19;255;5,0131550384403;1,3432708440821;;33,3515449702199;5,3524598890023;5,19;3,7353424073399;;;;;1,4755045551788;3,0838888888889;2,5869001649239
27/08/2006;38956;18:00;0,75;4,7500;;;-1,467676826817;;3,9635437307919;4,2265534627963;159,68070650266;;18;5,3;269;5,2991927843289;0,0924977541176;;45,7905243342498;14,9849969535264;5,3;4,2265534627963;;;;;1,9667156106353;3,1938888888889;1,5059542548597
27/08/2006;38956;19:00;0,7916666666667;4,7917;;;-1,1296739527678;;3,860537942937;4,0224266865188;163,689422928421;;19;4,5;289;4,2548335901969;-1,4650566950572;;28,9929214802442;28,3619582482324;4,5;4,0224266865188;;;;;1,7625888343577;2,3938888888889;0,3985397588511
27/08/2006;38956;20:00;0,8333333333333;4,8333;;;-1,3510430065864;;2,8765524987135;3,1780294969526;154,841758533485;;20;3,27;203;1,2776907901599;3,0100508707895;;6,9102413741562;0,0178218153469;3,27;3,1780294969526;;;;;0,9181916447916;1,1638888888889;0,060367135757
27/08/2006;38956;21:00;0,875;4,8750;;;-1,440282406407;;2,1383558820579;2,5781736342879;146,037895437969;;21;2,01;171;-0,3144332747309;1,9852535645962;;1,2675362672959;0,0234403196121;2,01;2,5781736342879;;;;;0,3183357821269;-0,0961111111111;0,1717662273146
27/08/2006;38956;22:00;0,9166666666667;4,9167;;;-1,1274602622296;;1,090380945715;1,5684697158968;134,042181005497;;22;1,36;8;-0,1892754173057;-1,3467645734885;;0,880190803245;5,939678281774;1,36;1,5684697158968;;;;;-0,6913681362643;-0,7461111111111;0,0029967932951
27/08/2006;38956;23:00;0,9583333333333;4,9583;;;-0,2784961052696;;-0,5322057942945;0,6006688672896;27,6224550558105;;23;1,59;30;-0,795;-1,3769803920173;;0,2667762732717;0,7136441209577;1,59;0,6006688672896;;;;;-1,6591689848714;-0,5161111111111;1,3065813027655
28/08/2006;38957;00:00;0;5,0000;;;-0,0168717807924;;-1,3021342812583;1,3022435806773;0,7423410586065;;24;0,77;888;NaN;NaN;;NaN;NaN;0,77;1,3022435806773;;;;;-0,9575942714837;;
28/08/2006;38957;01:00;0,0416666666667;5,0417;;;-0,0820794944862;;-1,5499292658765;1,5521010832531;3,0313768906621;;1;0,86;8;-0,1196888668257;-0,8516305391178;;0,0014144648878;0,4876211117929;0,86;1,5521010832531;;;;;-0,7077367689079;-1,2461111111111;0,2898469323427
28/08/2006;38957;02:00;0,0833333333333;5,0833;;;-0,0602642660106;;-1,6712671785008;1,6723533608935;2,0651352253121;;2;1,14;27;-0,5175491697031;-1,0157474375747;;0,209109483145;0,4297061307437;1,14;1,6723533608935;;;;;-0,5874844912675;-0,9661111111111;0,1433581172542
28/08/2006;38957;03:00;0,125;5,1250;;;0,1532634808547;;-1,4671925820118;1,4751758428317;354,036490090087;;3;1,01;19;-0,3288238360017;-0,9549737613553;;0,2324081810738;0,2623681202347;1,01;1,4751758428317;;;;;-0,7846620093293;-1,0961111111111;0,0970005430007
28/08/2006;38957;04:00;0,1666666666667;5,1667;;;0,28647230899;;-1,4038256903562;1,4327571157465;348,46626995318;;4;0,62;888;NaN;NaN;;NaN;NaN;0,62;1,4327571157465;;;;;-0,8270807364145;;
28/08/2006;38957;05:00;0,2083333333333;5,2083;;;0,2524921592289;;-1,837363146694;1,8546308590394;352,175369641505;;5;1,37;13;-0,3081829444511;-1,3348869887558;;0,3143565718865;0,2524822892964;1,37;1,8546308590394;;;;;-0,4052069931216;-0,7361111111111;0,1094975353024
28/08/2006;38957;06:00;0,25;5,2500;;;0,150081300706;;-1,9117293132112;1,9176113693375;355,511171745782;;6;1,62;35;-0,9291938268887;-1,3270263117482;;1,1648348010447;0,3418775999199;1,62;1,9176113693375;;;;;-0,3422264828235;-0,4861111111111;0,0207027862575
28/08/2006;38957;07:00;0,2916666666667;5,2917;;;0,2882086725059;;-1,670437044549;1,6951177418425;350,21085503655;;7;0,55;888;NaN;NaN;;NaN;NaN;0,55;1,6951177418425;;;;;-0,5647201103186;;
28/08/2006;38957;08:00;0,3333333333333;5,3333;;;0,428439050317;;-1,3580299673475;1,4240103272275;342,490259081224;;8;1,08;171;-0,1689492222435;1,0667034078428;;0,3568727481928;5,8793319407616;1,08;1,4240103272275;;;;;-0,8358275249336;-1,0261111111111;0,0362078431686
28/08/2006;38957;09:00;0,375;5,3750;;;0,4076511126069;;-0,9114179012686;0,9984297773817;335,902400064359;;9;0,57;888;NaN;NaN;;NaN;NaN;0,57;0,9984297773817;;;;;-1,2614080747793;;
28/08/2006;38957;10:00;0,4166666666667;5,4167;;;0,1602919483134;;-0,4098648031451;0,4400939281009;338,640280842313;;10;0,98;218;0,6033482458191;0,7722505385346;;0,1962988827595;1,3973966810344;0,98;0,4400939281009;;;;;-1,8197439240602;-1,1261111111111;0,4811264791996
28/08/2006;38957;11:00;0,4583333333333;5,4583;;;-0,0198990026034;;-0,1716578656704;0,1728073874322;6,6123543084159;;11;0,91;251;0,8604219037954;0,296267020556;;0,7749648982428;0,21895369915;0,91;0,1728073874322;;;;;-2,0870304647288;-1,1961111111111;0,7937372946506
28/08/2006;38957;12:00;0,5;5,5000;;;-1,021479827714;;1,2036250523091;1,5786495193591;139,679750325163;;12;1,57;61;-1,3731529402089;-0,7611511037867;;0,1236739780518;3,8603453435627;1,57;1,5786495193591;;;;;-0,6811883328019;-0,5361111111111;0,0210474002535
28/08/2006;38957;13:00;0,5416666666667;5,5417;;;-1,2770227292158;;3,0753695801743;3,3299677334165;157,449720733358;;13;1,08;238;0,9158919438489;0,5723128053719;;4,8088747633426;6,2652932178843;1,08;3,3299677334165;;;;;1,0701298812555;-1,0261111111111;4,3942262980782
28/08/2006;38957;14:00;0,5833333333333;5,5833;;;-1,0661687054536;;3,8726440630677;4,0167259985842;164,607359989179;;14;1,76;238;1,4925646492353;0,9326579050504;;6,5471163803977;8,643518609333;1,76;4,0167259985842;;;;;1,7568881464232;-0,3461111111111;4,4226058771897
28/08/2006;38957;15:00;0,625;5,6250;;;-1,3317423922066;;4,4328461248873;4,62857025075;163,278363805868;;15;1,78;251;1,6830230645668;0,5795113149337;;9,0888107593539;14,8481891575995;1,78;4,62857025075;;;;;2,368732398589;-0,3261111111111;7,2621815417728
28/08/2006;38957;16:00;0,6666666666667;5,6667;;;-1,4513508590979;;4,7587428788058;4,9751435258482;163,039018036686;;16;2,23;221;1,4630116346488;1,6830023638968;;8,4935087449577;9,4601797150526;2,23;4,9751435258482;;;;;2,7153056736872;0,1238888888889;6,7154409525341
28/08/2006;38957;17:00;0,7083333333333;5,7083;;;-1,441804318652;;4,7528627633137;4,9667397898599;163,124567687009;;17;2,71;166;-0,6556083370751;2,629501418208;;0,6181041214476;4,5086634018894;2,71;4,9667397898599;;;;;2,7069019376989;0,6038888888889;4,4226638834651
28/08/2006;38957;18:00;0,75;5,7500;;;-1,754557285;;4,6176892848258;4,9397900357749;159,194994114235;;18;2,99;163;-0,874191397121;2,8593512203295;;0,775044096541;3,0917527490565;2,99;4,9397900357749;;;;;2,6799521836139;0,8838888888889;3,2258433586585
28/08/2006;38957;19:00;0,7916666666667;5,7917;;;-1,8357720566197;;4,4915781019785;4,8522502913636;157,76946495985;;19;2,28;144;-1,3401503752268;1,8445587471749;;0,2456408510667;7,006711464705;2,28;4,8522502913636;;;;;2,5924124392026;0,1738888888889;5,8492561634221
28/08/2006;38957;20:00;0,8333333333333;5,8333;;;-1,817370754021;;3,559752741061;3,9968332508453;152,954194819738;;20;1,98;140;-1,2727194671794;1,5167679973756;;0,2966450242583;4,1737866629314;1,98;3,9968332508453;;;;;1,7369953986843;-0,1261111111111;3,4711658668418
28/08/2006;38957;21:00;0,875;5,8750;;;-1,0692817077729;;2,8431396071528;3,0375658340748;159,389127469176;;21;1,47;120;-1,2730573435631;0,735;;0,0415245097417;4,4442526032462;1,47;3,0375658340748;;;;;0,7777279819138;-0,6361111111111;1,9989409809655
28/08/2006;38957;22:00;0,9166666666667;5,9167;;;-0,2501124419003;;2,0950505609047;2,1099272703912;173,192105191085;;22;0,64;888;NaN;NaN;;NaN;NaN;0,64;2,1099272703912;;;;;-0,1499105817698;;
28/08/2006;38957;23:00;0,9583333333333;5,9583;;;0,2070769142814;;2,2849437023834;2,294307863276;185,178381483998;;23;1,01;258;0,9879290767411;0,2099908077259;;0,6097300996181;4,3054295150474;1,01;2,294307863276;;;;;0,0344700111149;-1,0961111111111;1,2782136739339
29/08/2006;38958;00:00;0;6,0000;;;0,2055065775559;;2,4599636105587;2,4685327461251;184,775429115582;;24;0,86;265;0,8567274403589;0,074953938763;;0,4240886121499;5,6882711345591;0,86;2,4685327461251;;;;;0,208694893964;-1,2461111111111;2,1164605124027
29/08/2006;38958;01:00;0,0416666666667;6,0417;;;0,7020166119221;;2,1157347318709;2,2291614519947;198,356230431511;;1;1,66;297;1,4790708301527;-0,7536242295676;;0,60381325807;8,2332208495874;1,66;2,2291614519947;;;;;-0,0306764001663;-0,4461111111111;0,1725859990578
29/08/2006;38958;02:00;0,0833333333333;6,0833;;;1,001487435041;;1,7338731140338;2,0023219167043;210,010787824811;;2;1,38;303;1,1573653837647;-0,7516018683207;;0,0242979348983;6,1775858879105;1,38;2,0023219167043;;;;;-0,2575159354567;-0,7261111111111;0,2195814386466
29/08/2006;38958;03:00;0,125;6,1250;;;1,3010274359892;;1,6244337880523;2,0812153951388;218,691632960417;;3;1,07;264;1,0641384280441;0,1118454556964;;0,0561164020853;2,2879234631792;1,07;2,0812153951388;;;;;-0,1786224570222;-1,0361111111111;0,7352867918911
29/08/2006;38958;04:00;0,1666666666667;6,1667;;;1,4177304340492;;1,3670230851589;1,9694445153359;226,04317887574;;4;2,14;218;1,3175155571969;1,6863430127184;;0,0100430215425;0,1019652161366;2,14;1,9694445153359;;;;;-0,2903933368251;0,0338888888889;0,105158961914
29/08/2006;38958;05:00;0,2083333333333;6,2083;;;1,6144721806305;;1,934073752081;2,5193573983296;219,853512620267;;5;1,33;229;1,0037637416963;0,8725585085574;;0,3729647973854;1,126814612233;1,33;2,5193573983296;;;;;0,2595195461686;-0,7761111111111;1,0725308582977
29/08/2006;38958;06:00;0,25;6,2500;;;1,0402270194593;;2,9208263094772;3,1005319837324;199,602916885764;;6;2,52;221;1,6532687530561;1,9018681421614;;0,3758201671314;1,0382757467396;2,52;3,1005319837324;;;;;0,8406941315713;0,4138888888889;0,1821627151812
29/08/2006;38958;07:00;0,2916666666667;6,2917;;;1,7726818762814;;2,6715094126141;3,2061446592726;213,566289853231;;7;5,04;209;2,4434404860415;4,4080833239826;;0,4499171125674;3,0156889496457;5,04;3,2061446592726;;;;;0,9463068071116;2,9338888888889;3,9504825318023
29/08/2006;38958;08:00;0,3333333333333;6,3333;;;0,7873128754716;;3,2779222644183;3,3711475695158;193,505839840484;;8;4,9;213;2,6687312715736;4,1094857829326;;3,5397351811913;0,6914978853239;4,9;3,3711475695158;;;;;1,1113097173548;2,7938888888889;2,8310726684804
29/08/2006;38958;09:00;0,375;6,3750;;;0,6073121635853;;2,9324481848027;2,994675344773;191,700587131727;;9;5,81;214;3,248910769165;4,8167082965448;;6,9780431930006;3,5504361687024;5,81;2,994675344773;;;;;0,734837492612;3,7038888888889;8,8152661937339
29/08/2006;38958;10:00;0,4166666666667;6,4167;;;0,6846322234144;;2,9015948729267;2,9812705492679;193,276139702872;;10;3,74;212;1,9818980482322;3,171699879625;;1,6828986202402;0,0729567146435;3,74;2,9812705492679;;;;;0,7214326971069;1,6338888888889;0,8325763019214
29/08/2006;38958;11:00;0,4583333333333;6,4583;;;0,7595033880856;;2,5387571581522;2,6499308112822;196,655261705043;;11;3,18;211;1,637821078214;2,7257920162327;;0,7714419647924;0,0349820381372;3,18;2,6499308112822;;;;;0,3900929591212;1,0738888888889;0,4675768735669
29/08/2006;38958;12:00;0,5;6,5000;;;0,5816610244741;;2,4361664372732;2,504642980045;193,42857990426;;12;2,74;210;1,37;2,3729096063694;;0,6214783403332;0,004001426656;2,74;2,504642980045;;;;;0,244805127884;0,6338888888889;0,1513861730777
29/08/2006;38958;13:00;0,5416666666667;6,5417;;;0,1309467131166;;3,1967074927986;3,1993883534499;182,345695317818;;13;2,17;242;1,9159962765039;1,0187532912454;;3,1864019437491;4,7434845040632;2,17;3,1993883534499;;;;;0,9395505012888;0,0638888888889;0,7667832594309
29/08/2006;38958;14:00;0,5833333333333;6,5833;;;-0,327266474939;;3,6990768893081;3,7135257072804;174,944064925308;;14;2,06;243;1,835473439828;0,9352204294635;;4,6774439389266;7,6389025306248;2,06;3,7135257072804;;;;;1,4536878551193;-0,0461111111111;2,2493969391059
29/08/2006;38958;15:00;0,625;6,6250;;;-0,6150462449031;;3,721006261202;3,7714943297417;170,614423469737;;15;1,64;259;1,6098685808542;0,3129267524175;;4,9502459818746;11,6150059381964;1,64;3,7714943297417;;;;;1,5116564775807;-0,4661111111111;3,9115646348797
29/08/2006;38958;16:00;0,6666666666667;6,6667;;;-0,678385465427;;3,8278860074987;3,8875336816685;169,950275258161;;16;1,03;250;0,9678833994095;0,3522807476254;;2,7102011753299;12,079831922459;1,03;3,8875336816685;;;;;1,6276958295075;-1,0761111111111;7,3105719721374
29/08/2006;38958;17:00;0,7083333333333;6,7083;;;-0,9794197074885;;3,8497462015633;3,9723807445747;165,72611247004;;17;1,17;245;1,0603801108329;0,4944633662366;;4,1607832988238;11,257922905038;1,17;3,9723807445747;;;;;1,7125428924137;-0,9361111111111;7,015368030388
29/08/2006;38958;18:00;0,75;6,7500;;;-0,9558992455203;;3,8853727836623;4,0012329394337;166,178304171535;;18;1,47;13;-0,3306780498855;-1,4323239952343;;0,390901543471;28,2778990322867;1,47;4,0012329394337;;;;;1,7413950872727;-0,6361111111111;5,6525357233535
29/08/2006;38958;19:00;0,7916666666667;6,7917;;;-0,8721940720451;;3,8321750329165;3,9301765841014;167,178032282627;;19;1,09;258;1,0661808847999;0,2266237429914;;3,7572974733237;13,0000001042806;1,09;3,9301765841014;;;;;1,6703387319404;-1,0161111111111;7,2170127592314
29/08/2006;38958;20:00;0,8333333333333;6,8333;;;-0,9440698367068;;3,4254785743542;3,5531917088639;164,591669741387;;20;1,8;246;1,6443818237567;0,7321259575364;;6,7000819985563;7,2541483185191;1,8;3,5531917088639;;;;;1,2933538567029;-0,3061111111111;2,5582881832643
29/08/2006;38958;21:00;0,875;6,8750;;;-0,9558300676909;;2,7702953528806;2,930554121748;160,964120876328;;21;1,9;246;1,735736369521;0,772799621844;;7,2445298859254;3,9899891955093;1,9;2,930554121748;;;;;0,6707162695869;-0,2061111111111;0,7688262555418
29/08/2006;38958;22:00;0,9166666666667;6,9167;;;-0,8086888247309;;1,6602679036392;1,846745008684;154,030058654458;;22;1,64;250;1,5410958980889;0,5609130350541;;5,5214882435973;1,2085811270817;1,64;1,846745008684;;;;;-0,4130928434771;-0,4661111111111;0,0028109367029
29/08/2006;38958;23:00;0,9583333333333;6,9583;;;-0,6683615979587;;-0,1858531562465;0,6937208525861;74,4601994899782;;23;1,44;32;-0,7630837404958;-1,2211892584653;;0,0089722842868;1,0719208445574;1,44;0,6937208525861;;;;;-1,5661169995749;-0,6661111111111;0,8100105992696
;;;;;;;;;;;;;;;;;;Número de comparaões;150;150;;;;;;;;;
;;;;;;;;;;;;;;;;;;RMSVE;2,7304921801684;;;;;;;;;;
