Sondagem Campo de Marte;;;;;
27/08/06;;;;;
12h;(UTC);;;;
;;;;;
;;;;;
Fonte: University of Wyoming:;;;;;
http://weather.uwyo.edu/cgi-bin/sounding?region=samer&TYPE=TEXT%3ALIST&YEAR=2006&MONTH=08&FROM=2000&TO=3100&STNM=83779;;;;;
"1 knot = "" 1.852 km/h

83779 SBMT Marte Civ Observations at 00Z 20 Aug 2006
";;;;;
Press;HIGHT;TEMP;RH;DIR;WIND
hPa;m;C;%;deg;KNOT
1000;98;;;;
930;722;20,2;79;330;8
925;770;17,8;79;325;11
865;1340;12,4;97;304;32
853;1457;11,9;96;300;36
850;1487;11,8;96;300;37
760;2419;7,4;92;288;46
755;2473;9,6;34;288;46
702;3073;6,7;18;280;52
700;3097;6,6;18;280;52
683;3298;5,4;15;278;50
670;3455;5,6;12;277;49
578;4633;-2,8;4;265;37
539;5190;-6,7;2;235;40
500;5770;-11,7;4;230;49
465;6318;-16,8;6;230;52
458;6433;-17,9;7;233;52
412;7212;-23,4;8;250;52
400;7430;-24,9;8;255;48
370;7993;-28,8;5;280;36
359;8211;-30,3;4;294;40
354;8311;-30,3;3;300;42
335;8704;-30,5;1;305;53
300;9480;-37,5;4;305;53
296;9572;-38,3;4;304;53
255;10577;-45,7;;290;57
250;10710;-46,7;;290;57
227;11338;-50,8;;300;60
216;11661;-52,9;;290;64
203;12065;-55,5;;270;60
200;12160;-54,9;;270;56
194;12356;-54;;260;56
174;13058;-50,7;;279;45
154;13841;-56;;300;33
150;14010;-57,1;;300;32
137;14565;-61;;285;29
110;15909;-70,3;;300;40
101;16420;-66,7;;300;42
100;16480;-66,9;;300;43
