Sondagem Campo de Marte;;;;;
29/08/06;;;;;
12h;(UTC);;;;
;;;;;
;;;;;
Fonte: University of Wyoming:;;;;;
http://weather.uwyo.edu/cgi-bin/sounding?region=samer&TYPE=TEXT%3ALIST&YEAR=2006&MONTH=08&FROM=2000&TO=3100&STNM=83779;;;;;
"1 knot = "" 1.852 km/h

83779 SBMT Marte Civ Observations at 00Z 20 Aug 2006
";;;;;
Press;HIGHT;TEMP;RH;DIR;WIND
hPa;m;C;%;deg;KNOT
1000;193;;;;
939;722;11,8;87;200;10
933;776;11,4;87;170;10
925;849;10,8;87;160;12
919;903;10,3;88;155;12
900;1076;8,8;93;165;14
885;1216;7,7;98;165;15
877;1291;7;100;164;15
850;1548;5,8;99;160;16
826;1782;4,7;98;155;14
820;1842;4,4;97;163;14
800;2044;4,9;94;190;14
789;2157;5,2;92;213;15
782;2230;5,8;83;227;16
776;2293;5,4;71;240;16
770;2356;5;61;247;17
764;2420;5,8;21;255;17
758;2485;6,6;6;255;18
700;3134;4,2;2;255;31
662;3586;1,8;1;253;35
600;4369;-4;1;250;41
579;4652;-6,1;1;246;47
571;4760;-6,6;1;245;49
506;5698;-11,2;2;270;56
502;5759;-11,5;2;270;57
500;5790;-11,1;1;270;57
495;5867;-10,5;1;270;59
435;6845;-18;5;265;78
431;6915;-18,5;6;264;78
403;7415;-19,9;5;260;78
400;7470;-20,1;5;260;78
300;9530;-35,5;10;260;96
253;10691;-45,1;;246;110
250;10770;-45,5;;245;111
220;11606;-51,3;;245;117
200;12230;-55,7;;250;113
182;12825;-60,1;;253;110
150;14020;-64,7;;260;103
149;14061;-64,9;;260;102
138;14526;-67,3;;258;86
128;14981;-65,7;;256;71
123;15218;-67,1;;255;63
113;15724;-70,1;;275;54
108;15994;-71,6;;280;58
103;16276;-73,3;;275;62
101;16391;-71,9;;270;59
100;16450;-71,9;;265;56
89;17149;-68;;265;38
