Sondagem Campo de Marte;;;;;
23/08/06;;;;;
12h;(UTC);;;;
;;;;;
;;;;;
Fonte: University of Wyoming:;;;;;
http://weather.uwyo.edu/cgi-bin/sounding?region=samer&TYPE=TEXT%3ALIST&YEAR=2006&MONTH=08&FROM=2000&TO=3100&STNM=83779;;;;;
"1 knot = "" 1.852 km/h

83779 SBMT Marte Civ Observations at 00Z 20 Aug 2006
";;;;;
Press;HIGHT;TEMP;RH;DIR;WIND
hPa;m;C;%;deg;KNOT
1000;184;;;;
938;722;12;85;100;2
933;768;10;89;87;2
925;843;9,4;91;65;3
913;951;8,4;95;44;4
893;1136;13,8;55;9;7
872;1337;13,6;23;331;9
866;1395;13,1;26;320;10
850;1551;11,8;40;325;12
839;1660;11;43;325;15
833;1720;10,8;36;325;16
821;1841;10,4;23;317;16
803;2026;12,8;2;305;15
700;3160;4,6;11;230;12
698;3183;4,4;11;230;12
675;3451;2,5;11;235;11
634;3952;-1,2;10;275;20
597;4433;-4,8;9;275;19
586;4582;-5,9;9;270;20
523;5465;-10,7;1;216;12
500;5810;-13,3;2;195;9
417;7152;-25;3;130;2
400;7460;-27,7;3;135;3
379;7844;-30,9;3;145;5
328;8843;-37,8;;170;12
310;9233;-40,5;;125;11
301;9437;-41,9;;125;11
300;9460;-42,1;;130;11
297;9528;-42,7;;146;10
283;9854;-43,8;;220;8
279;9950;-44,1;;213;8
250;10680;-49,7;;160;7
241;10917;-51,5;;195;6
228;11276;-54,3;;256;14
225;11360;-54,7;;270;16
209;11830;-56,9;;257;21
207;11891;-56,2;;255;22
204;11984;-55,1;;263;22
200;12110;-55,7;;275;21
199;12142;-56;;280;20
184;12634;-60,5;;275;26
160;13507;-59,4;;265;44
150;13910;-58,9;;265;40
149;13952;-58,7;;265;40
127;14938;-62,3;;275;35
105;16113;-66,5;;250;35
101;16349;-64,5;;245;35
100;16410;-64,3;;245;33
89;17122;-65;;230;26
